Paralelo_Serial/PS.vcd
$date
	Wed Sep 30 18:28:52 2020
$end
$version
	Icarus Verilog
$end
$timescale
	100ps
$end
$scope module BPruebaPS $end
$var wire 1 ! valid_in_PS $end
$var wire 1 " reset_L $end
$var wire 1 # data_out_PS_Sint $end
$var wire 1 $ data_out_PS $end
$var wire 8 % data_in_PS [7:0] $end
$var wire 1 & clk_PS $end
$scope module PS_ $end
$var wire 1 ! valid_in_PS $end
$var wire 1 " reset_L $end
$var wire 8 ' data_in_PS [7:0] $end
$var wire 1 & clk_PS $end
$var reg 3 ( counter [2:0] $end
$var reg 8 ) data_in1_PS [7:0] $end
$var reg 7 * data_in2_PS [6:0] $end
$var reg 1 $ data_out_PS $end
$upscope $end
$scope module Sint_ $end
$var wire 7 + data_in2_PS [6:0] $end
$var wire 1 ! valid_in_PS $end
$var wire 1 " reset_L $end
$var wire 1 # data_out_PS_Sint $end
$var wire 8 , data_in_PS [7:0] $end
$var wire 8 - data_in1_PS [7:0] $end
$var wire 3 . counter [2:0] $end
$var wire 1 & clk_PS $end
$var wire 1 / _061_ $end
$var wire 1 0 _060_ $end
$var wire 1 1 _059_ $end
$var wire 1 2 _058_ $end
$var wire 1 3 _057_ $end
$var wire 1 4 _056_ $end
$var wire 1 5 _055_ $end
$var wire 1 6 _054_ $end
$var wire 1 7 _053_ $end
$var wire 1 8 _052_ $end
$var wire 1 9 _051_ $end
$var wire 1 : _050_ $end
$var wire 1 ; _049_ $end
$var wire 1 < _048_ $end
$var wire 1 = _047_ $end
$var wire 1 > _046_ $end
$var wire 1 ? _045_ $end
$var wire 1 @ _044_ $end
$var wire 1 A _043_ $end
$var wire 1 B _042_ $end
$var wire 1 C _041_ $end
$var wire 1 D _040_ $end
$var wire 1 E _039_ $end
$var wire 1 F _038_ $end
$var wire 1 G _037_ $end
$var wire 1 H _036_ $end
$var wire 1 I _035_ $end
$var wire 1 J _034_ $end
$var wire 1 K _033_ $end
$var wire 1 L _032_ $end
$var wire 1 M _031_ $end
$var wire 1 N _030_ $end
$var wire 1 O _029_ $end
$var wire 1 P _028_ $end
$var wire 1 Q _027_ $end
$var wire 1 R _026_ $end
$var wire 1 S _025_ $end
$var wire 1 T _024_ $end
$var wire 1 U _023_ $end
$var wire 1 V _022_ $end
$var wire 1 W _021_ $end
$var wire 1 X _020_ $end
$var wire 1 Y _019_ $end
$var wire 1 Z _018_ $end
$var wire 1 [ _017_ $end
$var wire 1 \ _016_ $end
$var wire 1 ] _015_ $end
$var wire 1 ^ _014_ $end
$var wire 1 _ _013_ $end
$var wire 1 ` _012_ $end
$var wire 1 a _011_ $end
$var wire 1 b _010_ $end
$var wire 1 c _009_ $end
$var wire 1 d _008_ $end
$var wire 1 e _007_ $end
$var wire 1 f _006_ $end
$var wire 1 g _005_ $end
$var wire 1 h _004_ $end
$var wire 1 i _003_ $end
$var wire 1 j _002_ $end
$var wire 8 k _001_ [7:0] $end
$var wire 3 l _000_ [2:0] $end
$scope module _062_ $end
$var wire 1 m A $end
$var wire 1 h Y $end
$upscope $end
$scope module _063_ $end
$var wire 1 n A $end
$var wire 1 g Y $end
$upscope $end
$scope module _064_ $end
$var wire 1 o A $end
$var wire 1 f Y $end
$upscope $end
$scope module _065_ $end
$var wire 1 e Y $end
$var wire 1 ! A $end
$upscope $end
$scope module _066_ $end
$var wire 1 d Y $end
$var wire 1 " A $end
$upscope $end
$scope module _067_ $end
$var wire 1 p A $end
$var wire 1 c Y $end
$upscope $end
$scope module _068_ $end
$var wire 1 q A $end
$var wire 1 b Y $end
$upscope $end
$scope module _069_ $end
$var wire 1 r A $end
$var wire 1 a Y $end
$upscope $end
$scope module _070_ $end
$var wire 1 s A $end
$var wire 1 t B $end
$var wire 1 ` Y $end
$upscope $end
$scope module _071_ $end
$var wire 1 u A $end
$var wire 1 v B $end
$var wire 1 _ Y $end
$upscope $end
$scope module _072_ $end
$var wire 1 h A $end
$var wire 1 _ B $end
$var wire 1 ^ Y $end
$upscope $end
$scope module _073_ $end
$var wire 1 w A $end
$var wire 1 x B $end
$var wire 1 ] Y $end
$upscope $end
$scope module _074_ $end
$var wire 1 ` A $end
$var wire 1 ] B $end
$var wire 1 \ Y $end
$upscope $end
$scope module _075_ $end
$var wire 1 ^ A $end
$var wire 1 \ B $end
$var wire 1 [ Y $end
$upscope $end
$scope module _076_ $end
$var wire 1 y A $end
$var wire 1 z B $end
$var wire 1 Z Y $end
$upscope $end
$scope module _077_ $end
$var wire 1 Z A $end
$var wire 1 Y Y $end
$upscope $end
$scope module _078_ $end
$var wire 1 g A $end
$var wire 1 Y B $end
$var wire 1 X Y $end
$upscope $end
$scope module _079_ $end
$var wire 1 { A $end
$var wire 1 Z B $end
$var wire 1 W Y $end
$upscope $end
$scope module _080_ $end
$var wire 1 | A $end
$var wire 1 } B $end
$var wire 1 V Y $end
$upscope $end
$scope module _081_ $end
$var wire 1 ~ A $end
$var wire 1 V B $end
$var wire 1 U Y $end
$upscope $end
$scope module _082_ $end
$var wire 1 U A $end
$var wire 1 T Y $end
$upscope $end
$scope module _083_ $end
$var wire 1 X A $end
$var wire 1 U B $end
$var wire 1 S Y $end
$upscope $end
$scope module _084_ $end
$var wire 1 W A $end
$var wire 1 T B $end
$var wire 1 R Y $end
$upscope $end
$scope module _085_ $end
$var wire 1 f A $end
$var wire 1 Q Y $end
$var wire 1 ! B $end
$upscope $end
$scope module _086_ $end
$var wire 1 R A $end
$var wire 1 Q B $end
$var wire 1 P Y $end
$upscope $end
$scope module _087_ $end
$var wire 1 [ A $end
$var wire 1 S B $end
$var wire 1 O Y $end
$upscope $end
$scope module _088_ $end
$var wire 1 P A $end
$var wire 1 O B $end
$var wire 1 N Y $end
$upscope $end
$scope module _089_ $end
$var wire 1 !" A $end
$var wire 1 N B $end
$var wire 1 M Y $end
$upscope $end
$scope module _090_ $end
$var wire 1 d A $end
$var wire 1 M B $end
$var wire 1 "" Y $end
$upscope $end
$scope module _091_ $end
$var wire 1 c B $end
$var wire 1 L Y $end
$var wire 1 ! A $end
$upscope $end
$scope module _092_ $end
$var wire 1 R A $end
$var wire 1 L B $end
$var wire 1 K Y $end
$upscope $end
$scope module _093_ $end
$var wire 1 O A $end
$var wire 1 K B $end
$var wire 1 J Y $end
$upscope $end
$scope module _094_ $end
$var wire 1 #" A $end
$var wire 1 J B $end
$var wire 1 I Y $end
$upscope $end
$scope module _095_ $end
$var wire 1 d A $end
$var wire 1 I B $end
$var wire 1 $" Y $end
$upscope $end
$scope module _096_ $end
$var wire 1 b B $end
$var wire 1 H Y $end
$var wire 1 ! A $end
$upscope $end
$scope module _097_ $end
$var wire 1 R A $end
$var wire 1 H B $end
$var wire 1 G Y $end
$upscope $end
$scope module _098_ $end
$var wire 1 O A $end
$var wire 1 G B $end
$var wire 1 F Y $end
$upscope $end
$scope module _099_ $end
$var wire 1 %" A $end
$var wire 1 F B $end
$var wire 1 E Y $end
$upscope $end
$scope module _100_ $end
$var wire 1 d A $end
$var wire 1 E B $end
$var wire 1 &" Y $end
$upscope $end
$scope module _101_ $end
$var wire 1 a B $end
$var wire 1 D Y $end
$var wire 1 ! A $end
$upscope $end
$scope module _102_ $end
$var wire 1 R A $end
$var wire 1 D B $end
$var wire 1 C Y $end
$upscope $end
$scope module _103_ $end
$var wire 1 O A $end
$var wire 1 C B $end
$var wire 1 B Y $end
$upscope $end
$scope module _104_ $end
$var wire 1 '" A $end
$var wire 1 B B $end
$var wire 1 A Y $end
$upscope $end
$scope module _105_ $end
$var wire 1 d A $end
$var wire 1 A B $end
$var wire 1 (" Y $end
$upscope $end
$scope module _106_ $end
$var wire 1 )" B $end
$var wire 1 @ Y $end
$var wire 1 ! A $end
$upscope $end
$scope module _107_ $end
$var wire 1 O A $end
$var wire 1 @ B $end
$var wire 1 ? Y $end
$upscope $end
$scope module _108_ $end
$var wire 1 *" A $end
$var wire 1 ? B $end
$var wire 1 > Y $end
$upscope $end
$scope module _109_ $end
$var wire 1 d A $end
$var wire 1 > B $end
$var wire 1 +" Y $end
$upscope $end
$scope module _110_ $end
$var wire 1 ," B $end
$var wire 1 = Y $end
$var wire 1 ! A $end
$upscope $end
$scope module _111_ $end
$var wire 1 R A $end
$var wire 1 = B $end
$var wire 1 < Y $end
$upscope $end
$scope module _112_ $end
$var wire 1 -" A $end
$var wire 1 R B $end
$var wire 1 ; Y $end
$upscope $end
$scope module _113_ $end
$var wire 1 ; A $end
$var wire 1 : Y $end
$upscope $end
$scope module _114_ $end
$var wire 1 < A $end
$var wire 1 : B $end
$var wire 1 9 Y $end
$upscope $end
$scope module _115_ $end
$var wire 1 [ B $end
$var wire 1 8 Y $end
$var wire 1 " A $end
$upscope $end
$scope module _116_ $end
$var wire 1 9 A $end
$var wire 1 8 B $end
$var wire 1 ." Y $end
$upscope $end
$scope module _117_ $end
$var wire 1 /" B $end
$var wire 1 7 Y $end
$var wire 1 ! A $end
$upscope $end
$scope module _118_ $end
$var wire 1 O A $end
$var wire 1 7 B $end
$var wire 1 6 Y $end
$upscope $end
$scope module _119_ $end
$var wire 1 0" A $end
$var wire 1 6 B $end
$var wire 1 5 Y $end
$upscope $end
$scope module _120_ $end
$var wire 1 d A $end
$var wire 1 5 B $end
$var wire 1 1" Y $end
$upscope $end
$scope module _121_ $end
$var wire 1 e A $end
$var wire 1 2" B $end
$var wire 1 4 Y $end
$upscope $end
$scope module _122_ $end
$var wire 1 O A $end
$var wire 1 4 B $end
$var wire 1 3 Y $end
$upscope $end
$scope module _123_ $end
$var wire 1 3" A $end
$var wire 1 3 B $end
$var wire 1 2 Y $end
$upscope $end
$scope module _124_ $end
$var wire 1 d A $end
$var wire 1 2 B $end
$var wire 1 j Y $end
$upscope $end
$scope module _125_ $end
$var wire 1 O B $end
$var wire 1 1 Y $end
$var wire 1 " A $end
$upscope $end
$scope module _126_ $end
$var wire 1 4" A $end
$var wire 1 1 B $end
$var wire 1 5" Y $end
$upscope $end
$scope module _127_ $end
$var wire 1 Z B $end
$var wire 1 0 Y $end
$var wire 1 " A $end
$upscope $end
$scope module _128_ $end
$var wire 1 V A $end
$var wire 1 0 B $end
$var wire 1 6" Y $end
$upscope $end
$scope module _129_ $end
$var wire 1 7" A $end
$var wire 1 Z B $end
$var wire 1 / Y $end
$upscope $end
$scope module _130_ $end
$var wire 1 X A $end
$var wire 1 / B $end
$var wire 1 i Y $end
$upscope $end
$scope module _131_ $end
$var wire 1 d A $end
$var wire 1 i B $end
$var wire 1 8" Y $end
$upscope $end
$scope module _132_ $end
$var wire 1 9" D $end
$var wire 1 & C $end
$var reg 1 :" Q $end
$upscope $end
$scope module _133_ $end
$var wire 1 ;" D $end
$var wire 1 & C $end
$var reg 1 <" Q $end
$upscope $end
$scope module _134_ $end
$var wire 1 =" D $end
$var wire 1 & C $end
$var reg 1 >" Q $end
$upscope $end
$scope module _135_ $end
$var wire 1 j D $end
$var wire 1 & C $end
$var reg 1 # Q $end
$upscope $end
$scope module _136_ $end
$var wire 1 ?" D $end
$var wire 1 & C $end
$var reg 1 @" Q $end
$upscope $end
$scope module _137_ $end
$var wire 1 A" D $end
$var wire 1 & C $end
$var reg 1 B" Q $end
$upscope $end
$scope module _138_ $end
$var wire 1 C" D $end
$var wire 1 & C $end
$var reg 1 D" Q $end
$upscope $end
$scope module _139_ $end
$var wire 1 E" D $end
$var wire 1 & C $end
$var reg 1 F" Q $end
$upscope $end
$scope module _140_ $end
$var wire 1 G" D $end
$var wire 1 & C $end
$var reg 1 H" Q $end
$upscope $end
$scope module _141_ $end
$var wire 1 I" D $end
$var wire 1 & C $end
$var reg 1 J" Q $end
$upscope $end
$scope module _142_ $end
$var wire 1 K" D $end
$var wire 1 & C $end
$var reg 1 L" Q $end
$upscope $end
$upscope $end
$scope module probador_ $end
$var wire 1 $ data_out_PS $end
$var wire 1 # data_out_PS_Sint $end
$var reg 1 M" clk $end
$var reg 1 & clk_PS $end
$var reg 8 N" data_in_PS [7:0] $end
$var reg 1 " reset_L $end
$var reg 1 ! valid_in_PS $end
$upscope $end
$upscope $end
$scope module BUF $end
$var wire 1 O" A $end
$var wire 1 P" Y $end
$upscope $end
$scope module DFFSR $end
$var wire 1 Q" C $end
$var wire 1 R" D $end
$var wire 1 S" R $end
$var wire 1 T" S $end
$var reg 1 U" Q $end
$upscope $end
$enddefinitions $end
#0
$dumpvars
xU"
zT"
zS"
zR"
zQ"
zP"
zO"
b0 N"
0M"
xL"
0K"
xJ"
0I"
xH"
0G"
xF"
0E"
xD"
0C"
xB"
0A"
x@"
0?"
x>"
0="
x<"
0;"
x:"
09"
08"
x7"
06"
05"
x4"
x3"
02"
01"
x0"
0/"
0."
x-"
0,"
0+"
x*"
0)"
0("
x'"
0&"
x%"
0$"
x#"
0""
x!"
x~
x}
x|
x{
xz
xy
xx
xw
xv
xu
xt
xs
0r
0q
0p
0o
xn
xm
b0 l
bz0000000 k
0j
xi
xh
xg
1f
0e
1d
1c
1b
1a
x`
x_
x^
x]
x\
x[
xZ
xY
xX
xW
xV
xU
xT
xS
xR
0Q
xP
xO
xN
xM
0L
xK
xJ
xI
0H
xG
xF
xE
0D
xC
xB
xA
1@
0?
x>
1=
0<
x;
x:
x9
18
17
06
x5
14
03
x2
11
10
x/
bx .
bzxxxxxxx -
b0 ,
b0 +
b0 *
b0 )
b0 (
b0 '
1&
b0 %
0$
x#
0"
1!
$end
#40
0&
#80
1M
1I
1E
1A
0N
0J
0F
0B
1P
1K
1G
1C
0O
0R
1[
19
1S
1i
1T
0\
0U
0/
0^
0:
0X
0Y
12
15
1_
1]
1;
1>
1`
1W
1V
1Z
1h
1g
03"
0m
00"
0x
0!"
0v
0#"
0t
0%"
0u
0'"
0w
0-"
0*"
0s
07"
0~
0{
0n
0}
0z
04"
0|
0y
0L"
0J"
0H"
0F"
0D"
0B"
bz0000000 -
0@"
0#
0>"
0<"
b0 .
0:"
1&
#120
0&
#160
1&
#200
0&
#240
1&
#280
0&
#320
1E"
1I"
1&"
1""
1?"
1A"
0E
0M
1j
1."
bz0101011 k
1+"
1F
1N
02
09
0>
0G
0P
13
1<
1?
1H
1Q
04
0=
0@
0b
0f
12"
1,"
1)"
1q
1o
b10101011 %
b10101011 '
b10101011 ,
b10101011 N"
1&
1M"
00
08
0d
1"
#360
0&
#400
0I"
0E"
0""
0&"
0j
19"
1M
1E
12
b1 l
15"
0?"
0N
0F
0?
03
01
0."
1O
18
0[
1K"
1G"
1C"
11"
1$"
bz1010110 k
1("
1\
05
0I
0A
0]
0`
10"
1x
1#"
1t
1'"
1w
1-"
1*"
1s
1J"
1F"
1B"
bz0101011 -
1@"
1#
1$
b10101011 )
1&
#440
0&
#480
19
0K
0C
0<
1R
0S
0T
1;"
0A"
1E"
0G"
1I"
0K"
1U
16"
0+"
1&"
0$"
1""
bz0101100 k
01"
1j
09"
1^
b10 l
05"
0V
1>
0E
1I
1`
0M
0_
15
02
0h
14"
1|
1y
0-"
0*"
0s
1%"
1u
0#"
0t
1!"
1v
00"
0x
13"
1m
b1 (
b1010110 )
0$
b1 .
1:"
0#
0@"
1D"
0F"
1H"
0J"
bz1010110 -
1L"
1&
#520
0&
#560
1K"
0I"
1G"
0C"
0j
11"
0""
1$"
bz1011000 k
0("
19"
12
05
1M
0I
0`
1A
b11 l
15"
1h
03"
0m
10"
1x
0!"
0v
1#"
1t
0'"
0w
1}
1z
04"
0|
0y
0L"
1J"
0H"
1F"
bz0101100 -
0B"
1#
1<"
b10 .
0:"
b10 (
b10101100 )
1$
1&
#600
0&
#640
1="
18"
0;"
06"
0i
0E"
1I"
0K"
10
1/
0&"
1""
bz0110000 k
01"
1j
09"
1Y
b100 l
05"
0Z
1E
0M
15
1]
02
0h
14"
1|
1y
0%"
0u
1!"
1v
00"
0x
13"
1m
b11 (
b1011000 )
0$
b11 .
1:"
0#
0D"
1H"
0J"
bz1011000 -
1L"
1&
0M"
#680
0&
#720
1="
18"
1K"
0G"
1X
0j
11"
bz1100000 k
0$"
0i
0S
0W
00
1T
19"
0Y
12
05
0]
1I
1`
0/
0U
b101 l
15"
1V
1Z
1h
0g
03"
0m
10"
1x
0#"
0t
17"
1~
1{
1n
0}
0z
04"
0|
0y
0L"
1J"
bz0110000 -
0F"
1#
1>"
0<"
b100 .
0:"
b100 (
b10110000 )
1$
1&
#760
0&
#800
1;"
0I"
16"
bz1000000 k
0""
1j
09"
b110 l
05"
0V
1M
1_
02
0h
14"
1|
1y
0!"
0v
13"
1m
b101 (
b1100000 )
0$
b101 .
1:"
0#
0H"
bz1100000 -
1L"
1&
#840
0&
#880
0K"
bz0000000 k
01"
0\
19"
15
1]
b111 l
15"
00"
0x
1}
1z
04"
0|
0y
bz1000000 -
0J"
1#
1<"
b110 .
0:"
b110 (
b11000000 )
1$
1&
#920
0&
#960
1G"
1C"
1A"
1K"
1$"
1("
1+"
bz1010110 k
11"
0I
0A
0>
05
1J
1B
1?
16
11
0="
0O
08"
1P
1G
1S
1i
0;"
08
0R
06"
0X
1[
1W
10
0j
09"
1Y
0^
1D
0H
1L
0Q
b0 l
05"
0Z
12
14
07
1=
1h
0a
1b
0c
1f
14"
1|
1y
03"
0m
02"
1/"
0,"
1r
0q
1p
0o
b111 (
b10000000 )
b111 .
1:"
bz0000000 -
0L"
b1010110 %
b1010110 '
b1010110 ,
b1010110 N"
1&
1M"
#1000
0&
#1040
0G"
0A"
0K"
0$"
0+"
01"
19"
1I
1>
15
15"
0J
0B
0?
06
01
18
0="
1P
1G
b1 l
08"
1O
0[
1I"
1E"
0R
1j
1""
bz0101100 k
1&"
1\
1i
1S
00
1^
1T
0Y
02
0M
0E
0_
0]
0/
0U
1V
1Z
0h
1g
13"
1m
1!"
1v
1%"
1u
1'"
1w
07"
0~
0{
0n
0}
0z
04"
0|
0y
1L"
1H"
1D"
bz1010110 -
1B"
0#
0>"
0<"
b0 .
0:"
0$
b1010110 )
b0 (
1&
#1080
0&
#1120
0P
0G
1R
0S
0T
1;"
0C"
1G"
0I"
1K"
1U
16"
0("
1$"
0""
bz1011000 k
11"
0j
09"
b10 l
05"
0V
1A
0I
0`
1M
05
12
1h
14"
1|
1y
0'"
0w
1#"
1t
0!"
0v
10"
1x
03"
0m
b1 (
b10101100 )
1$
b1 .
1:"
1#
0B"
1F"
0H"
1J"
bz0101100 -
0L"
1&
#1160
0&
#1200
0K"
1I"
0E"
1j
01"
1""
bz0110000 k
0&"
19"
02
15
1]
0M
1E
b11 l
15"
0h
13"
1m
00"
0x
1!"
1v
0%"
0u
1}
1z
04"
0|
0y
1L"
0J"
1H"
bz1011000 -
0D"
0#
1<"
b10 .
0:"
b10 (
b1011000 )
0$
1&
#1240
0&
#1280
1="
18"
0;"
06"
0i
0G"
1K"
10
1/
0$"
bz1100000 k
11"
0j
09"
1Y
b100 l
05"
0Z
1I
1`
05
0]
12
1h
14"
1|
1y
0#"
0t
10"
1x
03"
0m
b11 (
b10110000 )
1$
b11 .
1:"
1#
0F"
1J"
bz0110000 -
0L"
1&
0M"
#1320
0&
#1360
1="
18"
0I"
1X
1j
bz1000000 k
0""
0i
0S
0W
00
1T
19"
0Y
02
1M
1_
0/
0U
b101 l
15"
1V
1Z
0h
0g
13"
1m
0!"
0v
17"
1~
1{
1n
0}
0z
04"
0|
0y
1L"
bz1100000 -
0H"
0#
1>"
0<"
b100 .
0:"
b100 (
b1100000 )
0$
1&
#1400
0&
#1440
1;"
0K"
16"
bz0000000 k
01"
0\
09"
b110 l
05"
0V
15
1]
14"
1|
1y
00"
0x
b101 (
b11000000 )
1$
b101 .
1:"
1#
bz1000000 -
0J"
1&
#1480
0&
#1520
08
1[
0j
0^
19"
12
b111 l
15"
1h
03"
0m
1}
1z
04"
0|
0y
bz0000000 -
0L"
1<"
b110 .
0:"
b110 (
b10000000 )
1&
#1560
0&
#1600
1?"
bz0000001 k
1."
11
0="
09
0O
08"
1P
1K
1G
1C
1<
1S
1i
0;"
0R
06"
0X
1W
10
09"
1Y
0D
0L
b0 l
05"
0Z
17
0=
1@
1a
1c
14"
1|
1y
0/"
1,"
0)"
0r
0p
b111 (
0$
b111 .
1:"
0#
b1 %
b1 '
b1 ,
b1 N"
1&
1M"
#1640
0&
#1680
0?"
19"
0."
15"
18
0:
01
0="
1P
1K
1G
1C
1<
1;
0[
b1 l
08"
1O
1A"
0R
bz0000010 k
1+"
1\
1i
1S
00
1T
0Y
0>
0`
0/
0U
1V
1Z
1g
1-"
1*"
1s
07"
0~
0{
0n
0}
0z
04"
0|
0y
bz0000001 -
1@"
0>"
0<"
b0 .
0:"
b1 )
b0 (
1&
#1720
0&
#1760
19
0P
0K
0G
0C
0<
1R
0S
0T
1;"
0A"
1C"
1U
16"
0+"
bz0000100 k
1("
09"
b10 l
05"
0V
1>
1`
0A
0]
14"
1|
1y
0-"
0*"
0s
1'"
1w
b1 (
b10 )
b1 .
1:"
0@"
bz0000010 -
1B"
1&
#1800
0&
#1840
1E"
0C"
1&"
1^
bz0001000 k
0("
0\
19"
0E
0_
1A
1]
b11 l
15"
1%"
1u
0'"
0w
1}
1z
04"
0|
0y
1D"
bz0000100 -
0B"
1<"
b10 .
0:"
b10 (
b100 )
1&
#1880
0&
#1920
1="
18"
0;"
06"
0i
0E"
1G"
10
1/
0&"
0^
bz0010000 k
1$"
1\
09"
1Y
b100 l
05"
0Z
1E
1_
0I
0`
14"
1|
1y
0%"
0u
1#"
1t
b11 (
b1000 )
b11 .
1:"
0D"
bz0001000 -
1F"
1&
0M"
#1960
0&
#2000
1="
18"
1I"
0G"
1X
1""
1^
bz0100000 k
0$"
0\
0i
0S
0W
00
1T
19"
0Y
0M
0_
1I
1`
0/
0U
b101 l
15"
1V
1Z
0g
1!"
1v
0#"
0t
17"
1~
1{
1n
0}
0z
04"
0|
0y
1H"
bz0010000 -
0F"
1>"
0<"
b100 .
0:"
b100 (
b10000 )
1&
#2040
0&
#2080
1;"
0I"
1K"
16"
0""
0^
bz1000000 k
11"
1\
09"
b110 l
05"
0V
1M
1_
05
0]
14"
1|
1y
0!"
0v
10"
1x
b101 (
b100000 )
b101 .
1:"
0H"
bz0100000 -
1J"
1&
#2120
0&
#2160
0K"
1j
bz0000000 k
01"
0\
1^
19"
02
15
1]
b111 l
15"
0h
13"
1m
00"
0x
1}
1z
04"
0|
0y
1L"
bz1000000 -
0J"
1<"
b110 .
0:"
b110 (
b1000000 )
1&
#2200
0&
#2240
1I"
1E"
1C"
1""
1&"
bz0101100 k
1("
0M
0E
0A
1N
1F
1B
13
11
0="
0O
08"
1K
1S
1i
0;"
08
0R
06"
0X
1[
1W
10
1j
09"
1Y
0^
1D
1H
1Q
b0 l
05"
0Z
02
04
1=
1h
0a
0b
0f
14"
1|
1y
03"
0m
12"
0,"
1r
1q
1o
b111 (
b10000000 )
1$
b111 .
1:"
1#
bz0000000 -
0L"
b10101100 %
b10101100 '
b10101100 ,
b10101100 N"
1&
1M"
#2280
0&
#2320
0I"
0C"
0""
0("
0j
19"
1M
1A
12
15"
18
0N
0F
0B
03
01
0="
1K
0[
b1 l
08"
1O
1K"
1G"
0R
11"
bz1011000 k
1$"
1\
1^
1i
1S
00
1T
0Y
05
0]
0I
0`
0_
0/
0U
1V
1Z
1g
10"
1x
1#"
1t
1%"
1u
07"
0~
0{
0n
0}
0z
04"
0|
0y
1J"
1F"
bz0101100 -
1D"
0>"
0<"
b0 .
0:"
b10101100 )
b0 (
1&
#2360
0&
#2400
0K
1R
0S
0T
1;"
0E"
1I"
0K"
1U
16"
0&"
1""
bz0110000 k
01"
1j
09"
b10 l
05"
0V
1E
0M
15
1]
02
0h
14"
1|
1y
0%"
0u
1!"
1v
00"
0x
13"
1m
b1 (
b1011000 )
0$
b1 .
1:"
0#
0D"
1H"
0J"
bz1011000 -
1L"
1&
#2440
0&
#2480
1K"
0G"
0j
11"
bz1100000 k
0$"
19"
12
05
0]
1I
1`
b11 l
15"
1h
03"
0m
10"
1x
0#"
0t
1}
1z
04"
0|
0y
0L"
1J"
bz0110000 -
0F"
1#
1<"
b10 .
0:"
b10 (
b10110000 )
1$
1&
#2520
0&
#2560
1="
18"
0;"
06"
0i
0I"
10
1/
bz1000000 k
0""
1j
09"
1Y
b100 l
05"
0Z
1M
1_
02
0h
14"
1|
1y
0!"
0v
13"
1m
b11 (
b1100000 )
0$
b11 .
1:"
0#
0H"
bz1100000 -
1L"
1&
0M"
#2600
0&
#2640
1="
18"
0K"
1X
bz0000000 k
01"
0\
0i
0S
0W
00
1T
19"
0Y
15
1]
0/
0U
b101 l
15"
1V
1Z
0g
00"
0x
17"
1~
1{
1n
0}
0z
04"
0|
0y
bz1000000 -
0J"
1#
1>"
0<"
b100 .
0:"
b100 (
b11000000 )
1$
1&
#2680
0&
#2720
08
1;"
1[
16"
0j
09"
0^
b110 l
05"
0V
12
1h
14"
1|
1y
03"
0m
b101 (
b10000000 )
b101 .
1:"
bz0000000 -
0L"
1&
#2760
0&
#2800
19"
b111 l
15"
1}
1z
04"
0|
0y
0#
1<"
b110 .
0:"
b110 (
0$
1&
#2840
0&
#2880
1I"
1G"
1E"
1C"
1""
1$"
1&"
bz0111100 k
1("
1j
0M
0I
0E
0A
02
1N
1J
1F
1B
13
11
0="
0O
08"
1S
1i
0;"
0R
06"
0X
1W
10
09"
1Y
b0 l
05"
0Z
1a
1b
1f
14"
1|
1y
02"
0r
0q
0o
b111 (
b111 .
1:"
b0 %
b0 '
b0 ,
b0 N"
1&
1M"
1L
1e
0!
#2920
0&
#2960
0C"
0("
0j
19"
1A
12
15"
18
0N
0J
0F
0B
03
01
0="
0[
b1 l
08"
1O
1K"
0R
bz1111000 k
11"
1\
1^
1i
1S
00
1T
0Y
05
0]
0`
0_
0/
0U
1V
1Z
1g
10"
1x
1!"
1v
1#"
1t
1%"
1u
07"
0~
0{
0n
0}
0z
04"
0|
0y
1J"
1H"
1F"
bz0111100 -
1D"
1#
0>"
0<"
b0 .
0:"
1$
b10111100 )
b0 (
1&
#3000
0&
#3040
1R
0S
0T
1;"
0E"
1U
16"
bz1110000 k
0&"
1j
09"
b10 l
05"
0V
1E
02
0h
14"
1|
1y
0%"
0u
13"
1m
b1 (
b1111000 )
0$
b1 .
1:"
0#
0D"
bz1111000 -
1L"
1&
#3080
0&
#3120
0G"
bz1100000 k
0$"
19"
1I
1`
b11 l
15"
0#"
0t
1}
1z
04"
0|
0y
bz1110000 -
0F"
1#
1<"
b10 .
0:"
b10 (
b11110000 )
1$
1&
#3160
0&
#3200
1="
18"
0;"
06"
0i
0I"
10
1/
bz1000000 k
0""
09"
1Y
b100 l
05"
0Z
1M
1_
14"
1|
1y
0!"
0v
b11 (
b11100000 )
b11 .
1:"
bz1100000 -
0H"
1&
0M"
#3240
0&
#3280
1="
18"
0K"
1X
bz0000000 k
01"
0\
0i
0S
0W
00
1T
19"
0Y
15
1]
0/
0U
b101 l
15"
1V
1Z
0g
00"
0x
17"
1~
1{
1n
0}
0z
04"
0|
0y
bz1000000 -
0J"
1>"
0<"
b100 .
0:"
b100 (
b11000000 )
1&
#3320
0&
#3360
08
1;"
1[
16"
0j
09"
0^
b110 l
05"
0V
12
1h
14"
1|
1y
03"
0m
b101 (
b10000000 )
b101 .
1:"
bz0000000 -
0L"
1&
#3400
0&
#3440
19"
b111 l
15"
1}
1z
04"
0|
0y
0#
1<"
b110 .
0:"
b110 (
0$
1&
#3480
0&
#3520
1I"
1G"
1E"
1C"
1""
1$"
1&"
bz0111100 k
1("
1j
0M
0I
0E
0A
02
1N
1J
1F
1B
13
11
0="
0O
08"
1S
1i
0;"
0R
06"
0X
1W
10
09"
1Y
b0 l
05"
0Z
0a
0b
0f
14"
1|
1y
12"
1/"
1,"
1)"
1r
1q
1o
b111 (
b111 .
1:"
b11101111 %
b11101111 '
b11101111 ,
b11101111 N"
1&
1M"
#3560
0&
#3600
0C"
0("
0j
19"
1A
12
15"
18
0N
0J
0F
0B
03
01
0="
0[
b1 l
08"
1O
1K"
0R
bz1111000 k
11"
1\
1^
1i
1S
00
1T
0Y
05
0]
0`
0_
0/
0U
1V
1Z
1g
10"
1x
1!"
1v
1#"
1t
1%"
1u
07"
0~
0{
0n
0}
0z
04"
0|
0y
1J"
1H"
1F"
bz0111100 -
1D"
1#
0>"
0<"
b0 .
0:"
1$
b10111100 )
b0 (
1&
#3640
0&
#3680
1R
0S
0T
1;"
0E"
1U
16"
bz1110000 k
0&"
1j
09"
b10 l
05"
0V
1E
02
0h
14"
1|
1y
0%"
0u
13"
1m
b1 (
b1111000 )
0$
b1 .
1:"
0#
0D"
bz1111000 -
1L"
1&
#3720
0&
#3760
0G"
bz1100000 k
0$"
19"
1I
1`
b11 l
15"
0#"
0t
1}
1z
04"
0|
0y
bz1110000 -
0F"
1#
1<"
b10 .
0:"
b10 (
b11110000 )
1$
1&
#3800
0&
#3840
1="
18"
0;"
06"
0i
0I"
10
1/
bz1000000 k
0""
09"
1Y
b100 l
05"
0Z
1M
1_
14"
1|
1y
0!"
0v
b11 (
b11100000 )
b11 .
1:"
bz1100000 -
0H"
1&
0M"
#3880
0&
#3920
1="
18"
0K"
1X
bz0000000 k
01"
0\
0i
0S
0W
00
1T
19"
0Y
15
1]
0/
0U
b101 l
15"
1V
1Z
0g
00"
0x
17"
1~
1{
1n
0}
0z
04"
0|
0y
bz1000000 -
0J"
1>"
0<"
b100 .
0:"
b100 (
b11000000 )
1&
#3960
0&
#4000
08
1;"
1[
16"
0j
09"
0^
b110 l
05"
0V
12
1h
14"
1|
1y
03"
0m
b101 (
b10000000 )
b101 .
1:"
bz0000000 -
0L"
1&
#4040
0&
#4080
19"
b111 l
15"
1}
1z
04"
0|
0y
0#
1<"
b110 .
0:"
b110 (
0$
1&
