serial_paralelo/resultadosSP.vcd
$date
	Wed Sep 30 16:57:25 2020
$end
$version
	Icarus Verilog
$end
$timescale
	1ps
$end
$scope module BUF $end
$var wire 1 ! A $end
$var wire 1 " Y $end
$upscope $end
$scope module Banco $end
$var wire 1 # valid_out_synth $end
$var wire 1 $ valid_out $end
$var wire 1 % reset $end
$var wire 8 & data_out_synth [7:0] $end
$var wire 8 ' data_out [7:0] $end
$var wire 1 ( data_in $end
$var wire 1 ) clk_4f $end
$var wire 1 * clk_32f $end
$var wire 1 + active_synth $end
$var wire 1 , active $end
$scope module Cond $end
$var wire 1 % reset $end
$var wire 1 ( data_in $end
$var wire 1 ) clk_4f $end
$var wire 1 * clk_32f $end
$var reg 1 , active $end
$var reg 8 - buffer [7:0] $end
$var reg 2 . counter [1:0] $end
$var reg 8 / data_out [7:0] $end
$var reg 1 0 not_clk $end
$var reg 1 $ valid_out $end
$upscope $end
$scope module Synt $end
$var wire 1 # valid_out $end
$var wire 1 % reset $end
$var wire 8 1 data_out [7:0] $end
$var wire 1 ( data_in $end
$var wire 2 2 counter [1:0] $end
$var wire 1 ) clk_4f $end
$var wire 1 * clk_32f $end
$var wire 8 3 buffer [7:0] $end
$var wire 1 + active $end
$var wire 1 4 _053_ $end
$var wire 1 5 _052_ $end
$var wire 1 6 _051_ $end
$var wire 1 7 _050_ $end
$var wire 1 8 _049_ $end
$var wire 1 9 _048_ $end
$var wire 1 : _047_ $end
$var wire 1 ; _046_ $end
$var wire 1 < _045_ $end
$var wire 1 = _044_ $end
$var wire 1 > _043_ $end
$var wire 1 ? _042_ $end
$var wire 1 @ _041_ $end
$var wire 1 A _040_ $end
$var wire 1 B _039_ $end
$var wire 1 C _038_ $end
$var wire 1 D _037_ $end
$var wire 1 E _036_ $end
$var wire 1 F _035_ $end
$var wire 1 G _034_ $end
$var wire 1 H _033_ $end
$var wire 1 I _032_ $end
$var wire 1 J _031_ $end
$var wire 1 K _030_ $end
$var wire 1 L _029_ $end
$var wire 1 M _028_ $end
$var wire 1 N _027_ $end
$var wire 1 O _026_ $end
$var wire 1 P _025_ $end
$var wire 1 Q _024_ $end
$var wire 1 R _023_ $end
$var wire 1 S _022_ $end
$var wire 1 T _021_ $end
$var wire 1 U _020_ $end
$var wire 1 V _019_ $end
$var wire 1 W _018_ $end
$var wire 1 X _017_ $end
$var wire 1 Y _016_ $end
$var wire 1 Z _015_ $end
$var wire 1 [ _014_ $end
$var wire 1 \ _013_ $end
$var wire 1 ] _012_ $end
$var wire 1 ^ _011_ $end
$var wire 1 _ _010_ $end
$var wire 1 ` _009_ $end
$var wire 1 a _008_ $end
$var wire 1 b _007_ $end
$var wire 1 c _006_ $end
$var wire 1 d _005_ $end
$var wire 1 e _004_ $end
$var wire 1 f _003_ $end
$var wire 1 g _002_ $end
$var wire 1 h _001_ $end
$var wire 1 i _000_ $end
$scope module _054_ $end
$var wire 1 j A $end
$var wire 1 U Y $end
$upscope $end
$scope module _055_ $end
$var wire 1 k A $end
$var wire 1 T Y $end
$upscope $end
$scope module _056_ $end
$var wire 1 l A $end
$var wire 1 S Y $end
$upscope $end
$scope module _057_ $end
$var wire 1 m A $end
$var wire 1 R Y $end
$upscope $end
$scope module _058_ $end
$var wire 1 n A $end
$var wire 1 Q Y $end
$upscope $end
$scope module _059_ $end
$var wire 1 o A $end
$var wire 1 P Y $end
$upscope $end
$scope module _060_ $end
$var wire 1 p A $end
$var wire 1 O Y $end
$upscope $end
$scope module _061_ $end
$var wire 1 a Y $end
$var wire 1 * A $end
$upscope $end
$scope module _062_ $end
$var wire 1 N Y $end
$var wire 1 % A $end
$upscope $end
$scope module _063_ $end
$var wire 1 M Y $end
$var wire 1 + A $end
$upscope $end
$scope module _064_ $end
$var wire 1 q A $end
$var wire 1 r B $end
$var wire 1 L Y $end
$upscope $end
$scope module _065_ $end
$var wire 1 s A $end
$var wire 1 t B $end
$var wire 1 K Y $end
$upscope $end
$scope module _066_ $end
$var wire 1 K A $end
$var wire 1 J Y $end
$upscope $end
$scope module _067_ $end
$var wire 1 L A $end
$var wire 1 J B $end
$var wire 1 I Y $end
$upscope $end
$scope module _068_ $end
$var wire 1 u A $end
$var wire 1 T B $end
$var wire 1 H Y $end
$upscope $end
$scope module _069_ $end
$var wire 1 v A $end
$var wire 1 w B $end
$var wire 1 G Y $end
$upscope $end
$scope module _070_ $end
$var wire 1 H A $end
$var wire 1 G B $end
$var wire 1 F Y $end
$upscope $end
$scope module _071_ $end
$var wire 1 I A $end
$var wire 1 F B $end
$var wire 1 E Y $end
$upscope $end
$scope module _072_ $end
$var wire 1 E B $end
$var wire 1 D Y $end
$var wire 1 + A $end
$upscope $end
$scope module _073_ $end
$var wire 1 D A $end
$var wire 1 V Y $end
$upscope $end
$scope module _074_ $end
$var wire 1 U A $end
$var wire 1 D B $end
$var wire 1 W Y $end
$upscope $end
$scope module _075_ $end
$var wire 1 x A $end
$var wire 1 C Y $end
$var wire 1 + B $end
$upscope $end
$scope module _076_ $end
$var wire 1 C A $end
$var wire 1 X Y $end
$upscope $end
$scope module _077_ $end
$var wire 1 S A $end
$var wire 1 D B $end
$var wire 1 Y Y $end
$upscope $end
$scope module _078_ $end
$var wire 1 R A $end
$var wire 1 D B $end
$var wire 1 Z Y $end
$upscope $end
$scope module _079_ $end
$var wire 1 Q A $end
$var wire 1 D B $end
$var wire 1 [ Y $end
$upscope $end
$scope module _080_ $end
$var wire 1 P A $end
$var wire 1 D B $end
$var wire 1 \ Y $end
$upscope $end
$scope module _081_ $end
$var wire 1 y A $end
$var wire 1 B Y $end
$var wire 1 + B $end
$upscope $end
$scope module _082_ $end
$var wire 1 B A $end
$var wire 1 ] Y $end
$upscope $end
$scope module _083_ $end
$var wire 1 z A $end
$var wire 1 A Y $end
$var wire 1 + B $end
$upscope $end
$scope module _084_ $end
$var wire 1 A A $end
$var wire 1 ^ Y $end
$upscope $end
$scope module _085_ $end
$var wire 1 M B $end
$var wire 1 @ Y $end
$var wire 1 % A $end
$upscope $end
$scope module _086_ $end
$var wire 1 E A $end
$var wire 1 @ B $end
$var wire 1 ? Y $end
$upscope $end
$scope module _087_ $end
$var wire 1 N A $end
$var wire 1 ? B $end
$var wire 1 > Y $end
$upscope $end
$scope module _088_ $end
$var wire 1 { A $end
$var wire 1 > B $end
$var wire 1 = Y $end
$upscope $end
$scope module _089_ $end
$var wire 1 | A $end
$var wire 1 } B $end
$var wire 1 < Y $end
$upscope $end
$scope module _090_ $end
$var wire 1 < A $end
$var wire 1 ; Y $end
$upscope $end
$scope module _091_ $end
$var wire 1 ~ A $end
$var wire 1 !" B $end
$var wire 1 : Y $end
$upscope $end
$scope module _092_ $end
$var wire 1 ; A $end
$var wire 1 : B $end
$var wire 1 9 Y $end
$upscope $end
$scope module _093_ $end
$var wire 1 ? A $end
$var wire 1 9 B $end
$var wire 1 8 Y $end
$upscope $end
$scope module _094_ $end
$var wire 1 = A $end
$var wire 1 8 B $end
$var wire 1 _ Y $end
$upscope $end
$scope module _095_ $end
$var wire 1 "" A $end
$var wire 1 > B $end
$var wire 1 7 Y $end
$upscope $end
$scope module _096_ $end
$var wire 1 O A $end
$var wire 1 ? B $end
$var wire 1 6 Y $end
$upscope $end
$scope module _097_ $end
$var wire 1 7 A $end
$var wire 1 6 B $end
$var wire 1 ` Y $end
$upscope $end
$scope module _098_ $end
$var wire 1 E A $end
$var wire 1 < B $end
$var wire 1 5 Y $end
$upscope $end
$scope module _099_ $end
$var wire 1 5 B $end
$var wire 1 4 Y $end
$var wire 1 + A $end
$upscope $end
$scope module _100_ $end
$var wire 1 N A $end
$var wire 1 4 B $end
$var wire 1 i Y $end
$upscope $end
$scope module _101_ $end
$var wire 1 b Y $end
$var wire 1 * A $end
$upscope $end
$scope module _102_ $end
$var wire 1 c Y $end
$var wire 1 * A $end
$upscope $end
$scope module _103_ $end
$var wire 1 d Y $end
$var wire 1 * A $end
$upscope $end
$scope module _104_ $end
$var wire 1 e Y $end
$var wire 1 * A $end
$upscope $end
$scope module _105_ $end
$var wire 1 f Y $end
$var wire 1 * A $end
$upscope $end
$scope module _106_ $end
$var wire 1 g Y $end
$var wire 1 * A $end
$upscope $end
$scope module _107_ $end
$var wire 1 h Y $end
$var wire 1 * A $end
$upscope $end
$scope module _108_ $end
$var wire 1 i D $end
$var wire 1 * C $end
$var reg 1 + Q $end
$upscope $end
$scope module _109_ $end
$var wire 1 h C $end
$var wire 1 ( D $end
$var reg 1 #" Q $end
$upscope $end
$scope module _110_ $end
$var wire 1 g C $end
$var wire 1 $" D $end
$var reg 1 %" Q $end
$upscope $end
$scope module _111_ $end
$var wire 1 f C $end
$var wire 1 &" D $end
$var reg 1 '" Q $end
$upscope $end
$scope module _112_ $end
$var wire 1 e C $end
$var wire 1 (" D $end
$var reg 1 )" Q $end
$upscope $end
$scope module _113_ $end
$var wire 1 d C $end
$var wire 1 *" D $end
$var reg 1 +" Q $end
$upscope $end
$scope module _114_ $end
$var wire 1 c C $end
$var wire 1 ," D $end
$var reg 1 -" Q $end
$upscope $end
$scope module _115_ $end
$var wire 1 b C $end
$var wire 1 ." D $end
$var reg 1 /" Q $end
$upscope $end
$scope module _116_ $end
$var wire 1 a C $end
$var wire 1 0" D $end
$var reg 1 1" Q $end
$upscope $end
$scope module _117_ $end
$var wire 1 ` D $end
$var wire 1 * C $end
$var reg 1 2" Q $end
$upscope $end
$scope module _118_ $end
$var wire 1 _ D $end
$var wire 1 * C $end
$var reg 1 3" Q $end
$upscope $end
$scope module _119_ $end
$var wire 1 ^ D $end
$var wire 1 ) C $end
$var reg 1 4" Q $end
$upscope $end
$scope module _120_ $end
$var wire 1 ] D $end
$var wire 1 ) C $end
$var reg 1 5" Q $end
$upscope $end
$scope module _121_ $end
$var wire 1 \ D $end
$var wire 1 ) C $end
$var reg 1 6" Q $end
$upscope $end
$scope module _122_ $end
$var wire 1 [ D $end
$var wire 1 ) C $end
$var reg 1 7" Q $end
$upscope $end
$scope module _123_ $end
$var wire 1 Z D $end
$var wire 1 ) C $end
$var reg 1 8" Q $end
$upscope $end
$scope module _124_ $end
$var wire 1 Y D $end
$var wire 1 ) C $end
$var reg 1 9" Q $end
$upscope $end
$scope module _125_ $end
$var wire 1 X D $end
$var wire 1 ) C $end
$var reg 1 :" Q $end
$upscope $end
$scope module _126_ $end
$var wire 1 W D $end
$var wire 1 ) C $end
$var reg 1 ;" Q $end
$upscope $end
$scope module _127_ $end
$var wire 1 V D $end
$var wire 1 ) C $end
$var reg 1 # Q $end
$upscope $end
$upscope $end
$scope module test $end
$var wire 1 , active $end
$var wire 1 + active_synth $end
$var wire 8 <" data_out [7:0] $end
$var wire 8 =" data_out_synth [7:0] $end
$var wire 1 $ valid_out $end
$var wire 1 # valid_out_synth $end
$var reg 1 * clk_32f $end
$var reg 1 ) clk_4f $end
$var reg 1 ( data_in $end
$var reg 1 % reset $end
$upscope $end
$upscope $end
$scope module DFFSR $end
$var wire 1 >" C $end
$var wire 1 ?" D $end
$var wire 1 @" R $end
$var wire 1 A" S $end
$var reg 1 B" Q $end
$upscope $end
$enddefinitions $end
#0
$dumpvars
xB"
zA"
z@"
z?"
z>"
bx ="
bx <"
x;"
x:"
x9"
x8"
x7"
x6"
x5"
x4"
x3"
x2"
x1"
x0"
x/"
x."
x-"
x,"
x+"
x*"
x)"
x("
x'"
x&"
x%"
x$"
x#"
x""
x!"
x~
x}
x|
x{
xz
xy
xx
xw
xv
xu
xt
xs
xr
xq
xp
xo
xn
xm
xl
xk
xj
0i
0h
0g
0f
0e
0d
0c
0b
0a
0`
0_
x^
x]
x\
x[
xZ
xY
xX
xW
xV
xU
xT
xS
xR
xQ
xP
xO
1N
xM
xL
xK
xJ
xI
xH
xG
xF
xE
xD
xC
xB
xA
1@
0?
0>
1=
x<
x;
x:
x9
18
17
16
x5
x4
bx 3
bx 2
bx 1
00
bx /
b0 .
bx -
0,
x+
1*
0)
0(
bx '
bx &
0%
x$
x#
z"
z!
$end
#1000000000000
bx0 -
0^
1A
0$"
0z
0t
bx0 3
0#"
10
1h
1g
1f
1e
1d
1c
1b
1a
0*
#2000000000000
14
09
05
0;
0W
0Y
0Z
0[
0\
1:
1<
0]
0X
0V
1O
1B
1C
1D
0~
0|
0{
0""
0!"
0}
0p
1M
03"
b0 2
02"
0+
00
0h
0g
0f
0e
0d
0c
0b
0a
1*
#3000000000000
bx00 -
0J
1K
0&"
0y
0s
bx00 3
0%"
10
1h
1g
1f
1e
1d
1c
1b
1a
0*
#4000000000000
00
0h
0g
0f
0e
0d
0c
0b
0a
1*
#5000000000000
bx000 -
1E
0I
1L
1P
0("
0r
0o
bx000 3
0'"
10
1h
1g
1f
1e
1d
1c
1b
1a
0*
#6000000000000
00
0h
0g
0f
0e
0d
0c
0b
0a
1*
#7000000000000
bx0000 -
1Q
0*"
0q
0n
bx0000 3
0)"
10
1h
1g
1f
1e
1d
1c
1b
1a
0*
#8000000000000
00
0$
b0 '
b0 /
b0 <"
04"
05"
06"
07"
08"
09"
0:"
b0 &
b0 1
b0 ="
0;"
0#
0h
0g
0f
0e
0d
0c
0b
0a
1*
1)
#9000000000000
bx00000 -
0F
1G
1R
0,"
0w
0m
bx00000 3
0+"
10
1h
1g
1f
1e
1d
1c
1b
1a
0*
#10000000000000
00
0h
0g
0f
0e
0d
0c
0b
0a
1*
#11000000000000
bx000000 -
1S
0."
0v
0l
bx000000 3
0-"
10
1h
1g
1f
1e
1d
1c
1b
1a
0*
#12000000000000
00
0h
0g
0f
0e
0d
0c
0b
0a
1*
#13000000000000
bx0000000 -
1T
00"
0x
0k
bx0000000 3
0/"
10
1h
1g
1f
1e
1d
1c
1b
1a
0*
#14000000000000
00
0h
0g
0f
0e
0d
0c
0b
0a
1*
#15000000000000
b0 -
1H
1U
0u
0j
b0 3
01"
10
1h
1g
1f
1e
1d
1c
1b
1a
0*
#16000000000000
00
0h
0g
0f
0e
0d
0c
0b
0a
1*
0)
#17000000000000
10
1h
1g
1f
1e
1d
1c
1b
1a
0*
#18000000000000
00
0h
0g
0f
0e
0d
0c
0b
0a
1*
#19000000000000
10
1h
1g
1f
1e
1d
1c
1b
1a
0*
#20000000000000
00
0h
0g
0f
0e
0d
0c
0b
0a
1*
#21000000000000
10
1h
1g
1f
1e
1d
1c
1b
1a
0*
#22000000000000
00
0h
0g
0f
0e
0d
0c
0b
0a
1*
#23000000000000
10
1h
1g
1f
1e
1d
1c
1b
1a
0*
#24000000000000
1>
0@
0N
00
1(
1%
0h
0g
0f
0e
0d
0c
0b
0a
1*
1)
#25000000000000
b1 -
1J
0K
1$"
1z
1t
b1 3
1#"
10
1h
1g
1f
1e
1d
1c
1b
1a
0*
#26000000000000
0(
00
0h
0g
0f
0e
0d
0c
0b
0a
1*
#27000000000000
b10 -
0$"
0z
0t
1&"
1y
1s
0#"
b10 3
1%"
10
1h
1g
1f
1e
1d
1c
1b
1a
0*
#28000000000000
1(
00
0h
0g
0f
0e
0d
0c
0b
0a
1*
#29000000000000
b101 -
0P
1$"
1z
1t
0&"
0y
0s
1("
1r
1o
1#"
0%"
b101 3
1'"
10
1h
1g
1f
1e
1d
1c
1b
1a
0*
#30000000000000
00
0h
0g
0f
0e
0d
0c
0b
0a
1*
#31000000000000
b1011 -
1P
0Q
1&"
1y
1s
0("
0r
0o
1*"
1q
1n
1%"
0'"
b1011 3
1)"
10
1h
1g
1f
1e
1d
1c
1b
1a
0*
#32000000000000
00
0h
0g
0f
0e
0d
0c
0b
0a
1*
0)
#33000000000000
b10111 -
0P
1Q
0R
1("
1r
1o
0*"
0q
0n
1,"
1w
1m
1'"
0)"
b10111 3
1+"
10
1h
1g
1f
1e
1d
1c
1b
1a
0*
#34000000000000
00
0h
0g
0f
0e
0d
0c
0b
0a
1*
#35000000000000
b101111 -
0L
0Q
1R
0S
1*"
1q
1n
0,"
0w
0m
1."
1v
1l
1)"
0+"
b101111 3
1-"
10
1h
1g
1f
1e
1d
1c
1b
1a
0*
#36000000000000
0(
00
0h
0g
0f
0e
0d
0c
0b
0a
1*
#37000000000000
b1011110 -
0R
1S
0T
0$"
0z
0t
1,"
1w
1m
0."
0v
0l
10"
1x
1k
0#"
1+"
0-"
b1011110 3
1/"
10
1h
1g
1f
1e
1d
1c
1b
1a
0*
#38000000000000
00
0h
0g
0f
0e
0d
0c
0b
0a
1*
#39000000000000
b10111100 -
1`
0>
06
1?
0E
1I
1F
0J
0H
1K
0G
0S
1T
0U
0&"
0y
0s
1."
1v
1l
00"
0x
0k
1u
1j
0%"
1-"
0/"
b10111100 3
11"
10
1h
1g
1f
1e
1d
1c
1b
1a
0*
#40000000000000
1_
08
0`
19
16
0:
0O
1""
1!"
1}
1p
b1 .
b1 2
12"
1(
00
0h
0g
0f
0e
0d
0c
0b
0a
1*
1)
#41000000000000
b1111001 -
1`
07
0_
1>
18
0?
1E
0I
0F
1J
0K
1L
1H
1P
0T
1U
1$"
1z
1t
0("
0r
0o
10"
1x
1k
0u
0j
1#"
0'"
1/"
b1111001 3
01"
10
1h
1g
1f
1e
1d
1c
1b
1a
0*
#42000000000000
0(
00
0h
0g
0f
0e
0d
0c
0b
0a
1*
#43000000000000
b11110010 -
1Q
0U
0$"
0z
0t
1&"
1y
1s
0*"
0q
0n
1u
1j
0#"
1%"
0)"
b11110010 3
11"
10
1h
1g
1f
1e
1d
1c
1b
1a
0*
#44000000000000
1(
00
0h
0g
0f
0e
0d
0c
0b
0a
1*
#45000000000000
b11100101 -
1G
0P
1R
1$"
1z
1t
0&"
0y
0s
1("
1r
1o
0,"
0w
0m
1#"
0%"
1'"
b11100101 3
0+"
10
1h
1g
1f
1e
1d
1c
1b
1a
0*
#46000000000000
00
0h
0g
0f
0e
0d
0c
0b
0a
1*
#47000000000000
b11001011 -
1P
0Q
1S
1&"
1y
1s
0("
0r
0o
1*"
1q
1n
0."
0v
0l
1%"
0'"
1)"
b11001011 3
0-"
10
1h
1g
1f
1e
1d
1c
1b
1a
0*
#48000000000000
00
0h
0g
0f
0e
0d
0c
0b
0a
1*
0)
#49000000000000
b10010111 -
0H
0P
1Q
0R
1T
1("
1r
1o
0*"
0q
0n
1,"
1w
1m
00"
0x
0k
1'"
0)"
1+"
b10010111 3
0/"
10
1h
1g
1f
1e
1d
1c
1b
1a
0*
#50000000000000
00
0h
0g
0f
0e
0d
0c
0b
0a
1*
#51000000000000
b101111 -
0L
1H
0Q
1R
0S
1U
1*"
1q
1n
0,"
0w
0m
1."
1v
1l
0u
0j
1)"
0+"
1-"
b101111 3
01"
10
1h
1g
1f
1e
1d
1c
1b
1a
0*
#52000000000000
0(
00
0h
0g
0f
0e
0d
0c
0b
0a
1*
#53000000000000
b1011110 -
0R
1S
0T
0$"
0z
0t
1,"
1w
1m
0."
0v
0l
10"
1x
1k
0#"
1+"
0-"
b1011110 3
1/"
10
1h
1g
1f
1e
1d
1c
1b
1a
0*
#54000000000000
00
0h
0g
0f
0e
0d
0c
0b
0a
1*
#55000000000000
b10111100 -
0`
17
1_
0>
08
1?
0E
1I
1F
0J
0H
1K
0G
0S
1T
0U
0&"
0y
0s
1."
1v
1l
00"
0x
0k
1u
1j
0%"
1-"
0/"
b10111100 3
11"
10
1h
1g
1f
1e
1d
1c
1b
1a
0*
#56000000000000
1`
06
1O
0""
0!"
0}
0p
1~
1|
1{
b10 .
02"
b10 2
13"
1(
00
0h
0g
0f
0e
0d
0c
0b
0a
1*
1)
#57000000000000
b1111001 -
0=
1_
0`
1>
18
16
0?
1E
0I
0F
1J
0K
1L
1H
1P
0T
1U
1$"
1z
1t
0("
0r
0o
10"
1x
1k
0u
0j
1#"
0'"
1/"
b1111001 3
01"
10
1h
1g
1f
1e
1d
1c
1b
1a
0*
#58000000000000
0(
00
0h
0g
0f
0e
0d
0c
0b
0a
1*
#59000000000000
b11110010 -
1Q
0U
0$"
0z
0t
1&"
1y
1s
0*"
0q
0n
1u
1j
0#"
1%"
0)"
b11110010 3
11"
10
1h
1g
1f
1e
1d
1c
1b
1a
0*
#60000000000000
1(
00
0h
0g
0f
0e
0d
0c
0b
0a
1*
#61000000000000
b11100101 -
1G
0P
1R
1$"
1z
1t
0&"
0y
0s
1("
1r
1o
0,"
0w
0m
1#"
0%"
1'"
b11100101 3
0+"
10
1h
1g
1f
1e
1d
1c
1b
1a
0*
#62000000000000
00
0h
0g
0f
0e
0d
0c
0b
0a
1*
#63000000000000
b11001011 -
1P
0Q
1S
1&"
1y
1s
0("
0r
0o
1*"
1q
1n
0."
0v
0l
1%"
0'"
1)"
b11001011 3
0-"
10
1h
1g
1f
1e
1d
1c
1b
1a
0*
#64000000000000
00
0h
0g
0f
0e
0d
0c
0b
0a
1*
0)
#65000000000000
b10010111 -
0H
0P
1Q
0R
1T
1("
1r
1o
0*"
0q
0n
1,"
1w
1m
00"
0x
0k
1'"
0)"
1+"
b10010111 3
0/"
10
1h
1g
1f
1e
1d
1c
1b
1a
0*
#66000000000000
00
0h
0g
0f
0e
0d
0c
0b
0a
1*
#67000000000000
b101111 -
0L
1H
0Q
1R
0S
1U
1*"
1q
1n
0,"
0w
0m
1."
1v
1l
0u
0j
1)"
0+"
1-"
b101111 3
01"
10
1h
1g
1f
1e
1d
1c
1b
1a
0*
#68000000000000
0(
00
0h
0g
0f
0e
0d
0c
0b
0a
1*
#69000000000000
b1011110 -
0R
1S
0T
0$"
0z
0t
1,"
1w
1m
0."
0v
0l
10"
1x
1k
0#"
1+"
0-"
b1011110 3
1/"
10
1h
1g
1f
1e
1d
1c
1b
1a
0*
#70000000000000
00
0h
0g
0f
0e
0d
0c
0b
0a
1*
#71000000000000
b10111100 -
1=
1`
0>
08
06
1?
0E
1I
1F
0J
0H
1K
0G
0S
1T
0U
0&"
0y
0s
1."
1v
1l
00"
0x
0k
1u
1j
0%"
1-"
0/"
b10111100 3
11"
10
1h
1g
1f
1e
1d
1c
1b
1a
0*
#72000000000000
0_
1i
18
04
09
0`
15
1;
16
0<
0O
1""
1!"
1}
1p
b11 .
b11 2
12"
1(
00
0h
0g
0f
0e
0d
0c
0b
0a
1*
1)
#73000000000000
b1111001 -
1_
1`
0=
07
0i
1>
14
0?
05
1E
0I
0F
1J
0K
1L
1H
1P
0T
1U
1$"
1z
1t
0("
0r
0o
10"
1x
1k
0u
0j
1#"
0'"
1/"
b1111001 3
01"
10
1h
1g
1f
1e
1d
1c
1b
1a
0*
#74000000000000
0(
00
0h
0g
0f
0e
0d
0c
0b
0a
1*
#75000000000000
b11110010 -
1Q
0U
0$"
0z
0t
1&"
1y
1s
0*"
0q
0n
1u
1j
0#"
1%"
0)"
b11110010 3
11"
10
1h
1g
1f
1e
1d
1c
1b
1a
0*
#76000000000000
1(
00
0h
0g
0f
0e
0d
0c
0b
0a
1*
#77000000000000
b11100101 -
1G
0P
1R
1$"
1z
1t
0&"
0y
0s
1("
1r
1o
0,"
0w
0m
1#"
0%"
1'"
b11100101 3
0+"
10
1h
1g
1f
1e
1d
1c
1b
1a
0*
#78000000000000
00
0h
0g
0f
0e
0d
0c
0b
0a
1*
#79000000000000
b11001011 -
1P
0Q
1S
1&"
1y
1s
0("
0r
0o
1*"
1q
1n
0."
0v
0l
1%"
0'"
1)"
b11001011 3
0-"
10
1h
1g
1f
1e
1d
1c
1b
1a
0*
#80000000000000
00
0h
0g
0f
0e
0d
0c
0b
0a
1*
0)
#81000000000000
b10010111 -
0H
0P
1Q
0R
1T
1("
1r
1o
0*"
0q
0n
1,"
1w
1m
00"
0x
0k
1'"
0)"
1+"
b10010111 3
0/"
10
1h
1g
1f
1e
1d
1c
1b
1a
0*
#82000000000000
00
0h
0g
0f
0e
0d
0c
0b
0a
1*
#83000000000000
b101111 -
0L
1H
0Q
1R
0S
1U
1*"
1q
1n
0,"
0w
0m
1."
1v
1l
0u
0j
1)"
0+"
1-"
b101111 3
01"
10
1h
1g
1f
1e
1d
1c
1b
1a
0*
#84000000000000
0(
00
0h
0g
0f
0e
0d
0c
0b
0a
1*
#85000000000000
b1011110 -
0R
1S
0T
0$"
0z
0t
1,"
1w
1m
0."
0v
0l
10"
1x
1k
0#"
1+"
0-"
b1011110 3
1/"
10
1h
1g
1f
1e
1d
1c
1b
1a
0*
#86000000000000
00
0h
0g
0f
0e
0d
0c
0b
0a
1*
#87000000000000
b10111100 -
0_
0`
1=
17
1i
0>
04
1?
15
0E
1I
1F
0J
0H
1K
0G
0S
1T
0U
0&"
0y
0s
1."
1v
1l
00"
0x
0k
1u
1j
0%"
1-"
0/"
b10111100 3
11"
10
1h
1g
1f
1e
1d
1c
1b
1a
0*
#88000000000000
1>
0`
0?
05
16
0;
1@
1:
1<
1O
0M
0""
0!"
0}
0p
0~
0|
0{
1,
b0 .
1+
02"
b0 2
03"
00
0h
0g
0f
0e
0d
0c
0b
0a
1*
1)
#89000000000000
b1111000 -
1Y
1Z
1[
1V
0D
1E
0I
0F
1X
1L
0C
1H
1P
0T
1U
0("
0r
0o
10"
1x
1k
0u
0j
0'"
1/"
b1111000 3
01"
10
1h
1g
1f
1e
1d
1c
1b
1a
0*
#90000000000000
1(
00
0h
0g
0f
0e
0d
0c
0b
0a
1*
#91000000000000
b11110001 -
1^
1J
0[
1W
0A
0K
1Q
0U
1$"
1z
1t
0*"
0q
0n
1u
1j
1#"
0)"
b11110001 3
11"
10
1h
1g
1f
1e
1d
1c
1b
1a
0*
#92000000000000
00
0h
0g
0f
0e
0d
0c
0b
0a
1*
#93000000000000
b11100011 -
1]
0Z
0B
1G
1R
1&"
1y
1s
0,"
0w
0m
1%"
b11100011 3
0+"
10
1h
1g
1f
1e
1d
1c
1b
1a
0*
#94000000000000
0(
00
0h
0g
0f
0e
0d
0c
0b
0a
1*
#95000000000000
b11000110 -
0^
1\
0Y
1A
0P
1S
0$"
0z
0t
1("
1r
1o
0."
0v
0l
0#"
1'"
b11000110 3
0-"
10
1h
1g
1f
1e
1d
1c
1b
1a
0*
#96000000000000
1(
00
0h
0g
0f
0e
0d
0c
0b
0a
1*
0)
#97000000000000
b10001101 -
1^
0]
1[
0X
0H
0A
1B
0L
1C
0Q
1T
1$"
1z
1t
0&"
0y
0s
1*"
1q
1n
00"
0x
0k
1#"
0%"
1)"
b10001101 3
0/"
10
1h
1g
1f
1e
1d
1c
1b
1a
0*
#98000000000000
0(
00
0h
0g
0f
0e
0d
0c
0b
0a
1*
#99000000000000
b11010 -
0^
1]
0\
1Z
0W
1A
0B
1L
1H
1P
0R
1U
0$"
0z
0t
1&"
1y
1s
0("
0r
0o
1,"
1w
1m
0u
0j
0#"
1%"
0'"
1+"
b11010 3
01"
10
1h
1g
1f
1e
1d
1c
1b
1a
0*
#100000000000000
00
0h
0g
0f
0e
0d
0c
0b
0a
1*
#101000000000000
b110100 -
0]
0J
1\
0[
1Y
1B
1K
0G
0P
1Q
0S
0&"
0y
0s
1("
1r
1o
0*"
0q
0n
1."
1v
1l
0%"
1'"
0)"
b110100 3
1-"
10
1h
1g
1f
1e
1d
1c
1b
1a
0*
#102000000000000
1(
00
0h
0g
0f
0e
0d
0c
0b
0a
1*
#103000000000000
b1101001 -
1^
1J
0\
1[
0Z
1X
0A
0K
1G
0C
1P
0Q
1R
0T
1$"
1z
1t
0("
0r
0o
1*"
1q
1n
0,"
0w
0m
10"
1x
1k
1#"
0'"
1)"
0+"
b1101001 3
1/"
10
1h
1g
1f
1e
1d
1c
1b
1a
0*
#104000000000000
00
b1101001 '
b1101001 /
b1101001 <"
1$
14"
17"
19"
b1101001 &
b1101001 1
b1101001 ="
1:"
1#
0h
0g
0f
0e
0d
0c
0b
0a
1*
1)
#105000000000000
b11010011 -
1]
0[
1Z
0Y
1W
0B
1Q
0R
1S
0U
1&"
1y
1s
0*"
0q
0n
1,"
1w
1m
0."
0v
0l
1u
1j
1%"
0)"
1+"
0-"
b11010011 3
11"
10
1h
1g
1f
1e
1d
1c
1b
1a
0*
#106000000000000
0(
00
0h
0g
0f
0e
0d
0c
0b
0a
1*
#107000000000000
b10100110 -
0^
1\
0Z
1Y
0X
0H
1A
1C
0P
1R
0S
1T
0$"
0z
0t
1("
1r
1o
0,"
0w
0m
1."
1v
1l
00"
0x
0k
0#"
1'"
0+"
1-"
b10100110 3
0/"
10
1h
1g
1f
1e
1d
1c
1b
1a
0*
#108000000000000
1(
00
0h
0g
0f
0e
0d
0c
0b
0a
1*
#109000000000000
b1001101 -
1^
0]
1[
0Y
1X
0W
0A
1B
0L
0C
1H
0Q
1S
0T
1U
1$"
1z
1t
0&"
0y
0s
1*"
1q
1n
0."
0v
0l
10"
1x
1k
0u
0j
1#"
0%"
1)"
0-"
1/"
b1001101 3
01"
10
1h
1g
1f
1e
1d
1c
1b
1a
0*
#110000000000000
0(
00
0h
0g
0f
0e
0d
0c
0b
0a
1*
#111000000000000
b10011010 -
0^
1]
0\
1Z
0X
0H
1W
1A
0B
1L
1C
1P
0R
1T
0U
0$"
0z
0t
1&"
1y
1s
0("
0r
0o
1,"
1w
1m
00"
0x
0k
1u
1j
0#"
1%"
0'"
1+"
0/"
b10011010 3
11"
10
1h
1g
1f
1e
1d
1c
1b
1a
0*
#112000000000000
00
0h
0g
0f
0e
0d
0c
0b
0a
1*
0)
#113000000000000
b110100 -
0]
0J
1\
0[
1Y
0W
1B
1K
0G
1H
0P
1Q
0S
1U
0&"
0y
0s
1("
1r
1o
0*"
0q
0n
1."
1v
1l
0u
0j
0%"
1'"
0)"
1-"
b110100 3
01"
10
1h
1g
1f
1e
1d
1c
1b
1a
0*
#114000000000000
1(
00
0h
0g
0f
0e
0d
0c
0b
0a
1*
