serial_paralelo/resultadosSP.vcd
$date
	Thu Oct  1 20:48:03 2020
$end
$version
	Icarus Verilog
$end
$timescale
	1ps
$end
$scope module BUF $end
$var wire 1 ! A $end
$var wire 1 " Y $end
$upscope $end
$scope module Banco $end
$var wire 1 # valid_out_synth $end
$var wire 1 $ valid_out $end
$var wire 1 % reset $end
$var wire 8 & data_out_synth [7:0] $end
$var wire 8 ' data_out [7:0] $end
$var wire 1 ( data_in $end
$var wire 1 ) clk_4f $end
$var wire 1 * clk_32f $end
$var wire 1 + active_synth $end
$var wire 1 , active $end
$scope module Cond $end
$var wire 1 % reset $end
$var wire 1 ( data_in $end
$var wire 1 ) clk_4f $end
$var wire 1 * clk_32f $end
$var reg 1 , active $end
$var reg 8 - buffer [7:0] $end
$var reg 3 . contador_BC [2:0] $end
$var reg 4 / counter_out [3:0] $end
$var reg 8 0 data_out [7:0] $end
$var reg 1 1 not_clk_32f $end
$var reg 1 $ valid_out $end
$upscope $end
$scope module Synt $end
$var wire 1 # valid_out $end
$var wire 1 % reset $end
$var wire 8 2 data_out [7:0] $end
$var wire 1 ( data_in $end
$var wire 4 3 counter_out [3:0] $end
$var wire 3 4 contador_BC [2:0] $end
$var wire 1 ) clk_4f $end
$var wire 1 * clk_32f $end
$var wire 8 5 buffer [7:0] $end
$var wire 1 + active $end
$var wire 1 6 _123_ $end
$var wire 1 7 _122_ $end
$var wire 1 8 _121_ $end
$var wire 1 9 _120_ $end
$var wire 1 : _119_ $end
$var wire 1 ; _118_ $end
$var wire 1 < _117_ $end
$var wire 1 = _116_ $end
$var wire 1 > _115_ $end
$var wire 1 ? _114_ $end
$var wire 1 @ _113_ $end
$var wire 1 A _112_ $end
$var wire 1 B _111_ $end
$var wire 1 C _110_ $end
$var wire 1 D _109_ $end
$var wire 1 E _108_ $end
$var wire 1 F _107_ $end
$var wire 1 G _106_ $end
$var wire 1 H _105_ $end
$var wire 1 I _104_ $end
$var wire 1 J _103_ $end
$var wire 1 K _102_ $end
$var wire 1 L _101_ $end
$var wire 1 M _100_ $end
$var wire 1 N _099_ $end
$var wire 1 O _098_ $end
$var wire 1 P _097_ $end
$var wire 1 Q _096_ $end
$var wire 1 R _095_ $end
$var wire 1 S _094_ $end
$var wire 1 T _093_ $end
$var wire 1 U _092_ $end
$var wire 1 V _091_ $end
$var wire 1 W _090_ $end
$var wire 1 X _089_ $end
$var wire 1 Y _088_ $end
$var wire 1 Z _087_ $end
$var wire 1 [ _086_ $end
$var wire 1 \ _085_ $end
$var wire 1 ] _084_ $end
$var wire 1 ^ _083_ $end
$var wire 1 _ _082_ $end
$var wire 1 ` _081_ $end
$var wire 1 a _080_ $end
$var wire 1 b _079_ $end
$var wire 1 c _078_ $end
$var wire 1 d _077_ $end
$var wire 1 e _076_ $end
$var wire 1 f _075_ $end
$var wire 1 g _074_ $end
$var wire 1 h _073_ $end
$var wire 1 i _072_ $end
$var wire 1 j _071_ $end
$var wire 1 k _070_ $end
$var wire 1 l _069_ $end
$var wire 1 m _068_ $end
$var wire 1 n _067_ $end
$var wire 1 o _066_ $end
$var wire 1 p _065_ $end
$var wire 1 q _064_ $end
$var wire 1 r _063_ $end
$var wire 1 s _062_ $end
$var wire 1 t _061_ $end
$var wire 1 u _060_ $end
$var wire 1 v _059_ $end
$var wire 1 w _058_ $end
$var wire 1 x _057_ $end
$var wire 1 y _056_ $end
$var wire 1 z _055_ $end
$var wire 1 { _054_ $end
$var wire 1 | _053_ $end
$var wire 1 } _052_ $end
$var wire 1 ~ _051_ $end
$var wire 1 !" _050_ $end
$var wire 1 "" _049_ $end
$var wire 1 #" _048_ $end
$var wire 1 $" _047_ $end
$var wire 1 %" _046_ $end
$var wire 1 &" _045_ $end
$var wire 1 '" _044_ $end
$var wire 1 (" _043_ $end
$var wire 1 )" _042_ $end
$var wire 1 *" _041_ $end
$var wire 1 +" _040_ $end
$var wire 1 ," _039_ $end
$var wire 1 -" _038_ $end
$var wire 1 ." _037_ $end
$var wire 1 /" _036_ $end
$var wire 1 0" _035_ $end
$var wire 1 1" _034_ $end
$var wire 1 2" _033_ $end
$var wire 1 3" _032_ $end
$var wire 1 4" _031_ $end
$var wire 1 5" _030_ $end
$var wire 1 6" _029_ $end
$var wire 1 7" _028_ $end
$var wire 1 8" _027_ $end
$var wire 1 9" _026_ $end
$var wire 1 :" _025_ $end
$var wire 1 ;" _024_ $end
$var wire 1 <" _023_ $end
$var wire 1 =" _022_ $end
$var wire 1 >" _021_ $end
$var wire 1 ?" _020_ $end
$var wire 1 @" _019_ $end
$var wire 1 A" _018_ $end
$var wire 1 B" _017_ $end
$var wire 1 C" _016_ $end
$var wire 1 D" _015_ $end
$var wire 1 E" _014_ $end
$var wire 1 F" _013_ $end
$var wire 1 G" _012_ $end
$var wire 1 H" _011_ $end
$var wire 1 I" _010_ $end
$var wire 1 J" _009_ $end
$var wire 1 K" _008_ $end
$var wire 1 L" _007_ $end
$var wire 1 M" _006_ $end
$var wire 1 N" _005_ $end
$var wire 1 O" _004_ $end
$var wire 1 P" _003_ $end
$var wire 1 Q" _002_ $end
$var wire 1 R" _001_ $end
$var wire 1 S" _000_ $end
$scope module _124_ $end
$var wire 1 W Y $end
$var wire 1 % A $end
$upscope $end
$scope module _125_ $end
$var wire 1 T" A $end
$var wire 1 V Y $end
$upscope $end
$scope module _126_ $end
$var wire 1 U Y $end
$var wire 1 + A $end
$upscope $end
$scope module _127_ $end
$var wire 1 L" Y $end
$var wire 1 * A $end
$upscope $end
$scope module _128_ $end
$var wire 1 U" A $end
$var wire 1 T Y $end
$upscope $end
$scope module _129_ $end
$var wire 1 V" A $end
$var wire 1 S Y $end
$upscope $end
$scope module _130_ $end
$var wire 1 W" A $end
$var wire 1 R Y $end
$upscope $end
$scope module _131_ $end
$var wire 1 X" A $end
$var wire 1 Q Y $end
$upscope $end
$scope module _132_ $end
$var wire 1 Y" A $end
$var wire 1 P Y $end
$upscope $end
$scope module _133_ $end
$var wire 1 Z" A $end
$var wire 1 O Y $end
$upscope $end
$scope module _134_ $end
$var wire 1 [" A $end
$var wire 1 N Y $end
$upscope $end
$scope module _135_ $end
$var wire 1 \" A $end
$var wire 1 M Y $end
$upscope $end
$scope module _136_ $end
$var wire 1 ]" A $end
$var wire 1 L Y $end
$upscope $end
$scope module _137_ $end
$var wire 1 ^" A $end
$var wire 1 _" B $end
$var wire 1 K Y $end
$upscope $end
$scope module _138_ $end
$var wire 1 `" A $end
$var wire 1 K B $end
$var wire 1 J Y $end
$upscope $end
$scope module _139_ $end
$var wire 1 a" A $end
$var wire 1 J B $end
$var wire 1 I Y $end
$upscope $end
$scope module _140_ $end
$var wire 1 I A $end
$var wire 1 H Y $end
$upscope $end
$scope module _141_ $end
$var wire 1 U A $end
$var wire 1 H B $end
$var wire 1 G Y $end
$upscope $end
$scope module _142_ $end
$var wire 1 I B $end
$var wire 1 F Y $end
$var wire 1 + A $end
$upscope $end
$scope module _143_ $end
$var wire 1 b" A $end
$var wire 1 O B $end
$var wire 1 E Y $end
$upscope $end
$scope module _144_ $end
$var wire 1 N A $end
$var wire 1 c" B $end
$var wire 1 D Y $end
$upscope $end
$scope module _145_ $end
$var wire 1 E A $end
$var wire 1 D B $end
$var wire 1 C Y $end
$upscope $end
$scope module _146_ $end
$var wire 1 T A $end
$var wire 1 d" B $end
$var wire 1 B Y $end
$upscope $end
$scope module _147_ $end
$var wire 1 e" A $end
$var wire 1 f" B $end
$var wire 1 A Y $end
$upscope $end
$scope module _148_ $end
$var wire 1 B A $end
$var wire 1 A B $end
$var wire 1 @ Y $end
$upscope $end
$scope module _149_ $end
$var wire 1 C A $end
$var wire 1 @ B $end
$var wire 1 ? Y $end
$upscope $end
$scope module _150_ $end
$var wire 1 ? A $end
$var wire 1 > Y $end
$upscope $end
$scope module _151_ $end
$var wire 1 F A $end
$var wire 1 > B $end
$var wire 1 = Y $end
$upscope $end
$scope module _152_ $end
$var wire 1 = B $end
$var wire 1 < Y $end
$var wire 1 % A $end
$upscope $end
$scope module _153_ $end
$var wire 1 < A $end
$var wire 1 ; Y $end
$upscope $end
$scope module _154_ $end
$var wire 1 g" A $end
$var wire 1 ; B $end
$var wire 1 : Y $end
$upscope $end
$scope module _155_ $end
$var wire 1 W A $end
$var wire 1 G B $end
$var wire 1 9 Y $end
$upscope $end
$scope module _156_ $end
$var wire 1 h" A $end
$var wire 1 9 B $end
$var wire 1 8 Y $end
$upscope $end
$scope module _157_ $end
$var wire 1 : A $end
$var wire 1 8 B $end
$var wire 1 4" Y $end
$upscope $end
$scope module _158_ $end
$var wire 1 i" A $end
$var wire 1 G B $end
$var wire 1 7 Y $end
$upscope $end
$scope module _159_ $end
$var wire 1 W A $end
$var wire 1 T B $end
$var wire 1 A" Y $end
$upscope $end
$scope module _160_ $end
$var wire 1 9 A $end
$var wire 1 A" B $end
$var wire 1 6 Y $end
$upscope $end
$scope module _161_ $end
$var wire 1 7 A $end
$var wire 1 6 B $end
$var wire 1 5" Y $end
$upscope $end
$scope module _162_ $end
$var wire 1 j" A $end
$var wire 1 9 B $end
$var wire 1 2" Y $end
$upscope $end
$scope module _163_ $end
$var wire 1 W A $end
$var wire 1 S B $end
$var wire 1 B" Y $end
$upscope $end
$scope module _164_ $end
$var wire 1 = A $end
$var wire 1 B" B $end
$var wire 1 1" Y $end
$upscope $end
$scope module _165_ $end
$var wire 1 2" A $end
$var wire 1 1" B $end
$var wire 1 6" Y $end
$upscope $end
$scope module _166_ $end
$var wire 1 k" A $end
$var wire 1 9 B $end
$var wire 1 0" Y $end
$upscope $end
$scope module _167_ $end
$var wire 1 W A $end
$var wire 1 R B $end
$var wire 1 C" Y $end
$upscope $end
$scope module _168_ $end
$var wire 1 = A $end
$var wire 1 C" B $end
$var wire 1 /" Y $end
$upscope $end
$scope module _169_ $end
$var wire 1 0" A $end
$var wire 1 /" B $end
$var wire 1 7" Y $end
$upscope $end
$scope module _170_ $end
$var wire 1 l" A $end
$var wire 1 9 B $end
$var wire 1 ." Y $end
$upscope $end
$scope module _171_ $end
$var wire 1 W A $end
$var wire 1 Q B $end
$var wire 1 D" Y $end
$upscope $end
$scope module _172_ $end
$var wire 1 = A $end
$var wire 1 D" B $end
$var wire 1 -" Y $end
$upscope $end
$scope module _173_ $end
$var wire 1 ." A $end
$var wire 1 -" B $end
$var wire 1 8" Y $end
$upscope $end
$scope module _174_ $end
$var wire 1 m" A $end
$var wire 1 9 B $end
$var wire 1 ," Y $end
$upscope $end
$scope module _175_ $end
$var wire 1 W A $end
$var wire 1 P B $end
$var wire 1 E" Y $end
$upscope $end
$scope module _176_ $end
$var wire 1 = A $end
$var wire 1 E" B $end
$var wire 1 +" Y $end
$upscope $end
$scope module _177_ $end
$var wire 1 ," A $end
$var wire 1 +" B $end
$var wire 1 9" Y $end
$upscope $end
$scope module _178_ $end
$var wire 1 n" A $end
$var wire 1 G B $end
$var wire 1 *" Y $end
$upscope $end
$scope module _179_ $end
$var wire 1 W A $end
$var wire 1 O B $end
$var wire 1 F" Y $end
$upscope $end
$scope module _180_ $end
$var wire 1 9 A $end
$var wire 1 F" B $end
$var wire 1 )" Y $end
$upscope $end
$scope module _181_ $end
$var wire 1 *" A $end
$var wire 1 )" B $end
$var wire 1 :" Y $end
$upscope $end
$scope module _182_ $end
$var wire 1 o" A $end
$var wire 1 G B $end
$var wire 1 (" Y $end
$upscope $end
$scope module _183_ $end
$var wire 1 W A $end
$var wire 1 N B $end
$var wire 1 G" Y $end
$upscope $end
$scope module _184_ $end
$var wire 1 9 A $end
$var wire 1 G" B $end
$var wire 1 '" Y $end
$upscope $end
$scope module _185_ $end
$var wire 1 (" A $end
$var wire 1 '" B $end
$var wire 1 ;" Y $end
$upscope $end
$scope module _186_ $end
$var wire 1 p" A $end
$var wire 1 q" B $end
$var wire 1 &" Y $end
$upscope $end
$scope module _187_ $end
$var wire 1 r" A $end
$var wire 1 &" B $end
$var wire 1 %" Y $end
$upscope $end
$scope module _188_ $end
$var wire 1 U A $end
$var wire 1 %" B $end
$var wire 1 $" Y $end
$upscope $end
$scope module _189_ $end
$var wire 1 $" A $end
$var wire 1 #" Y $end
$upscope $end
$scope module _190_ $end
$var wire 1 > A $end
$var wire 1 $" B $end
$var wire 1 "" Y $end
$upscope $end
$scope module _191_ $end
$var wire 1 ? A $end
$var wire 1 #" B $end
$var wire 1 !" Y $end
$upscope $end
$scope module _192_ $end
$var wire 1 H A $end
$var wire 1 "" B $end
$var wire 1 ~ Y $end
$upscope $end
$scope module _193_ $end
$var wire 1 I A $end
$var wire 1 !" B $end
$var wire 1 } Y $end
$upscope $end
$scope module _194_ $end
$var wire 1 s" A $end
$var wire 1 t" B $end
$var wire 1 | Y $end
$upscope $end
$scope module _195_ $end
$var wire 1 | A $end
$var wire 1 { Y $end
$upscope $end
$scope module _196_ $end
$var wire 1 } A $end
$var wire 1 | B $end
$var wire 1 z Y $end
$upscope $end
$scope module _197_ $end
$var wire 1 u" A $end
$var wire 1 z B $end
$var wire 1 y Y $end
$upscope $end
$scope module _198_ $end
$var wire 1 ? B $end
$var wire 1 x Y $end
$var wire 1 + A $end
$upscope $end
$scope module _199_ $end
$var wire 1 x A $end
$var wire 1 w Y $end
$upscope $end
$scope module _200_ $end
$var wire 1 } A $end
$var wire 1 x B $end
$var wire 1 v Y $end
$upscope $end
$scope module _201_ $end
$var wire 1 ~ A $end
$var wire 1 w B $end
$var wire 1 u Y $end
$upscope $end
$scope module _202_ $end
$var wire 1 W A $end
$var wire 1 v B $end
$var wire 1 t Y $end
$upscope $end
$scope module _203_ $end
$var wire 1 u B $end
$var wire 1 s Y $end
$var wire 1 % A $end
$upscope $end
$scope module _204_ $end
$var wire 1 v" A $end
$var wire 1 z B $end
$var wire 1 r Y $end
$upscope $end
$scope module _205_ $end
$var wire 1 t A $end
$var wire 1 r B $end
$var wire 1 q Y $end
$upscope $end
$scope module _206_ $end
$var wire 1 y A $end
$var wire 1 q B $end
$var wire 1 <" Y $end
$upscope $end
$scope module _207_ $end
$var wire 1 w" A $end
$var wire 1 ~ B $end
$var wire 1 p Y $end
$upscope $end
$scope module _208_ $end
$var wire 1 &" A $end
$var wire 1 { B $end
$var wire 1 o Y $end
$upscope $end
$scope module _209_ $end
$var wire 1 x A $end
$var wire 1 o B $end
$var wire 1 n Y $end
$upscope $end
$scope module _210_ $end
$var wire 1 ~ A $end
$var wire 1 n B $end
$var wire 1 m Y $end
$upscope $end
$scope module _211_ $end
$var wire 1 m B $end
$var wire 1 l Y $end
$var wire 1 % A $end
$upscope $end
$scope module _212_ $end
$var wire 1 p A $end
$var wire 1 l B $end
$var wire 1 =" Y $end
$upscope $end
$scope module _213_ $end
$var wire 1 V A $end
$var wire 1 ~ B $end
$var wire 1 k Y $end
$upscope $end
$scope module _214_ $end
$var wire 1 x" A $end
$var wire 1 } B $end
$var wire 1 j Y $end
$upscope $end
$scope module _215_ $end
$var wire 1 k A $end
$var wire 1 j B $end
$var wire 1 i Y $end
$upscope $end
$scope module _216_ $end
$var wire 1 s A $end
$var wire 1 i B $end
$var wire 1 >" Y $end
$upscope $end
$scope module _217_ $end
$var wire 1 I B $end
$var wire 1 h Y $end
$var wire 1 + A $end
$upscope $end
$scope module _218_ $end
$var wire 1 $" B $end
$var wire 1 g Y $end
$var wire 1 % A $end
$upscope $end
$scope module _219_ $end
$var wire 1 h A $end
$var wire 1 g B $end
$var wire 1 ?" Y $end
$upscope $end
$scope module _220_ $end
$var wire 1 W A $end
$var wire 1 y" B $end
$var wire 1 @" Y $end
$upscope $end
$scope module _221_ $end
$var wire 1 f Y $end
$var wire 1 ( B $end
$var wire 1 % A $end
$upscope $end
$scope module _222_ $end
$var wire 1 f A $end
$var wire 1 H" Y $end
$upscope $end
$scope module _223_ $end
$var wire 1 M A $end
$var wire 1 L B $end
$var wire 1 e Y $end
$upscope $end
$scope module _224_ $end
$var wire 1 z" A $end
$var wire 1 {" B $end
$var wire 1 d Y $end
$upscope $end
$scope module _225_ $end
$var wire 1 |" A $end
$var wire 1 e B $end
$var wire 1 c Y $end
$upscope $end
$scope module _226_ $end
$var wire 1 c A $end
$var wire 1 b Y $end
$upscope $end
$scope module _227_ $end
$var wire 1 }" A $end
$var wire 1 b B $end
$var wire 1 a Y $end
$upscope $end
$scope module _228_ $end
$var wire 1 W A $end
$var wire 1 I B $end
$var wire 1 ` Y $end
$upscope $end
$scope module _229_ $end
$var wire 1 c B $end
$var wire 1 _ Y $end
$var wire 1 % A $end
$upscope $end
$scope module _230_ $end
$var wire 1 I A $end
$var wire 1 _ B $end
$var wire 1 ^ Y $end
$upscope $end
$scope module _231_ $end
$var wire 1 c A $end
$var wire 1 ` B $end
$var wire 1 ] Y $end
$upscope $end
$scope module _232_ $end
$var wire 1 W A $end
$var wire 1 ~" B $end
$var wire 1 \ Y $end
$upscope $end
$scope module _233_ $end
$var wire 1 ^ A $end
$var wire 1 \ B $end
$var wire 1 [ Y $end
$upscope $end
$scope module _234_ $end
$var wire 1 a A $end
$var wire 1 [ B $end
$var wire 1 I" Y $end
$upscope $end
$scope module _235_ $end
$var wire 1 !# A $end
$var wire 1 e B $end
$var wire 1 Z Y $end
$upscope $end
$scope module _236_ $end
$var wire 1 ] A $end
$var wire 1 Z B $end
$var wire 1 J" Y $end
$upscope $end
$scope module _237_ $end
$var wire 1 d B $end
$var wire 1 Y Y $end
$var wire 1 % A $end
$upscope $end
$scope module _238_ $end
$var wire 1 K A $end
$var wire 1 Y B $end
$var wire 1 K" Y $end
$upscope $end
$scope module _239_ $end
$var wire 1 9 B $end
$var wire 1 X Y $end
$var wire 1 # A $end
$upscope $end
$scope module _240_ $end
$var wire 1 < A $end
$var wire 1 X B $end
$var wire 1 3" Y $end
$upscope $end
$scope module _241_ $end
$var wire 1 M" Y $end
$var wire 1 * A $end
$upscope $end
$scope module _242_ $end
$var wire 1 N" Y $end
$var wire 1 * A $end
$upscope $end
$scope module _243_ $end
$var wire 1 O" Y $end
$var wire 1 * A $end
$upscope $end
$scope module _244_ $end
$var wire 1 P" Y $end
$var wire 1 * A $end
$upscope $end
$scope module _245_ $end
$var wire 1 Q" Y $end
$var wire 1 * A $end
$upscope $end
$scope module _246_ $end
$var wire 1 R" Y $end
$var wire 1 * A $end
$upscope $end
$scope module _247_ $end
$var wire 1 S" Y $end
$var wire 1 * A $end
$upscope $end
$scope module _248_ $end
$var wire 1 K" D $end
$var wire 1 * C $end
$var reg 1 "# Q $end
$upscope $end
$scope module _249_ $end
$var wire 1 J" D $end
$var wire 1 * C $end
$var reg 1 ## Q $end
$upscope $end
$scope module _250_ $end
$var wire 1 I" D $end
$var wire 1 * C $end
$var reg 1 $# Q $end
$upscope $end
$scope module _251_ $end
$var wire 1 S" C $end
$var wire 1 H" D $end
$var reg 1 %# Q $end
$upscope $end
$scope module _252_ $end
$var wire 1 R" C $end
$var wire 1 G" D $end
$var reg 1 &# Q $end
$upscope $end
$scope module _253_ $end
$var wire 1 Q" C $end
$var wire 1 F" D $end
$var reg 1 '# Q $end
$upscope $end
$scope module _254_ $end
$var wire 1 P" C $end
$var wire 1 E" D $end
$var reg 1 (# Q $end
$upscope $end
$scope module _255_ $end
$var wire 1 O" C $end
$var wire 1 D" D $end
$var reg 1 )# Q $end
$upscope $end
$scope module _256_ $end
$var wire 1 N" C $end
$var wire 1 C" D $end
$var reg 1 *# Q $end
$upscope $end
$scope module _257_ $end
$var wire 1 M" C $end
$var wire 1 B" D $end
$var reg 1 +# Q $end
$upscope $end
$scope module _258_ $end
$var wire 1 L" C $end
$var wire 1 A" D $end
$var reg 1 ,# Q $end
$upscope $end
$scope module _259_ $end
$var wire 1 @" D $end
$var wire 1 * C $end
$var reg 1 -# Q $end
$upscope $end
$scope module _260_ $end
$var wire 1 ?" D $end
$var wire 1 * C $end
$var reg 1 + Q $end
$upscope $end
$scope module _261_ $end
$var wire 1 >" D $end
$var wire 1 * C $end
$var reg 1 .# Q $end
$upscope $end
$scope module _262_ $end
$var wire 1 =" D $end
$var wire 1 * C $end
$var reg 1 /# Q $end
$upscope $end
$scope module _263_ $end
$var wire 1 <" D $end
$var wire 1 * C $end
$var reg 1 0# Q $end
$upscope $end
$scope module _264_ $end
$var wire 1 ;" D $end
$var wire 1 * C $end
$var reg 1 1# Q $end
$upscope $end
$scope module _265_ $end
$var wire 1 :" D $end
$var wire 1 * C $end
$var reg 1 2# Q $end
$upscope $end
$scope module _266_ $end
$var wire 1 9" D $end
$var wire 1 * C $end
$var reg 1 3# Q $end
$upscope $end
$scope module _267_ $end
$var wire 1 8" D $end
$var wire 1 * C $end
$var reg 1 4# Q $end
$upscope $end
$scope module _268_ $end
$var wire 1 7" D $end
$var wire 1 * C $end
$var reg 1 5# Q $end
$upscope $end
$scope module _269_ $end
$var wire 1 6" D $end
$var wire 1 * C $end
$var reg 1 6# Q $end
$upscope $end
$scope module _270_ $end
$var wire 1 5" D $end
$var wire 1 * C $end
$var reg 1 7# Q $end
$upscope $end
$scope module _271_ $end
$var wire 1 4" D $end
$var wire 1 * C $end
$var reg 1 8# Q $end
$upscope $end
$scope module _272_ $end
$var wire 1 3" D $end
$var wire 1 * C $end
$var reg 1 # Q $end
$upscope $end
$upscope $end
$scope module test $end
$var wire 1 , active $end
$var wire 1 + active_synth $end
$var wire 8 9# data_out [7:0] $end
$var wire 8 :# data_out_synth [7:0] $end
$var wire 1 $ valid_out $end
$var wire 1 # valid_out_synth $end
$var reg 1 * clk_32f $end
$var reg 1 ) clk_4f $end
$var reg 1 ( data_in $end
$var reg 1 % reset $end
$upscope $end
$upscope $end
$scope module DFFSR $end
$var wire 1 ;# C $end
$var wire 1 <# D $end
$var wire 1 =# R $end
$var wire 1 ># S $end
$var reg 1 ?# Q $end
$upscope $end
$enddefinitions $end
#0
$dumpvars
x?#
z>#
z=#
z<#
z;#
bx :#
b0 9#
x8#
x7#
x6#
x5#
x4#
x3#
x2#
x1#
x0#
x/#
x.#
x-#
x,#
x+#
x*#
x)#
x(#
x'#
x&#
x%#
x$#
x##
x"#
x!#
x~"
x}"
x|"
x{"
xz"
xy"
xx"
xw"
xv"
xu"
xt"
xs"
xr"
xq"
xp"
xo"
xn"
xm"
xl"
xk"
xj"
xi"
xh"
xg"
xf"
xe"
xd"
xc"
xb"
xa"
x`"
x_"
x^"
x]"
x\"
x["
xZ"
xY"
xX"
xW"
xV"
xU"
xT"
0S"
0R"
0Q"
0P"
0O"
0N"
0M"
0L"
0K"
0J"
0I"
0H"
0G"
0F"
0E"
0D"
0C"
0B"
0A"
0@"
0?"
0>"
0="
0<"
0;"
0:"
09"
08"
07"
06"
05"
04"
03"
12"
11"
10"
1/"
1."
1-"
1,"
1+"
x*"
1)"
x("
1'"
x&"
x%"
x$"
x#"
x""
x!"
x~
x}
x|
x{
xz
xy
xx
xw
xv
xu
0t
1s
xr
1q
xp
xo
xn
xm
1l
xk
xj
xi
xh
1g
1f
xe
xd
xc
xb
xa
0`
1_
0^
1]
0\
1[
xZ
1Y
1X
1W
xV
xU
xT
xS
xR
xQ
xP
xO
xN
xM
xL
xK
xJ
xI
xH
xG
xF
xE
xD
xC
xB
xA
x@
x?
x>
x=
1<
0;
1:
09
18
x7
16
bx 5
bx 4
bx 3
bx 2
01
b0 0
b0 /
b0 .
bx -
0,
x+
1*
0)
0(
b0 '
bx &
0%
0$
x#
z"
z!
$end
#1000000000000
1n
1w
0x
0>
1?
0@
0C
1E
1A
1B
1D
1N
1O
1P
1Q
1R
1S
1T
0["
0Z"
0b"
0Y"
0f"
0X"
0e"
0W"
0d"
0V"
0U"
0g"
0c"
0%#
0&#
0'#
0(#
0)#
0*#
0+#
b0 5
0,#
b0 -
1S"
1R"
1Q"
1P"
1O"
1N"
1M"
1L"
11
0*
#2000000000000
1i
1u
1p
1m
0v
0j
0!"
0~
1""
1y
1}
1h
1#"
1H
1a
1Z
0$"
0z
0o
17
1*"
1("
0I
0{
0k
0=
0b
0e
1r
1%"
1|
1&"
0G
1J
1c
1d
1K
1V
1F
1M
1L
0h"
0i"
0j"
0k"
0l"
0m"
0n"
0o"
0v"
0u"
0r"
0w"
0s"
0p"
0x"
0t"
0q"
0T"
1U
0z"
0y"
0^"
0\"
0~"
0}"
0`"
0!#
0|"
0a"
0{"
0_"
0]"
0#
08#
07#
06#
05#
04#
03#
02#
b0 &
b0 2
b0 :#
01#
00#
0/#
b0 4
0.#
0+
0-#
0$#
0##
b0 3
0"#
0S"
0R"
0Q"
0P"
0O"
0N"
0M"
0L"
01
1*
#3000000000000
1S"
1R"
1Q"
1P"
1O"
1N"
1M"
1L"
11
0*
#4000000000000
0S"
0R"
0Q"
0P"
0O"
0N"
0M"
0L"
01
1*
#5000000000000
1S"
1R"
1Q"
1P"
1O"
1N"
1M"
1L"
11
0*
#6000000000000
0S"
0R"
0Q"
0P"
0O"
0N"
0M"
0L"
01
1*
#7000000000000
1S"
1R"
1Q"
1P"
1O"
1N"
1M"
1L"
11
0*
#8000000000000
0S"
0R"
0Q"
0P"
0O"
0N"
0M"
0L"
01
1*
1)
#9000000000000
1S"
1R"
1Q"
1P"
1O"
1N"
1M"
1L"
11
0*
#10000000000000
0S"
0R"
0Q"
0P"
0O"
0N"
0M"
0L"
01
1*
#11000000000000
1S"
1R"
1Q"
1P"
1O"
1N"
1M"
1L"
11
0*
#12000000000000
0S"
0R"
0Q"
0P"
0O"
0N"
0M"
0L"
01
1*
#13000000000000
1S"
1R"
1Q"
1P"
1O"
1N"
1M"
1L"
11
0*
#14000000000000
0S"
0R"
0Q"
0P"
0O"
0N"
0M"
0L"
01
1*
#15000000000000
1S"
1R"
1Q"
1P"
1O"
1N"
1M"
1L"
11
0*
#16000000000000
0S"
0R"
0Q"
0P"
0O"
0N"
0M"
0L"
01
1*
0)
#17000000000000
1S"
1R"
1Q"
1P"
1O"
1N"
1M"
1L"
11
0*
#18000000000000
0S"
0R"
0Q"
0P"
0O"
0N"
0M"
0L"
01
1*
#19000000000000
1S"
1R"
1Q"
1P"
1O"
1N"
1M"
1L"
11
0*
#20000000000000
0S"
0R"
0Q"
0P"
0O"
0N"
0M"
0L"
01
1*
#21000000000000
1S"
1R"
1Q"
1P"
1O"
1N"
1M"
1L"
11
0*
#22000000000000
0S"
0R"
0Q"
0P"
0O"
0N"
0M"
0L"
01
1*
#23000000000000
1S"
1R"
1Q"
1P"
1O"
1N"
1M"
1L"
11
0*
#24000000000000
06
0)"
0'"
0q
0]
0[
1^
19
1t
1@"
1`
1\
0Y
0_
0l
0s
0W
1%
0S"
0R"
0Q"
0P"
0O"
0N"
0M"
0L"
01
1*
1)
#25000000000000
1S"
1R"
1Q"
1P"
1O"
1N"
1M"
1L"
11
0*
#26000000000000
1K"
1H"
0@"
0K
0f
0M
1z"
1y"
1^"
1\"
1(
b1 3
1-#
b1 /
0S"
0R"
0Q"
0P"
0O"
0N"
0M"
0L"
01
1*
#27000000000000
1G"
0N
1["
b1 5
1%#
b1 -
1S"
1R"
1Q"
1P"
1O"
1N"
1M"
1L"
11
0*
#28000000000000
1@"
0H"
0L
1M
1f
1{"
1_"
1]"
0z"
0y"
0^"
0\"
b10 /
1"#
b10 3
0-#
0(
0S"
0R"
0Q"
0P"
0O"
0N"
0M"
0L"
01
1*
#29000000000000
0G"
1F"
1N
0O
0["
1Z"
0%#
b10 5
1&#
b10 -
1S"
1R"
1Q"
1P"
1O"
1N"
1M"
1L"
11
0*
#30000000000000
1J"
0K"
0Z
1Y
1e
1H"
0d
0@"
0f
0M
1z"
1y"
1^"
1\"
1(
b11 3
1-#
b11 /
0S"
0R"
0Q"
0P"
0O"
0N"
0M"
0L"
01
1*
#31000000000000
1G"
0E
0F"
1E"
0N
1O
0P
1["
0Z"
1b"
1Y"
1%#
0&#
b101 5
1'#
b101 -
1S"
1R"
1Q"
1P"
1O"
1N"
1M"
1L"
11
0*
#32000000000000
0I"
1^
1J"
1a
0_
0]
0Y
0b
0e
1c
1d
1@"
1K
1L
1M
0{"
0_"
0]"
1!#
1|"
1a"
0z"
0y"
0^"
0\"
b100 /
0"#
1##
b100 3
0-#
0S"
0R"
0Q"
0P"
0O"
0N"
0M"
0L"
01
1*
0)
#33000000000000
1F"
0E"
1D"
1E
0O
1P
0Q
1Z"
0b"
0Y"
1f"
1X"
1&#
0'#
b1011 5
1(#
b1011 -
1S"
1R"
1Q"
1P"
1O"
1N"
1M"
1L"
11
0*
#34000000000000
1K"
0@"
0K
0M
1z"
1y"
1^"
1\"
b101 3
1-#
b101 /
0S"
0R"
0Q"
0P"
0O"
0N"
0M"
0L"
01
1*
#35000000000000
1E"
0D"
1C"
0P
1Q
0R
1b"
1Y"
0f"
0X"
1e"
1W"
1'#
0(#
b10111 5
1)#
b10111 -
1S"
1R"
1Q"
1P"
1O"
1N"
1M"
1L"
11
0*
#36000000000000
1@"
0L
1M
1{"
1_"
1]"
0z"
0y"
0^"
0\"
b110 /
1"#
b110 3
0-#
0S"
0R"
0Q"
0P"
0O"
0N"
0M"
0L"
01
1*
#37000000000000
1D"
0C"
1B"
0B
0Q
1R
0S
1f"
1X"
0e"
0W"
1d"
1V"
1(#
0)#
b101111 5
1*#
b101111 -
1S"
1R"
1Q"
1P"
1O"
1N"
1M"
1L"
11
0*
#38000000000000
1I"
0^
0J"
0a
1_
1]
0K"
1b
0c
1Y
1e
0H"
0d
0@"
1f
0M
1z"
1y"
1^"
1\"
0(
b111 3
1-#
b111 /
0S"
0R"
0Q"
0P"
0O"
0N"
0M"
0L"
01
1*
