serial_paralelo/resultadosSP.vcd
$date
	Fri Sep 25 17:12:39 2020
$end
$version
	Icarus Verilog
$end
$timescale
	1ps
$end
$scope module BUF $end
$var wire 1 ! A $end
$var wire 1 " Y $end
$upscope $end
$scope module Banco $end
$var wire 1 # valid_out_synth $end
$var wire 1 $ valid_out $end
$var wire 8 % data_out_synth [7:0] $end
$var wire 8 & data_out [7:0] $end
$var wire 1 ' data_in $end
$var wire 1 ( clk_4f $end
$var wire 1 ) clk_32f $end
$var wire 1 * active_synth $end
$var wire 1 + active $end
$scope module Cond $end
$var wire 1 ' data_in $end
$var wire 1 ( clk_4f $end
$var wire 1 ) clk_32f $end
$var reg 1 + active $end
$var reg 8 , buffer [7:0] $end
$var reg 2 - counter [1:0] $end
$var reg 8 . data_out [7:0] $end
$var reg 1 / not_clk $end
$var reg 1 $ valid_out $end
$upscope $end
$scope module Synt $end
$var wire 1 # valid_out $end
$var wire 8 0 data_out [7:0] $end
$var wire 1 ' data_in $end
$var wire 2 1 counter [1:0] $end
$var wire 1 ( clk_4f $end
$var wire 1 ) clk_32f $end
$var wire 8 2 buffer [7:0] $end
$var wire 1 * active $end
$var wire 1 3 _058_ $end
$var wire 1 4 _057_ $end
$var wire 1 5 _056_ $end
$var wire 1 6 _055_ $end
$var wire 1 7 _054_ $end
$var wire 1 8 _053_ $end
$var wire 1 9 _052_ $end
$var wire 1 : _051_ $end
$var wire 1 ; _050_ $end
$var wire 1 < _049_ $end
$var wire 1 = _048_ $end
$var wire 1 > _047_ $end
$var wire 1 ? _046_ $end
$var wire 1 @ _045_ $end
$var wire 1 A _044_ $end
$var wire 1 B _043_ $end
$var wire 1 C _042_ $end
$var wire 1 D _041_ $end
$var wire 1 E _040_ $end
$var wire 1 F _039_ $end
$var wire 1 G _038_ $end
$var wire 1 H _037_ $end
$var wire 1 I _036_ $end
$var wire 1 J _035_ $end
$var wire 1 K _034_ $end
$var wire 1 L _033_ $end
$var wire 1 M _032_ $end
$var wire 1 N _031_ $end
$var wire 1 O _030_ $end
$var wire 1 P _029_ $end
$var wire 1 Q _028_ $end
$var wire 1 R _027_ $end
$var wire 1 S _026_ $end
$var wire 1 T _025_ $end
$var wire 1 U _024_ $end
$var wire 1 V _023_ $end
$var wire 1 W _022_ $end
$var wire 1 X _021_ $end
$var wire 1 Y _020_ $end
$var wire 1 Z _019_ $end
$var wire 1 [ _018_ $end
$var wire 1 \ _017_ $end
$var wire 1 ] _016_ $end
$var wire 1 ^ _015_ $end
$var wire 1 _ _014_ $end
$var wire 1 ` _013_ $end
$var wire 1 a _012_ $end
$var wire 1 b _011_ $end
$var wire 1 c _010_ $end
$var wire 1 d _009_ $end
$var wire 1 e _008_ $end
$var wire 1 f _007_ $end
$var wire 1 g _006_ $end
$var wire 1 h _005_ $end
$var wire 1 i _004_ $end
$var wire 1 j _003_ $end
$var wire 1 k _002_ $end
$var wire 1 l _001_ $end
$var wire 1 m _000_ $end
$scope module _059_ $end
$var wire 1 n A $end
$var wire 1 Y Y $end
$upscope $end
$scope module _060_ $end
$var wire 1 o A $end
$var wire 1 X Y $end
$upscope $end
$scope module _061_ $end
$var wire 1 p A $end
$var wire 1 W Y $end
$upscope $end
$scope module _062_ $end
$var wire 1 q A $end
$var wire 1 V Y $end
$upscope $end
$scope module _063_ $end
$var wire 1 r A $end
$var wire 1 U Y $end
$upscope $end
$scope module _064_ $end
$var wire 1 s A $end
$var wire 1 T Y $end
$upscope $end
$scope module _065_ $end
$var wire 1 S Y $end
$var wire 1 * A $end
$upscope $end
$scope module _066_ $end
$var wire 1 f Y $end
$var wire 1 ) A $end
$upscope $end
$scope module _067_ $end
$var wire 1 t A $end
$var wire 1 R Y $end
$upscope $end
$scope module _068_ $end
$var wire 1 u A $end
$var wire 1 v B $end
$var wire 1 Q Y $end
$upscope $end
$scope module _069_ $end
$var wire 1 Q A $end
$var wire 1 P Y $end
$upscope $end
$scope module _070_ $end
$var wire 1 w A $end
$var wire 1 x B $end
$var wire 1 O Y $end
$upscope $end
$scope module _071_ $end
$var wire 1 O A $end
$var wire 1 N Y $end
$upscope $end
$scope module _072_ $end
$var wire 1 Q A $end
$var wire 1 N B $end
$var wire 1 M Y $end
$upscope $end
$scope module _073_ $end
$var wire 1 P A $end
$var wire 1 O B $end
$var wire 1 L Y $end
$upscope $end
$scope module _074_ $end
$var wire 1 Y A $end
$var wire 1 y B $end
$var wire 1 K Y $end
$upscope $end
$scope module _075_ $end
$var wire 1 z A $end
$var wire 1 X B $end
$var wire 1 J Y $end
$upscope $end
$scope module _076_ $end
$var wire 1 { A $end
$var wire 1 | B $end
$var wire 1 I Y $end
$upscope $end
$scope module _077_ $end
$var wire 1 I A $end
$var wire 1 H Y $end
$upscope $end
$scope module _078_ $end
$var wire 1 J A $end
$var wire 1 I B $end
$var wire 1 G Y $end
$upscope $end
$scope module _079_ $end
$var wire 1 K A $end
$var wire 1 H B $end
$var wire 1 F Y $end
$upscope $end
$scope module _080_ $end
$var wire 1 L A $end
$var wire 1 F B $end
$var wire 1 E Y $end
$upscope $end
$scope module _081_ $end
$var wire 1 M A $end
$var wire 1 G B $end
$var wire 1 D Y $end
$upscope $end
$scope module _082_ $end
$var wire 1 } A $end
$var wire 1 ~ B $end
$var wire 1 C Y $end
$upscope $end
$scope module _083_ $end
$var wire 1 C A $end
$var wire 1 B Y $end
$upscope $end
$scope module _084_ $end
$var wire 1 E A $end
$var wire 1 B B $end
$var wire 1 A Y $end
$upscope $end
$scope module _085_ $end
$var wire 1 D A $end
$var wire 1 C B $end
$var wire 1 @ Y $end
$upscope $end
$scope module _086_ $end
$var wire 1 A B $end
$var wire 1 ? Y $end
$var wire 1 * A $end
$upscope $end
$scope module _087_ $end
$var wire 1 S A $end
$var wire 1 @ B $end
$var wire 1 > Y $end
$upscope $end
$scope module _088_ $end
$var wire 1 !" A $end
$var wire 1 > B $end
$var wire 1 = Y $end
$upscope $end
$scope module _089_ $end
$var wire 1 "" A $end
$var wire 1 D B $end
$var wire 1 < Y $end
$upscope $end
$scope module _090_ $end
$var wire 1 S A $end
$var wire 1 < B $end
$var wire 1 ; Y $end
$upscope $end
$scope module _091_ $end
$var wire 1 = A $end
$var wire 1 ; B $end
$var wire 1 [ Y $end
$upscope $end
$scope module _092_ $end
$var wire 1 D B $end
$var wire 1 : Y $end
$var wire 1 * A $end
$upscope $end
$scope module _093_ $end
$var wire 1 : A $end
$var wire 1 e Y $end
$upscope $end
$scope module _094_ $end
$var wire 1 Y A $end
$var wire 1 : B $end
$var wire 1 \ Y $end
$upscope $end
$scope module _095_ $end
$var wire 1 #" A $end
$var wire 1 9 Y $end
$var wire 1 * B $end
$upscope $end
$scope module _096_ $end
$var wire 1 9 A $end
$var wire 1 ] Y $end
$upscope $end
$scope module _097_ $end
$var wire 1 W A $end
$var wire 1 : B $end
$var wire 1 ^ Y $end
$upscope $end
$scope module _098_ $end
$var wire 1 V A $end
$var wire 1 : B $end
$var wire 1 _ Y $end
$upscope $end
$scope module _099_ $end
$var wire 1 U A $end
$var wire 1 : B $end
$var wire 1 ` Y $end
$upscope $end
$scope module _100_ $end
$var wire 1 T A $end
$var wire 1 : B $end
$var wire 1 a Y $end
$upscope $end
$scope module _101_ $end
$var wire 1 $" A $end
$var wire 1 8 Y $end
$var wire 1 * B $end
$upscope $end
$scope module _102_ $end
$var wire 1 8 A $end
$var wire 1 b Y $end
$upscope $end
$scope module _103_ $end
$var wire 1 %" A $end
$var wire 1 7 Y $end
$var wire 1 * B $end
$upscope $end
$scope module _104_ $end
$var wire 1 7 A $end
$var wire 1 c Y $end
$upscope $end
$scope module _105_ $end
$var wire 1 S A $end
$var wire 1 C B $end
$var wire 1 d Y $end
$upscope $end
$scope module _106_ $end
$var wire 1 &" A $end
$var wire 1 '" B $end
$var wire 1 6 Y $end
$upscope $end
$scope module _107_ $end
$var wire 1 R A $end
$var wire 1 ? B $end
$var wire 1 5 Y $end
$upscope $end
$scope module _108_ $end
$var wire 1 D A $end
$var wire 1 d B $end
$var wire 1 4 Y $end
$upscope $end
$scope module _109_ $end
$var wire 1 5 A $end
$var wire 1 4 B $end
$var wire 1 3 Y $end
$upscope $end
$scope module _110_ $end
$var wire 1 6 A $end
$var wire 1 3 B $end
$var wire 1 Z Y $end
$upscope $end
$scope module _111_ $end
$var wire 1 g Y $end
$var wire 1 ) A $end
$upscope $end
$scope module _112_ $end
$var wire 1 h Y $end
$var wire 1 ) A $end
$upscope $end
$scope module _113_ $end
$var wire 1 i Y $end
$var wire 1 ) A $end
$upscope $end
$scope module _114_ $end
$var wire 1 j Y $end
$var wire 1 ) A $end
$upscope $end
$scope module _115_ $end
$var wire 1 k Y $end
$var wire 1 ) A $end
$upscope $end
$scope module _116_ $end
$var wire 1 l Y $end
$var wire 1 ) A $end
$upscope $end
$scope module _117_ $end
$var wire 1 m Y $end
$var wire 1 ) A $end
$upscope $end
$scope module _118_ $end
$var wire 1 m C $end
$var wire 1 ' D $end
$var reg 1 (" Q $end
$upscope $end
$scope module _119_ $end
$var wire 1 l C $end
$var wire 1 )" D $end
$var reg 1 *" Q $end
$upscope $end
$scope module _120_ $end
$var wire 1 k C $end
$var wire 1 +" D $end
$var reg 1 ," Q $end
$upscope $end
$scope module _121_ $end
$var wire 1 j C $end
$var wire 1 -" D $end
$var reg 1 ." Q $end
$upscope $end
$scope module _122_ $end
$var wire 1 i C $end
$var wire 1 /" D $end
$var reg 1 0" Q $end
$upscope $end
$scope module _123_ $end
$var wire 1 h C $end
$var wire 1 1" D $end
$var reg 1 2" Q $end
$upscope $end
$scope module _124_ $end
$var wire 1 g C $end
$var wire 1 3" D $end
$var reg 1 4" Q $end
$upscope $end
$scope module _125_ $end
$var wire 1 f C $end
$var wire 1 5" D $end
$var reg 1 6" Q $end
$upscope $end
$scope module _126_ $end
$var wire 1 e D $end
$var wire 1 ( C $end
$var reg 1 # Q $end
$upscope $end
$scope module _127_ $end
$var wire 1 d D $end
$var wire 1 ( C $end
$var reg 1 * Q $end
$upscope $end
$scope module _128_ $end
$var wire 1 c D $end
$var wire 1 ( C $end
$var reg 1 7" Q $end
$upscope $end
$scope module _129_ $end
$var wire 1 b D $end
$var wire 1 ( C $end
$var reg 1 8" Q $end
$upscope $end
$scope module _130_ $end
$var wire 1 a D $end
$var wire 1 ( C $end
$var reg 1 9" Q $end
$upscope $end
$scope module _131_ $end
$var wire 1 ` D $end
$var wire 1 ( C $end
$var reg 1 :" Q $end
$upscope $end
$scope module _132_ $end
$var wire 1 _ D $end
$var wire 1 ( C $end
$var reg 1 ;" Q $end
$upscope $end
$scope module _133_ $end
$var wire 1 ^ D $end
$var wire 1 ( C $end
$var reg 1 <" Q $end
$upscope $end
$scope module _134_ $end
$var wire 1 ] D $end
$var wire 1 ( C $end
$var reg 1 =" Q $end
$upscope $end
$scope module _135_ $end
$var wire 1 \ D $end
$var wire 1 ( C $end
$var reg 1 >" Q $end
$upscope $end
$scope module _136_ $end
$var wire 1 [ D $end
$var wire 1 ( C $end
$var reg 1 ?" Q $end
$upscope $end
$scope module _137_ $end
$var wire 1 Z D $end
$var wire 1 ( C $end
$var reg 1 @" Q $end
$upscope $end
$upscope $end
$scope module test $end
$var wire 1 + active $end
$var wire 1 * active_synth $end
$var wire 8 A" data_out [7:0] $end
$var wire 8 B" data_out_synth [7:0] $end
$var wire 1 $ valid_out $end
$var wire 1 # valid_out_synth $end
$var reg 1 ) clk_32f $end
$var reg 1 ( clk_4f $end
$var reg 1 ' data_in $end
$upscope $end
$upscope $end
$scope module DFFSR $end
$var wire 1 C" C $end
$var wire 1 D" D $end
$var wire 1 E" R $end
$var wire 1 F" S $end
$var reg 1 G" Q $end
$upscope $end
$enddefinitions $end
#0
$dumpvars
xG"
zF"
zE"
zD"
zC"
bx B"
bx A"
x@"
x?"
x>"
x="
x<"
x;"
x:"
x9"
x8"
x7"
x6"
x5"
x4"
x3"
x2"
x1"
x0"
x/"
x."
x-"
x,"
x+"
x*"
x)"
x("
x'"
x&"
x%"
x$"
x#"
x""
x!"
x~
x}
x|
x{
xz
xy
xx
xw
xv
xu
xt
xs
xr
xq
xp
xo
xn
0m
0l
0k
0j
0i
0h
0g
0f
xe
xd
xc
xb
xa
x`
x_
x^
x]
x\
x[
xZ
xY
xX
xW
xV
xU
xT
xS
xR
xQ
xP
xO
xN
xM
xL
xK
xJ
xI
xH
xG
xF
xE
xD
xC
xB
xA
x@
x?
x>
x=
x<
x;
x:
x9
x8
x7
x6
x5
x4
x3
bx 2
bx 1
bx 0
0/
bx .
bx -
bx ,
x+
x*
1)
0(
0'
bx &
bx %
x$
x#
z"
z!
$end
#1000000000000
bx0 ,
0c
17
0)"
0%"
0x
bx0 2
0("
1/
1m
1l
1k
1j
1i
1h
1g
1f
0)
#2000000000000
0/
0m
0l
0k
0j
0i
0h
0g
0f
1)
#3000000000000
bx00 ,
0b
0N
18
1O
0+"
0$"
0w
bx00 2
0*"
1/
1m
1l
1k
1j
1i
1h
1g
1f
0)
#4000000000000
0/
0m
0l
0k
0j
0i
0h
0g
0f
1)
#5000000000000
bx000 ,
1;
0<
04
0E
1D
1L
0M
0P
0a
1Q
1T
0-"
0v
0s
bx000 2
0,"
1/
1m
1l
1k
1j
1i
1h
1g
1f
0)
#6000000000000
0/
0m
0l
0k
0j
0i
0h
0g
0f
1)
#7000000000000
bx0000 ,
0`
1U
0/"
0u
0r
bx0000 2
0."
1/
1m
1l
1k
1j
1i
1h
1g
1f
0)
#8000000000000
0/
1'
0+
0$
b0 &
b0 .
b0 A"
07"
08"
09"
bx0000 %
bx0000 0
bx0000 B"
0:"
0m
0l
0k
0j
0i
0h
0g
0f
1)
1(
#9000000000000
bx00001 ,
1F
0G
xc
1N
0H
0_
x7
0O
1I
1V
1)"
1%"
1x
01"
0|
0q
1("
bx00001 2
00"
1/
1m
1l
1k
1j
1i
1h
1g
1f
0)
#10000000000000
0/
0'
0m
0l
0k
0j
0i
0h
0g
0f
1)
#11000000000000
bx000010 ,
0c
xb
0^
17
x8
1W
0)"
0%"
0x
1+"
1$"
1w
03"
0{
0p
0("
1*"
bx000010 2
02"
1/
1m
1l
1k
1j
1i
1h
1g
1f
0)
#12000000000000
0/
1'
0m
0l
0k
0j
0i
0h
0g
0f
1)
#13000000000000
bx0000101 ,
xc
0b
xa
0]
x7
18
19
0T
1X
1)"
1%"
1x
0+"
0$"
0w
1-"
1v
1s
05"
0#"
0y
0o
1("
0*"
1,"
bx0000101 2
04"
1/
1m
1l
1k
1j
1i
1h
1g
1f
0)
#14000000000000
0/
0m
0l
0k
0j
0i
0h
0g
0f
1)
#15000000000000
b1011 ,
xb
0a
x`
0K
0\
x8
1J
1T
0U
1Y
1+"
1$"
1w
0-"
0v
0s
1/"
1u
1r
0z
0n
1*"
0,"
1."
b1011 2
06"
1/
1m
1l
1k
1j
1i
1h
1g
1f
0)
#16000000000000
0/
0m
0l
0k
0j
0i
0h
0g
0f
1)
0(
#17000000000000
b10111 ,
xa
0`
x_
0T
1U
0V
1-"
1v
1s
0/"
0u
0r
11"
1|
1q
1,"
0."
b10111 2
10"
1/
1m
1l
1k
1j
1i
1h
1g
1f
0)
#18000000000000
0/
0m
0l
0k
0j
0i
0h
0g
0f
1)
#19000000000000
b101111 ,
1P
x`
0_
x^
0Q
0U
1V
0W
1/"
1u
1r
01"
0|
0q
13"
1{
1p
1."
00"
b101111 2
12"
1/
1m
1l
1k
1j
1i
1h
1g
1f
0)
#20000000000000
0/
0'
0m
0l
0k
0j
0i
0h
0g
0f
1)
#21000000000000
b1011110 ,
0c
x_
0^
x]
17
x9
0V
1W
0X
0)"
0%"
0x
11"
1|
1q
03"
0{
0p
15"
1#"
1y
1o
0("
10"
02"
b1011110 2
14"
1/
1m
1l
1k
1j
1i
1h
1g
1f
0)
#22000000000000
0/
0m
0l
0k
0j
0i
0h
0g
0f
1)
#23000000000000
b10111100 ,
x;
0_
0`
0a
0e
1@
x<
1:
x4
0A
0D
1E
1M
0F
0L
1G
0b
0N
1H
0^
0]
0J
0\
18
1O
0I
19
1K
0W
1X
0Y
0+"
0$"
0w
13"
1{
1p
05"
0#"
0y
0o
1z
1n
0*"
12"
04"
b10111100 2
16"
1/
1m
1l
1k
1j
1i
1h
1g
1f
0)
#24000000000000
0/
1'
0>"
0="
0<"
b0 %
b0 0
b0 B"
0;"
0#
b1 -
0m
0l
0k
0j
0i
0h
0g
0f
1)
1(
#25000000000000
b1111001 ,
1;
x^
x_
x`
xe
xA
x@
0<
x:
04
0E
1D
1L
0M
1F
0G
xc
1N
0P
x]
x7
0O
1Q
x9
0K
1J
1T
0X
1Y
1)"
1%"
1x
0-"
0v
0s
15"
1#"
1y
1o
0z
0n
1("
0,"
14"
b1111001 2
06"
1/
1m
1l
1k
1j
1i
1h
1g
1f
0)
#26000000000000
0/
0'
0m
0l
0k
0j
0i
0h
0g
0f
1)
#27000000000000
b11110010 ,
0c
xb
0`
x\
17
x8
1U
0Y
0)"
0%"
0x
1+"
1$"
1w
0/"
0u
0r
1z
1n
0("
1*"
0."
b11110010 2
16"
1/
1m
1l
1k
1j
1i
1h
1g
1f
0)
#28000000000000
0/
1'
0m
0l
0k
0j
0i
0h
0g
0f
1)
#29000000000000
b11100101 ,
xc
0b
xa
0H
0_
x7
18
1I
0T
1V
1)"
1%"
1x
0+"
0$"
0w
1-"
1v
1s
01"
0|
0q
1("
0*"
1,"
b11100101 2
00"
1/
1m
1l
1k
1j
1i
1h
1g
1f
0)
#30000000000000
0/
0m
0l
0k
0j
0i
0h
0g
0f
1)
#31000000000000
b11001011 ,
xb
0a
x`
0^
x8
1T
0U
1W
1+"
1$"
1w
0-"
0v
0s
1/"
1u
1r
03"
0{
0p
1*"
0,"
1."
b11001011 2
02"
1/
1m
1l
1k
1j
1i
1h
1g
1f
0)
#32000000000000
0/
0m
0l
0k
0j
0i
0h
0g
0f
1)
0(
#33000000000000
b10010111 ,
xa
0`
x_
0]
0J
19
1K
0T
1U
0V
1X
1-"
1v
1s
0/"
0u
0r
11"
1|
1q
05"
0#"
0y
0o
1,"
0."
10"
b10010111 2
04"
1/
1m
1l
1k
1j
1i
1h
1g
1f
0)
#34000000000000
0/
0m
0l
0k
0j
0i
0h
0g
0f
1)
#35000000000000
b101111 ,
1P
x`
0_
x^
0K
0\
0Q
1J
0U
1V
0W
1Y
1/"
1u
1r
01"
0|
0q
13"
1{
1p
0z
0n
1."
00"
12"
b101111 2
06"
1/
1m
1l
1k
1j
1i
1h
1g
1f
0)
#36000000000000
0/
0'
0m
0l
0k
0j
0i
0h
0g
0f
1)
#37000000000000
b1011110 ,
0c
x_
0^
x]
17
x9
0V
1W
0X
0)"
0%"
0x
11"
1|
1q
03"
0{
0p
15"
1#"
1y
1o
0("
10"
02"
b1011110 2
14"
1/
1m
1l
1k
1j
1i
1h
1g
1f
0)
#38000000000000
0/
0m
0l
0k
0j
0i
0h
0g
0f
1)
#39000000000000
b10111100 ,
x;
0_
0`
0a
0e
1@
x<
1:
x4
0A
0D
1E
1M
0F
0L
1G
0b
0N
1H
0^
0]
0J
0\
18
1O
0I
19
1K
0W
1X
0Y
0+"
0$"
0w
13"
1{
1p
05"
0#"
0y
0o
1z
1n
0*"
12"
04"
b10111100 2
16"
1/
1m
1l
1k
1j
1i
1h
1g
1f
0)
#40000000000000
0/
1'
b10 -
0m
0l
0k
0j
0i
0h
0g
0f
1)
1(
#41000000000000
b1111001 ,
1;
x^
x_
x`
xe
xA
x@
0<
x:
04
0E
1D
1L
0M
1F
0G
xc
1N
0P
x]
x7
0O
1Q
x9
0K
1J
1T
0X
1Y
1)"
1%"
1x
0-"
0v
0s
15"
1#"
1y
1o
0z
0n
1("
0,"
14"
b1111001 2
06"
1/
1m
1l
1k
1j
1i
1h
1g
1f
0)
#42000000000000
0/
0'
0m
0l
0k
0j
0i
0h
0g
0f
1)
#43000000000000
b11110010 ,
0c
xb
0`
x\
17
x8
1U
0Y
0)"
0%"
0x
1+"
1$"
1w
0/"
0u
0r
1z
1n
0("
1*"
0."
b11110010 2
16"
1/
1m
1l
1k
1j
1i
1h
1g
1f
0)
#44000000000000
0/
1'
0m
0l
0k
0j
0i
0h
0g
0f
1)
#45000000000000
b11100101 ,
xc
0b
xa
0H
0_
x7
18
1I
0T
1V
1)"
1%"
1x
0+"
0$"
0w
1-"
1v
1s
01"
0|
0q
1("
0*"
1,"
b11100101 2
00"
1/
1m
1l
1k
1j
1i
1h
1g
1f
0)
#46000000000000
0/
0m
0l
0k
0j
0i
0h
0g
0f
1)
#47000000000000
b11001011 ,
xb
0a
x`
0^
x8
1T
0U
1W
1+"
1$"
1w
0-"
0v
0s
1/"
1u
1r
03"
0{
0p
1*"
0,"
1."
b11001011 2
02"
1/
1m
1l
1k
1j
1i
1h
1g
1f
0)
#48000000000000
0/
0m
0l
0k
0j
0i
0h
0g
0f
1)
0(
#49000000000000
b10010111 ,
xa
0`
x_
0]
0J
19
1K
0T
1U
0V
1X
1-"
1v
1s
0/"
0u
0r
11"
1|
1q
05"
0#"
0y
0o
1,"
0."
10"
b10010111 2
04"
1/
1m
1l
1k
1j
1i
1h
1g
1f
0)
#50000000000000
0/
0m
0l
0k
0j
0i
0h
0g
0f
1)
#51000000000000
b101111 ,
1P
x`
0_
x^
0K
0\
0Q
1J
0U
1V
0W
1Y
1/"
1u
1r
01"
0|
0q
13"
1{
1p
0z
0n
1."
00"
12"
b101111 2
06"
1/
1m
1l
1k
1j
1i
1h
1g
1f
0)
#52000000000000
0/
0'
0m
0l
0k
0j
0i
0h
0g
0f
1)
#53000000000000
b1011110 ,
0c
x_
0^
x]
17
x9
0V
1W
0X
0)"
0%"
0x
11"
1|
1q
03"
0{
0p
15"
1#"
1y
1o
0("
10"
02"
b1011110 2
14"
1/
1m
1l
1k
1j
1i
1h
1g
1f
0)
#54000000000000
0/
0m
0l
0k
0j
0i
0h
0g
0f
1)
#55000000000000
b10111100 ,
x;
0_
0`
0a
0e
1@
x<
1:
x4
0A
0D
1E
1M
0F
0L
1G
0b
0N
1H
0^
0]
0J
0\
18
1O
0I
19
1K
0W
1X
0Y
0+"
0$"
0w
13"
1{
1p
05"
0#"
0y
0o
1z
1n
0*"
12"
04"
b10111100 2
16"
1/
1m
1l
1k
1j
1i
1h
1g
1f
0)
#56000000000000
0/
1'
b11 -
0m
0l
0k
0j
0i
0h
0g
0f
1)
1(
#57000000000000
b1111001 ,
1;
x^
x_
x`
xe
xA
x@
0<
x:
04
0E
1D
1L
0M
1F
0G
xc
1N
0P
x]
x7
0O
1Q
x9
0K
1J
1T
0X
1Y
1)"
1%"
1x
0-"
0v
0s
15"
1#"
1y
1o
0z
0n
1("
0,"
14"
b1111001 2
06"
1/
1m
1l
1k
1j
1i
1h
1g
1f
0)
#58000000000000
0/
0'
0m
0l
0k
0j
0i
0h
0g
0f
1)
#59000000000000
b11110010 ,
0c
xb
0`
x\
17
x8
1U
0Y
0)"
0%"
0x
1+"
1$"
1w
0/"
0u
0r
1z
1n
0("
1*"
0."
b11110010 2
16"
1/
1m
1l
1k
1j
1i
1h
1g
1f
0)
#60000000000000
0/
1'
0m
0l
0k
0j
0i
0h
0g
0f
1)
#61000000000000
b11100101 ,
xc
0b
xa
0H
0_
x7
18
1I
0T
1V
1)"
1%"
1x
0+"
0$"
0w
1-"
1v
1s
01"
0|
0q
1("
0*"
1,"
b11100101 2
00"
1/
1m
1l
1k
1j
1i
1h
1g
1f
0)
#62000000000000
0/
0m
0l
0k
0j
0i
0h
0g
0f
1)
#63000000000000
b11001011 ,
xb
0a
x`
0^
x8
1T
0U
1W
1+"
1$"
1w
0-"
0v
0s
1/"
1u
1r
03"
0{
0p
1*"
0,"
1."
b11001011 2
02"
1/
1m
1l
1k
1j
1i
1h
1g
1f
0)
#64000000000000
0/
0m
0l
0k
0j
0i
0h
0g
0f
1)
0(
#65000000000000
b10010111 ,
xa
0`
x_
0]
0J
19
1K
0T
1U
0V
1X
1-"
1v
1s
0/"
0u
0r
11"
1|
1q
05"
0#"
0y
0o
1,"
0."
10"
b10010111 2
04"
1/
1m
1l
1k
1j
1i
1h
1g
1f
0)
#66000000000000
0/
0m
0l
0k
0j
0i
0h
0g
0f
1)
#67000000000000
b101111 ,
1P
x`
0_
x^
0K
0\
0Q
1J
0U
1V
0W
1Y
1/"
1u
1r
01"
0|
0q
13"
1{
1p
0z
0n
1."
00"
12"
b101111 2
06"
1/
1m
1l
1k
1j
1i
1h
1g
1f
0)
#68000000000000
0/
0'
0m
0l
0k
0j
0i
0h
0g
0f
1)
#69000000000000
b1011110 ,
0c
x_
0^
x]
17
x9
0V
1W
0X
0)"
0%"
0x
11"
1|
1q
03"
0{
0p
15"
1#"
1y
1o
0("
10"
02"
b1011110 2
14"
1/
1m
1l
1k
1j
1i
1h
1g
1f
0)
#70000000000000
0/
0m
0l
0k
0j
0i
0h
0g
0f
1)
#71000000000000
b10111100 ,
x;
0_
0`
0a
0e
1@
x<
1:
x4
0A
0D
1E
1M
0F
0L
1G
0b
0N
1H
0^
0]
0J
0\
18
1O
0I
19
1K
0W
1X
0Y
0+"
0$"
0w
13"
1{
1p
05"
0#"
0y
0o
1z
1n
0*"
12"
04"
b10111100 2
16"
1/
1m
1l
1k
1j
1i
1h
1g
1f
0)
#72000000000000
0/
1'
1+
b0 -
0m
0l
0k
0j
0i
0h
0g
0f
1)
1(
#73000000000000
b1111001 ,
1;
x^
x_
x`
xe
xA
x@
0<
x:
04
0E
1D
1L
0M
1F
0G
xc
1N
0P
x]
x7
0O
1Q
x9
0K
1J
1T
0X
1Y
1)"
1%"
1x
0-"
0v
0s
15"
1#"
1y
1o
0z
0n
1("
0,"
14"
b1111001 2
06"
1/
1m
1l
1k
1j
1i
1h
1g
1f
0)
#74000000000000
0/
0m
0l
0k
0j
0i
0h
0g
0f
1)
#75000000000000
b11110011 ,
xb
0`
x\
x8
1U
0Y
1+"
1$"
1w
0/"
0u
0r
1z
1n
1*"
0."
b11110011 2
16"
1/
1m
1l
1k
1j
1i
1h
1g
1f
0)
#76000000000000
0/
0'
0m
0l
0k
0j
0i
0h
0g
0f
1)
#77000000000000
b11100110 ,
0c
xa
0H
0_
17
1I
0T
1V
0)"
0%"
0x
1-"
1v
1s
01"
0|
0q
0("
1,"
b11100110 2
00"
1/
1m
1l
1k
1j
1i
1h
1g
1f
0)
#78000000000000
0/
1'
0m
0l
0k
0j
0i
0h
0g
0f
1)
#79000000000000
b11001101 ,
xc
0b
1P
x`
0^
x7
18
0Q
0U
1W
1)"
1%"
1x
0+"
0$"
0w
1/"
1u
1r
03"
0{
0p
1("
0*"
1."
b11001101 2
02"
1/
1m
1l
1k
1j
1i
1h
1g
1f
0)
#80000000000000
0/
0'
0m
0l
0k
0j
0i
0h
0g
0f
1)
0(
#81000000000000
b10011010 ,
0c
xb
0P
0a
x_
0]
0J
17
x8
1Q
19
1K
1T
0V
1X
0)"
0%"
0x
1+"
1$"
1w
0-"
0v
0s
11"
1|
1q
05"
0#"
0y
0o
0("
1*"
0,"
10"
b10011010 2
04"
1/
1m
1l
1k
1j
1i
1h
1g
1f
0)
#82000000000000
0/
0m
0l
0k
0j
0i
0h
0g
0f
1)
#83000000000000
b110100 ,
0b
0N
xa
0`
1H
x^
0K
0\
18
1O
0I
1J
0T
1U
0W
1Y
0+"
0$"
0w
1-"
1v
1s
0/"
0u
0r
13"
1{
1p
0z
0n
0*"
1,"
0."
12"
b110100 2
06"
1/
1m
1l
1k
1j
1i
1h
1g
1f
0)
#84000000000000
0/
1'
0m
0l
0k
0j
0i
0h
0g
0f
1)
#85000000000000
b1101001 ,
xc
1N
0a
x`
0H
0_
x]
x7
0O
1I
x9
1T
0U
1V
0X
1)"
1%"
1x
0-"
0v
0s
1/"
1u
1r
01"
0|
0q
15"
1#"
1y
1o
1("
0,"
1."
00"
b1101001 2
14"
1/
1m
1l
1k
1j
1i
1h
1g
1f
0)
#86000000000000
0/
0m
0l
0k
0j
0i
0h
0g
0f
1)
#87000000000000
b11010011 ,
xb
0`
x_
0^
x\
x8
1U
0V
1W
0Y
1+"
1$"
1w
0/"
0u
0r
11"
1|
1q
03"
0{
0p
1z
1n
1*"
0."
10"
02"
b11010011 2
16"
1/
1m
1l
1k
1j
1i
1h
1g
1f
0)
#88000000000000
0/
0'
x>"
x="
x;"
x8"
bx0x00xx %
bx0x00xx 0
bx0x00xx B"
x7"
x#
b11010011 &
b11010011 .
b11010011 A"
1$
0m
0l
0k
0j
0i
0h
0g
0f
1)
1(
#89000000000000
b10100110 ,
0c
xa
0_
x^
0]
0J
17
19
1K
0T
1V
0W
1X
0)"
0%"
0x
1-"
1v
1s
01"
0|
0q
13"
1{
1p
05"
0#"
0y
0o
0("
1,"
00"
12"
b10100110 2
04"
1/
1m
1l
1k
1j
1i
1h
1g
1f
0)
#90000000000000
0/
1'
0m
0l
0k
0j
0i
0h
0g
0f
1)
#91000000000000
b1001101 ,
xc
0b
1P
x`
0^
x]
0\
x7
18
0Q
x9
0K
1J
0U
1W
0X
1Y
1)"
1%"
1x
0+"
0$"
0w
1/"
1u
1r
03"
0{
0p
15"
1#"
1y
1o
0z
0n
1("
0*"
1."
02"
14"
b1001101 2
06"
1/
1m
1l
1k
1j
1i
1h
1g
1f
0)
#92000000000000
0/
0'
0m
0l
0k
0j
0i
0h
0g
0f
1)
