DEMUX32_8/resultados.vcd
$date
	Wed Sep 23 11:55:04 2020
$end
$version
	Icarus Verilog
$end
$timescale
	10ps
$end
$scope module BUF $end
$var wire 1 ! A $end
$var wire 1 " Y $end
$upscope $end
$scope module Banco $end
$var wire 1 # valid_out_synth $end
$var wire 1 $ valid_out $end
$var wire 1 % valid_in $end
$var wire 8 & data_out_synth [7:0] $end
$var wire 8 ' data_out [7:0] $end
$var wire 32 ( data_in [31:0] $end
$var wire 1 ) clk_f $end
$var wire 1 * clk_4f $end
$scope module demux $end
$var wire 1 % valid_in $end
$var wire 32 + data_in [31:0] $end
$var wire 1 ) clk_f $end
$var wire 1 * clk_4f $end
$var reg 3 , counter [2:0] $end
$var reg 8 - data_out [7:0] $end
$var reg 1 . notclk_4f $end
$var reg 1 $ valid_out $end
$upscope $end
$scope module demux_synth $end
$var wire 1 # valid_out $end
$var wire 1 % valid_in $end
$var wire 8 / data_out [7:0] $end
$var wire 32 0 data_in [31:0] $end
$var wire 3 1 counter [2:0] $end
$var wire 1 ) clk_f $end
$var wire 1 * clk_4f $end
$var wire 1 2 _147_ $end
$var wire 1 3 _146_ $end
$var wire 1 4 _145_ $end
$var wire 1 5 _144_ $end
$var wire 1 6 _143_ $end
$var wire 1 7 _142_ $end
$var wire 1 8 _141_ $end
$var wire 1 9 _140_ $end
$var wire 1 : _139_ $end
$var wire 1 ; _138_ $end
$var wire 1 < _137_ $end
$var wire 1 = _136_ $end
$var wire 1 > _135_ $end
$var wire 1 ? _134_ $end
$var wire 1 @ _133_ $end
$var wire 1 A _132_ $end
$var wire 1 B _131_ $end
$var wire 1 C _130_ $end
$var wire 1 D _129_ $end
$var wire 1 E _128_ $end
$var wire 1 F _127_ $end
$var wire 1 G _126_ $end
$var wire 1 H _125_ $end
$var wire 1 I _124_ $end
$var wire 1 J _123_ $end
$var wire 1 K _122_ $end
$var wire 1 L _121_ $end
$var wire 1 M _120_ $end
$var wire 1 N _119_ $end
$var wire 1 O _118_ $end
$var wire 1 P _117_ $end
$var wire 1 Q _116_ $end
$var wire 1 R _115_ $end
$var wire 1 S _114_ $end
$var wire 1 T _113_ $end
$var wire 1 U _112_ $end
$var wire 1 V _111_ $end
$var wire 1 W _110_ $end
$var wire 1 X _109_ $end
$var wire 1 Y _108_ $end
$var wire 1 Z _107_ $end
$var wire 1 [ _106_ $end
$var wire 1 \ _105_ $end
$var wire 1 ] _104_ $end
$var wire 1 ^ _103_ $end
$var wire 1 _ _102_ $end
$var wire 1 ` _101_ $end
$var wire 1 a _100_ $end
$var wire 1 b _099_ $end
$var wire 1 c _098_ $end
$var wire 1 d _097_ $end
$var wire 1 e _096_ $end
$var wire 1 f _095_ $end
$var wire 1 g _094_ $end
$var wire 1 h _093_ $end
$var wire 1 i _092_ $end
$var wire 1 j _091_ $end
$var wire 1 k _090_ $end
$var wire 1 l _089_ $end
$var wire 1 m _088_ $end
$var wire 1 n _087_ $end
$var wire 1 o _086_ $end
$var wire 1 p _085_ $end
$var wire 1 q _084_ $end
$var wire 1 r _083_ $end
$var wire 1 s _082_ $end
$var wire 1 t _081_ $end
$var wire 1 u _080_ $end
$var wire 1 v _079_ $end
$var wire 1 w _078_ $end
$var wire 1 x _077_ $end
$var wire 1 y _076_ $end
$var wire 1 z _075_ $end
$var wire 1 { _074_ $end
$var wire 1 | _073_ $end
$var wire 1 } _072_ $end
$var wire 1 ~ _071_ $end
$var wire 1 !" _070_ $end
$var wire 1 "" _069_ $end
$var wire 1 #" _068_ $end
$var wire 1 $" _067_ $end
$var wire 1 %" _066_ $end
$var wire 1 &" _065_ $end
$var wire 1 '" _064_ $end
$var wire 1 (" _063_ $end
$var wire 1 )" _062_ $end
$var wire 1 *" _061_ $end
$var wire 1 +" _060_ $end
$var wire 1 ," _059_ $end
$var wire 1 -" _058_ $end
$var wire 1 ." _057_ $end
$var wire 1 /" _056_ $end
$var wire 1 0" _055_ $end
$var wire 1 1" _054_ $end
$var wire 1 2" _053_ $end
$var wire 1 3" _052_ $end
$var wire 1 4" _051_ $end
$var wire 1 5" _050_ $end
$var wire 1 6" _049_ $end
$var wire 1 7" _048_ $end
$var wire 1 8" _047_ $end
$var wire 1 9" _046_ $end
$var wire 1 :" _045_ $end
$var wire 1 ;" _044_ $end
$var wire 1 <" _043_ $end
$var wire 1 =" _042_ $end
$var wire 1 >" _041_ $end
$var wire 1 ?" _040_ $end
$var wire 1 @" _039_ $end
$var wire 1 A" _038_ $end
$var wire 1 B" _037_ $end
$var wire 1 C" _036_ $end
$var wire 1 D" _035_ $end
$var wire 1 E" _034_ $end
$var wire 1 F" _033_ $end
$var wire 1 G" _032_ $end
$var wire 1 H" _031_ $end
$var wire 1 I" _030_ $end
$var wire 1 J" _029_ $end
$var wire 1 K" _028_ $end
$var wire 1 L" _027_ $end
$var wire 1 M" _026_ $end
$var wire 1 N" _025_ $end
$var wire 1 O" _024_ $end
$var wire 1 P" _023_ $end
$var wire 1 Q" _022_ $end
$var wire 1 R" _021_ $end
$var wire 1 S" _020_ $end
$var wire 1 T" _019_ $end
$var wire 1 U" _018_ $end
$var wire 1 V" _017_ $end
$var wire 1 W" _016_ $end
$var wire 1 X" _015_ $end
$var wire 1 Y" _014_ $end
$var wire 1 Z" _013_ $end
$var wire 1 [" _012_ $end
$var wire 1 \" _011_ $end
$var wire 1 ]" _010_ $end
$var wire 1 ^" _009_ $end
$var wire 1 _" _008_ $end
$var wire 1 `" _007_ $end
$var wire 1 a" _006_ $end
$var wire 1 b" _005_ $end
$var wire 1 c" _004_ $end
$var wire 1 d" _003_ $end
$var wire 1 e" _002_ $end
$var wire 1 f" _001_ $end
$var wire 1 g" _000_ $end
$scope module _148_ $end
$var wire 1 W Y $end
$var wire 1 X B $end
$var wire 1 _ A $end
$upscope $end
$scope module _149_ $end
$var wire 1 W B $end
$var wire 1 Y" Y $end
$var wire 1 U A $end
$upscope $end
$scope module _150_ $end
$var wire 1 f" Y $end
$var wire 1 * A $end
$upscope $end
$scope module _151_ $end
$var wire 1 g" Y $end
$var wire 1 * A $end
$upscope $end
$scope module _152_ $end
$var wire 1 h" A $end
$var wire 1 V Y $end
$upscope $end
$scope module _153_ $end
$var wire 1 U Y $end
$var wire 1 % A $end
$upscope $end
$scope module _154_ $end
$var wire 1 i" A $end
$var wire 1 T Y $end
$upscope $end
$scope module _155_ $end
$var wire 1 j" A $end
$var wire 1 S Y $end
$upscope $end
$scope module _156_ $end
$var wire 1 k" A $end
$var wire 1 R Y $end
$upscope $end
$scope module _157_ $end
$var wire 1 l" A $end
$var wire 1 Q Y $end
$upscope $end
$scope module _158_ $end
$var wire 1 m" A $end
$var wire 1 P Y $end
$upscope $end
$scope module _159_ $end
$var wire 1 n" A $end
$var wire 1 O Y $end
$upscope $end
$scope module _160_ $end
$var wire 1 o" A $end
$var wire 1 N Y $end
$upscope $end
$scope module _161_ $end
$var wire 1 e" Y $end
$var wire 1 * A $end
$upscope $end
$scope module _162_ $end
$var wire 1 p" A $end
$var wire 1 M Y $end
$upscope $end
$scope module _163_ $end
$var wire 1 q" A $end
$var wire 1 L Y $end
$upscope $end
$scope module _164_ $end
$var wire 1 r" A $end
$var wire 1 K Y $end
$upscope $end
$scope module _165_ $end
$var wire 1 s" A $end
$var wire 1 J Y $end
$upscope $end
$scope module _166_ $end
$var wire 1 t" A $end
$var wire 1 I Y $end
$upscope $end
$scope module _167_ $end
$var wire 1 u" A $end
$var wire 1 H Y $end
$upscope $end
$scope module _168_ $end
$var wire 1 v" A $end
$var wire 1 G Y $end
$upscope $end
$scope module _169_ $end
$var wire 1 w" A $end
$var wire 1 F Y $end
$upscope $end
$scope module _170_ $end
$var wire 1 x" A $end
$var wire 1 E Y $end
$upscope $end
$scope module _171_ $end
$var wire 1 y" A $end
$var wire 1 D Y $end
$upscope $end
$scope module _172_ $end
$var wire 1 z" A $end
$var wire 1 C Y $end
$upscope $end
$scope module _173_ $end
$var wire 1 {" A $end
$var wire 1 B Y $end
$upscope $end
$scope module _174_ $end
$var wire 1 |" A $end
$var wire 1 A Y $end
$upscope $end
$scope module _175_ $end
$var wire 1 }" A $end
$var wire 1 @ Y $end
$upscope $end
$scope module _176_ $end
$var wire 1 ~" A $end
$var wire 1 ? Y $end
$upscope $end
$scope module _177_ $end
$var wire 1 !# A $end
$var wire 1 > Y $end
$upscope $end
$scope module _178_ $end
$var wire 1 "# A $end
$var wire 1 = Y $end
$upscope $end
$scope module _179_ $end
$var wire 1 ## A $end
$var wire 1 < Y $end
$upscope $end
$scope module _180_ $end
$var wire 1 $# A $end
$var wire 1 ; Y $end
$upscope $end
$scope module _181_ $end
$var wire 1 %# A $end
$var wire 1 : Y $end
$upscope $end
$scope module _182_ $end
$var wire 1 &# A $end
$var wire 1 9 Y $end
$upscope $end
$scope module _183_ $end
$var wire 1 '# A $end
$var wire 1 8 Y $end
$upscope $end
$scope module _184_ $end
$var wire 1 (# A $end
$var wire 1 7 Y $end
$upscope $end
$scope module _185_ $end
$var wire 1 )# A $end
$var wire 1 6 Y $end
$upscope $end
$scope module _186_ $end
$var wire 1 *# A $end
$var wire 1 5 Y $end
$upscope $end
$scope module _187_ $end
$var wire 1 +# A $end
$var wire 1 4 Y $end
$upscope $end
$scope module _188_ $end
$var wire 1 ,# A $end
$var wire 1 3 Y $end
$upscope $end
$scope module _189_ $end
$var wire 1 -# A $end
$var wire 1 2 Y $end
$upscope $end
$scope module _190_ $end
$var wire 1 .# A $end
$var wire 1 X" Y $end
$upscope $end
$scope module _191_ $end
$var wire 1 /# A $end
$var wire 1 W" Y $end
$upscope $end
$scope module _192_ $end
$var wire 1 0# A $end
$var wire 1 V" Y $end
$upscope $end
$scope module _193_ $end
$var wire 1 1# A $end
$var wire 1 U" Y $end
$upscope $end
$scope module _194_ $end
$var wire 1 2# A $end
$var wire 1 T" Y $end
$upscope $end
$scope module _195_ $end
$var wire 1 3# A $end
$var wire 1 S" Y $end
$upscope $end
$scope module _196_ $end
$var wire 1 4# A $end
$var wire 1 5# B $end
$var wire 1 R" Y $end
$upscope $end
$scope module _197_ $end
$var wire 1 R" A $end
$var wire 1 Q" Y $end
$upscope $end
$scope module _198_ $end
$var wire 1 6# A $end
$var wire 1 R" B $end
$var wire 1 P" Y $end
$upscope $end
$scope module _199_ $end
$var wire 1 7# A $end
$var wire 1 R" B $end
$var wire 1 O" Y $end
$upscope $end
$scope module _200_ $end
$var wire 1 O" A $end
$var wire 1 N" Y $end
$upscope $end
$scope module _201_ $end
$var wire 1 P" A $end
$var wire 1 N" B $end
$var wire 1 M" Y $end
$upscope $end
$scope module _202_ $end
$var wire 1 T A $end
$var wire 1 M" B $end
$var wire 1 L" Y $end
$upscope $end
$scope module _203_ $end
$var wire 1 E A $end
$var wire 1 P" B $end
$var wire 1 K" Y $end
$upscope $end
$scope module _204_ $end
$var wire 1 8# A $end
$var wire 1 M B $end
$var wire 1 J" Y $end
$upscope $end
$scope module _205_ $end
$var wire 1 L A $end
$var wire 1 J" B $end
$var wire 1 I" Y $end
$upscope $end
$scope module _206_ $end
$var wire 1 5 A $end
$var wire 1 I" B $end
$var wire 1 H" Y $end
$upscope $end
$scope module _207_ $end
$var wire 1 K" A $end
$var wire 1 H" B $end
$var wire 1 G" Y $end
$upscope $end
$scope module _208_ $end
$var wire 1 9# A $end
$var wire 1 :# B $end
$var wire 1 F" Y $end
$upscope $end
$scope module _209_ $end
$var wire 1 F" A $end
$var wire 1 E" Y $end
$upscope $end
$scope module _210_ $end
$var wire 1 ;# A $end
$var wire 1 F" B $end
$var wire 1 D" Y $end
$upscope $end
$scope module _211_ $end
$var wire 1 <# A $end
$var wire 1 J" B $end
$var wire 1 C" Y $end
$upscope $end
$scope module _212_ $end
$var wire 1 = A $end
$var wire 1 C" B $end
$var wire 1 B" Y $end
$upscope $end
$scope module _213_ $end
$var wire 1 =# A $end
$var wire 1 ># B $end
$var wire 1 A" Y $end
$upscope $end
$scope module _214_ $end
$var wire 1 ?# A $end
$var wire 1 A" B $end
$var wire 1 @" Y $end
$upscope $end
$scope module _215_ $end
$var wire 1 T" A $end
$var wire 1 @" B $end
$var wire 1 ?" Y $end
$upscope $end
$scope module _216_ $end
$var wire 1 B" A $end
$var wire 1 ?" B $end
$var wire 1 >" Y $end
$upscope $end
$scope module _217_ $end
$var wire 1 G" A $end
$var wire 1 >" B $end
$var wire 1 =" Y $end
$upscope $end
$scope module _218_ $end
$var wire 1 L" A $end
$var wire 1 =" B $end
$var wire 1 <" Y $end
$upscope $end
$scope module _219_ $end
$var wire 1 U A $end
$var wire 1 <" B $end
$var wire 1 Z" Y $end
$upscope $end
$scope module _220_ $end
$var wire 1 S A $end
$var wire 1 M" B $end
$var wire 1 ;" Y $end
$upscope $end
$scope module _221_ $end
$var wire 1 > A $end
$var wire 1 C" B $end
$var wire 1 :" Y $end
$upscope $end
$scope module _222_ $end
$var wire 1 F A $end
$var wire 1 P" B $end
$var wire 1 9" Y $end
$upscope $end
$scope module _223_ $end
$var wire 1 :" A $end
$var wire 1 9" B $end
$var wire 1 8" Y $end
$upscope $end
$scope module _224_ $end
$var wire 1 6 A $end
$var wire 1 I" B $end
$var wire 1 7" Y $end
$upscope $end
$scope module _225_ $end
$var wire 1 U" A $end
$var wire 1 @" B $end
$var wire 1 6" Y $end
$upscope $end
$scope module _226_ $end
$var wire 1 7" A $end
$var wire 1 6" B $end
$var wire 1 5" Y $end
$upscope $end
$scope module _227_ $end
$var wire 1 8" A $end
$var wire 1 5" B $end
$var wire 1 4" Y $end
$upscope $end
$scope module _228_ $end
$var wire 1 ;" A $end
$var wire 1 4" B $end
$var wire 1 3" Y $end
$upscope $end
$scope module _229_ $end
$var wire 1 U A $end
$var wire 1 3" B $end
$var wire 1 [" Y $end
$upscope $end
$scope module _230_ $end
$var wire 1 R A $end
$var wire 1 M" B $end
$var wire 1 2" Y $end
$upscope $end
$scope module _231_ $end
$var wire 1 G A $end
$var wire 1 P" B $end
$var wire 1 1" Y $end
$upscope $end
$scope module _232_ $end
$var wire 1 7 A $end
$var wire 1 I" B $end
$var wire 1 0" Y $end
$upscope $end
$scope module _233_ $end
$var wire 1 1" A $end
$var wire 1 0" B $end
$var wire 1 /" Y $end
$upscope $end
$scope module _234_ $end
$var wire 1 ? A $end
$var wire 1 C" B $end
$var wire 1 ." Y $end
$upscope $end
$scope module _235_ $end
$var wire 1 V" A $end
$var wire 1 @" B $end
$var wire 1 -" Y $end
$upscope $end
$scope module _236_ $end
$var wire 1 ." A $end
$var wire 1 -" B $end
$var wire 1 ," Y $end
$upscope $end
$scope module _237_ $end
$var wire 1 /" A $end
$var wire 1 ," B $end
$var wire 1 +" Y $end
$upscope $end
$scope module _238_ $end
$var wire 1 2" A $end
$var wire 1 +" B $end
$var wire 1 *" Y $end
$upscope $end
$scope module _239_ $end
$var wire 1 U A $end
$var wire 1 *" B $end
$var wire 1 \" Y $end
$upscope $end
$scope module _240_ $end
$var wire 1 Q A $end
$var wire 1 M" B $end
$var wire 1 )" Y $end
$upscope $end
$scope module _241_ $end
$var wire 1 H A $end
$var wire 1 P" B $end
$var wire 1 (" Y $end
$upscope $end
$scope module _242_ $end
$var wire 1 W" A $end
$var wire 1 @" B $end
$var wire 1 '" Y $end
$upscope $end
$scope module _243_ $end
$var wire 1 (" A $end
$var wire 1 '" B $end
$var wire 1 &" Y $end
$upscope $end
$scope module _244_ $end
$var wire 1 8 A $end
$var wire 1 I" B $end
$var wire 1 %" Y $end
$upscope $end
$scope module _245_ $end
$var wire 1 @ A $end
$var wire 1 C" B $end
$var wire 1 $" Y $end
$upscope $end
$scope module _246_ $end
$var wire 1 %" A $end
$var wire 1 $" B $end
$var wire 1 #" Y $end
$upscope $end
$scope module _247_ $end
$var wire 1 &" A $end
$var wire 1 #" B $end
$var wire 1 "" Y $end
$upscope $end
$scope module _248_ $end
$var wire 1 )" A $end
$var wire 1 "" B $end
$var wire 1 !" Y $end
$upscope $end
$scope module _249_ $end
$var wire 1 U A $end
$var wire 1 !" B $end
$var wire 1 ]" Y $end
$upscope $end
$scope module _250_ $end
$var wire 1 P A $end
$var wire 1 M" B $end
$var wire 1 ~ Y $end
$upscope $end
$scope module _251_ $end
$var wire 1 A A $end
$var wire 1 C" B $end
$var wire 1 } Y $end
$upscope $end
$scope module _252_ $end
$var wire 1 I A $end
$var wire 1 P" B $end
$var wire 1 | Y $end
$upscope $end
$scope module _253_ $end
$var wire 1 } A $end
$var wire 1 | B $end
$var wire 1 { Y $end
$upscope $end
$scope module _254_ $end
$var wire 1 9 A $end
$var wire 1 I" B $end
$var wire 1 z Y $end
$upscope $end
$scope module _255_ $end
$var wire 1 X" A $end
$var wire 1 @" B $end
$var wire 1 y Y $end
$upscope $end
$scope module _256_ $end
$var wire 1 z A $end
$var wire 1 y B $end
$var wire 1 x Y $end
$upscope $end
$scope module _257_ $end
$var wire 1 { A $end
$var wire 1 x B $end
$var wire 1 w Y $end
$upscope $end
$scope module _258_ $end
$var wire 1 ~ A $end
$var wire 1 w B $end
$var wire 1 v Y $end
$upscope $end
$scope module _259_ $end
$var wire 1 U A $end
$var wire 1 v B $end
$var wire 1 ^" Y $end
$upscope $end
$scope module _260_ $end
$var wire 1 O A $end
$var wire 1 M" B $end
$var wire 1 u Y $end
$upscope $end
$scope module _261_ $end
$var wire 1 B A $end
$var wire 1 C" B $end
$var wire 1 t Y $end
$upscope $end
$scope module _262_ $end
$var wire 1 J A $end
$var wire 1 P" B $end
$var wire 1 s Y $end
$upscope $end
$scope module _263_ $end
$var wire 1 t A $end
$var wire 1 s B $end
$var wire 1 r Y $end
$upscope $end
$scope module _264_ $end
$var wire 1 : A $end
$var wire 1 I" B $end
$var wire 1 q Y $end
$upscope $end
$scope module _265_ $end
$var wire 1 2 A $end
$var wire 1 @" B $end
$var wire 1 p Y $end
$upscope $end
$scope module _266_ $end
$var wire 1 q A $end
$var wire 1 p B $end
$var wire 1 o Y $end
$upscope $end
$scope module _267_ $end
$var wire 1 r A $end
$var wire 1 o B $end
$var wire 1 n Y $end
$upscope $end
$scope module _268_ $end
$var wire 1 u A $end
$var wire 1 n B $end
$var wire 1 m Y $end
$upscope $end
$scope module _269_ $end
$var wire 1 U A $end
$var wire 1 m B $end
$var wire 1 _" Y $end
$upscope $end
$scope module _270_ $end
$var wire 1 N A $end
$var wire 1 M" B $end
$var wire 1 l Y $end
$upscope $end
$scope module _271_ $end
$var wire 1 K A $end
$var wire 1 P" B $end
$var wire 1 k Y $end
$upscope $end
$scope module _272_ $end
$var wire 1 ; A $end
$var wire 1 I" B $end
$var wire 1 j Y $end
$upscope $end
$scope module _273_ $end
$var wire 1 k A $end
$var wire 1 j B $end
$var wire 1 i Y $end
$upscope $end
$scope module _274_ $end
$var wire 1 C A $end
$var wire 1 C" B $end
$var wire 1 h Y $end
$upscope $end
$scope module _275_ $end
$var wire 1 3 A $end
$var wire 1 @" B $end
$var wire 1 g Y $end
$upscope $end
$scope module _276_ $end
$var wire 1 h A $end
$var wire 1 g B $end
$var wire 1 f Y $end
$upscope $end
$scope module _277_ $end
$var wire 1 i A $end
$var wire 1 f B $end
$var wire 1 e Y $end
$upscope $end
$scope module _278_ $end
$var wire 1 l A $end
$var wire 1 e B $end
$var wire 1 d Y $end
$upscope $end
$scope module _279_ $end
$var wire 1 U A $end
$var wire 1 d B $end
$var wire 1 `" Y $end
$upscope $end
$scope module _280_ $end
$var wire 1 M" B $end
$var wire 1 c Y $end
$var wire 1 # A $end
$upscope $end
$scope module _281_ $end
$var wire 1 U A $end
$var wire 1 c B $end
$var wire 1 a" Y $end
$upscope $end
$scope module _282_ $end
$var wire 1 U A $end
$var wire 1 @# B $end
$var wire 1 b" Y $end
$upscope $end
$scope module _283_ $end
$var wire 1 D" B $end
$var wire 1 b Y $end
$var wire 1 % A $end
$upscope $end
$scope module _284_ $end
$var wire 1 Q" B $end
$var wire 1 a Y $end
$var wire 1 % A $end
$upscope $end
$scope module _285_ $end
$var wire 1 E" A $end
$var wire 1 a B $end
$var wire 1 d" Y $end
$upscope $end
$scope module _286_ $end
$var wire 1 A# A $end
$var wire 1 d" B $end
$var wire 1 ` Y $end
$upscope $end
$scope module _287_ $end
$var wire 1 b A $end
$var wire 1 ` B $end
$var wire 1 c" Y $end
$upscope $end
$scope module _288_ $end
$var wire 1 V A $end
$var wire 1 M" B $end
$var wire 1 _ Y $end
$upscope $end
$scope module _289_ $end
$var wire 1 D A $end
$var wire 1 P" B $end
$var wire 1 ^ Y $end
$upscope $end
$scope module _290_ $end
$var wire 1 4 A $end
$var wire 1 I" B $end
$var wire 1 ] Y $end
$upscope $end
$scope module _291_ $end
$var wire 1 ^ A $end
$var wire 1 ] B $end
$var wire 1 \ Y $end
$upscope $end
$scope module _292_ $end
$var wire 1 < A $end
$var wire 1 C" B $end
$var wire 1 [ Y $end
$upscope $end
$scope module _293_ $end
$var wire 1 S" A $end
$var wire 1 @" B $end
$var wire 1 Z Y $end
$upscope $end
$scope module _294_ $end
$var wire 1 [ A $end
$var wire 1 Z B $end
$var wire 1 Y Y $end
$upscope $end
$scope module _295_ $end
$var wire 1 \ A $end
$var wire 1 Y B $end
$var wire 1 X Y $end
$upscope $end
$scope module _296_ $end
$var wire 1 g" C $end
$var wire 1 d" D $end
$var reg 1 B# Q $end
$upscope $end
$scope module _297_ $end
$var wire 1 f" C $end
$var wire 1 c" D $end
$var reg 1 C# Q $end
$upscope $end
$scope module _298_ $end
$var wire 1 e" C $end
$var wire 1 b" D $end
$var reg 1 D# Q $end
$upscope $end
$scope module _299_ $end
$var wire 1 a" D $end
$var wire 1 * C $end
$var reg 1 # Q $end
$upscope $end
$scope module _300_ $end
$var wire 1 `" D $end
$var wire 1 * C $end
$var reg 1 E# Q $end
$upscope $end
$scope module _301_ $end
$var wire 1 _" D $end
$var wire 1 * C $end
$var reg 1 F# Q $end
$upscope $end
$scope module _302_ $end
$var wire 1 ^" D $end
$var wire 1 * C $end
$var reg 1 G# Q $end
$upscope $end
$scope module _303_ $end
$var wire 1 ]" D $end
$var wire 1 * C $end
$var reg 1 H# Q $end
$upscope $end
$scope module _304_ $end
$var wire 1 \" D $end
$var wire 1 * C $end
$var reg 1 I# Q $end
$upscope $end
$scope module _305_ $end
$var wire 1 [" D $end
$var wire 1 * C $end
$var reg 1 J# Q $end
$upscope $end
$scope module _306_ $end
$var wire 1 Z" D $end
$var wire 1 * C $end
$var reg 1 K# Q $end
$upscope $end
$scope module _307_ $end
$var wire 1 Y" D $end
$var wire 1 * C $end
$var reg 1 L# Q $end
$upscope $end
$upscope $end
$scope module test $end
$var wire 8 M# data_out [7:0] $end
$var wire 8 N# data_out_synth [7:0] $end
$var wire 1 $ valid_out $end
$var wire 1 # valid_out_synth $end
$var reg 1 * clk_4f $end
$var reg 1 ) clk_f $end
$var reg 32 O# data_in [31:0] $end
$var reg 1 P# error $end
$var reg 1 % valid_in $end
$var integer 32 Q# T [31:0] $end
$upscope $end
$upscope $end
$scope module DFFSR $end
$var wire 1 R# C $end
$var wire 1 S# D $end
$var wire 1 T# R $end
$var wire 1 U# S $end
$var reg 1 V# Q $end
$upscope $end
$enddefinitions $end
#0
$dumpvars
xV#
zU#
zT#
zS#
zR#
b10100 Q#
1P#
b101110100111110001001100000101 O#
bx N#
b0 M#
xL#
xK#
xJ#
xI#
xH#
xG#
xF#
xE#
xD#
xC#
xB#
xA#
x@#
x?#
x>#
x=#
x<#
x;#
x:#
x9#
x8#
x7#
x6#
x5#
x4#
03#
02#
11#
00#
1/#
1.#
1-#
0,#
1+#
0*#
0)#
1(#
1'#
1&#
1%#
1$#
0##
0"#
0!#
1~"
0}"
0|"
1{"
1z"
0y"
0x"
0w"
0v"
0u"
1t"
0s"
1r"
xq"
xp"
xo"
xn"
xm"
xl"
xk"
xj"
xi"
xh"
0g"
0f"
0e"
0d"
0c"
0b"
0a"
0`"
0_"
0^"
0]"
0\"
0["
0Z"
0Y"
0X"
0W"
1V"
0U"
1T"
1S"
xR"
xQ"
xP"
xO"
xN"
xM"
xL"
0K"
xJ"
xI"
0H"
1G"
xF"
xE"
xD"
xC"
0B"
xA"
x@"
0?"
1>"
0="
x<"
x;"
0:"
09"
18"
07"
x6"
x5"
x4"
x3"
x2"
01"
x0"
x/"
x."
0-"
x,"
x+"
x*"
x)"
0("
x'"
x&"
x%"
0$"
x#"
x""
x!"
x~
0}
x|
x{
xz
xy
xx
xw
xv
xu
xt
0s
xr
xq
xp
xo
xn
xm
xl
xk
xj
xi
xh
0g
xf
xe
xd
xc
1b
1a
1`
x_
0^
x]
x\
0[
0Z
1Y
xX
xW
xV
1U
xT
xS
xR
xQ
xP
xO
xN
xM
xL
0K
1J
0I
1H
1G
1F
1E
1D
0C
0B
1A
1@
0?
1>
1=
1<
0;
0:
09
08
07
16
15
04
13
02
bx 1
b101110100111110001001100000101 0
bx /
0.
b0 -
b0 ,
b101110100111110001001100000101 +
1*
0)
b101110100111110001001100000101 (
b0 '
bx &
0%
0$
x#
z"
z!
$end
#500000000000
0+"
0""
0w
0n
0e
0X
1/"
1#"
1x
1o
1i
1\
04"
0M"
00"
0%"
0z
0q
0j
0]
15"
1&"
1,"
1r
1f
1{
1N"
1I"
06"
0'"
0y
0p
0."
0t
0h
0D"
0O"
0|
0k
0E"
0Q"
0J"
1@"
1C"
1F"
1R"
1A"
1P"
1L
1M
0@#
0?#
0<#
0:#
05#
0q"
0>#
09#
04#
0p"
0A#
0=#
0;#
08#
07#
06#
0D#
0B#
b0 1
0C#
1.
1e"
1g"
1f"
0*
#1000000000000
1W
1<"
13"
1*"
1!"
1v
1m
1d
0_
0L"
0;"
02"
0)"
0~
0u
0l
1V
1T
1S
1R
1Q
1P
1O
1N
1c
0h"
0i"
0j"
0k"
0l"
0m"
0n"
0o"
0L#
0K#
0J#
0I#
0H#
0G#
0F#
b0 &
b0 /
b0 N#
0E#
0#
0.
0e"
0g"
0f"
1*
#1500000000000
1.
1e"
1g"
1f"
0*
#2000000000000
0P#
0.
0e"
0g"
0f"
1*
1)
#2500000000000
1.
1e"
1g"
1f"
0*
#3000000000000
0.
0e"
0g"
0f"
1*
#3500000000000
1.
1e"
1g"
1f"
0*
#4000000000000
0.
0e"
0g"
0f"
1*
0)
#4500000000000
1.
1e"
1g"
1f"
0*
#5000000000000
0.
0e"
0g"
0f"
1*
#5500000000000
1.
1e"
1g"
1f"
0*
#6000000000000
1b"
0>
0A
1K
1!#
1|"
0r"
0U
0.
b101110100111110011011100000100 (
b101110100111110011011100000100 +
b101110100111110011011100000100 0
b101110100111110011011100000100 O#
1%
0e"
0g"
0f"
1*
1)
#6500000000000
b1 ,
1["
1]"
1^"
1_"
1a"
03"
0!"
0v
0m
0c
14"
1""
1w
1n
1d"
1M"
05"
0&"
0x
0o
0a
0N"
16"
1'"
1y
1p
1O"
1Q"
0b"
0@"
0R"
0L
1@#
1?#
1<#
1:#
15#
1q"
b1 1
1D#
1.
1e"
1g"
1f"
0*
#7000000000000
0S
0Q
0P
0O
1j"
1l"
1m"
1n"
1J#
1H#
1G#
b101110 &
b101110 /
b101110 N#
1F#
1#
1$
b101110 '
b101110 -
b101110 M#
0.
0e"
0g"
0f"
1*
#7500000000000
b10 ,
1\"
1`"
1Y"
0*"
0d
0W
0["
1]"
1^"
1_"
1+"
1e
1X
13"
0!"
0v
0m
0/"
0#"
0i
0\
04"
1""
1w
1n
10"
1%"
1z
1q
1j
1]
15"
1&"
0x
0o
0I"
06"
0'"
0y
0p
1J"
1b"
1@"
0A"
1L
0M
0@#
0?#
0<#
0:#
05#
0q"
1>#
19#
14#
1p"
0D#
b10 1
1B#
1.
1e"
1g"
1f"
0*
#8000000000000
0N
0R
1S
0V
1o"
1k"
0j"
1h"
b10011111 '
b10011111 -
b10011111 M#
1E#
1I#
0J#
b10011111 &
b10011111 /
b10011111 N#
1L#
0.
0e"
0g"
0f"
1*
0)
#8500000000000
b11 ,
0]"
0Y"
1["
1!"
1W
03"
0""
0X
14"
1c"
1/"
1#"
1x
1o
1i
1\
08"
0,"
0{
0r
0f
0b
0d"
00"
0%"
0z
0q
0j
0]
1:"
1."
1}
1t
1h
1D"
1E"
1I"
0b"
0C"
0F"
0L
1@#
1?#
1<#
1:#
15#
1q"
b11 1
1D#
1.
1e"
1g"
1f"
0*
#9000000000000
1V
0S
1Q
0h"
1j"
0l"
0L#
1J#
b110111 &
b110111 /
b110111 N#
0H#
b110111 '
b110111 -
b110111 M#
0.
0e"
0g"
0f"
1*
#9500000000000
b100 ,
0["
0\"
1^"
0_"
0`"
13"
1*"
0v
1m
1d
04"
0+"
1w
0n
0e
1`
0;"
02"
0~
0u
0l
18"
1,"
0{
1r
1f
1|
0c"
0d"
1a
1M"
0:"
0."
0}
0t
0h
0P"
1b
0E"
0Q"
1N"
1b"
1C"
1F"
1R"
0D"
0J"
0O"
1L
1M
0@#
0?#
0<#
0:#
05#
0q"
0>#
09#
04#
0p"
1A#
1=#
1;#
18#
17#
16#
0D#
0B#
b100 1
1C#
1.
1e"
1g"
1f"
0*
#10000000000000
1Y"
1["
1\"
0^"
1_"
1`"
0W
03"
0*"
1v
0m
0d
1X
14"
1+"
0w
1n
1e
0\
08"
0/"
1{
0r
0i
1^
19"
11"
0|
1s
1k
1N
1O
1R
1S
0=
1?
1A
1B
0D
0F
0G
1I
0J
0K
0o"
0n"
0k"
0j"
1"#
0~"
0|"
0{"
1y"
1w"
1v"
0t"
1s"
1r"
b100 '
b100 -
b100 M#
0E#
0F#
0I#
b100 &
b100 /
b100 N#
0J#
0.
b101110100111110110000110110011 (
b101110100111110110000110110011 +
b101110100111110110000110110011 0
b101110100111110110000110110011 O#
0e"
0g"
0f"
1*
1)
