DEMUX32_8/resultados.vcd
$date
	Mon Sep 21 17:23:48 2020
$end
$version
	Icarus Verilog
$end
$timescale
	10ps
$end
$scope module BUF $end
$var wire 1 ! A $end
$var wire 1 " Y $end
$upscope $end
$scope module Banco $end
$var wire 1 # valid_out_synth $end
$var wire 1 $ valid_out $end
$var wire 1 % valid_in $end
$var wire 8 & data_out_synth [7:0] $end
$var wire 8 ' data_out [7:0] $end
$var wire 32 ( data_in [31:0] $end
$var wire 1 ) clk_f $end
$var wire 1 * clk_4f $end
$scope module demux $end
$var wire 1 % valid_in $end
$var wire 32 + data_in [31:0] $end
$var wire 1 ) clk_f $end
$var wire 1 * clk_4f $end
$var wire 8 , C4 [7:0] $end
$var wire 8 - C3 [7:0] $end
$var wire 8 . C2 [7:0] $end
$var wire 8 / C1 [7:0] $end
$var reg 3 0 counter [2:0] $end
$var reg 8 1 data_out [7:0] $end
$var reg 1 2 notclk_4f $end
$var reg 1 $ valid_out $end
$upscope $end
$scope module demux_synth $end
$var wire 1 # valid_out $end
$var wire 1 % valid_in $end
$var wire 8 3 data_out [7:0] $end
$var wire 32 4 data_in [31:0] $end
$var wire 3 5 counter [2:0] $end
$var wire 1 ) clk_f $end
$var wire 1 * clk_4f $end
$var wire 1 6 _147_ $end
$var wire 1 7 _146_ $end
$var wire 1 8 _145_ $end
$var wire 1 9 _144_ $end
$var wire 1 : _143_ $end
$var wire 1 ; _142_ $end
$var wire 1 < _141_ $end
$var wire 1 = _140_ $end
$var wire 1 > _139_ $end
$var wire 1 ? _138_ $end
$var wire 1 @ _137_ $end
$var wire 1 A _136_ $end
$var wire 1 B _135_ $end
$var wire 1 C _134_ $end
$var wire 1 D _133_ $end
$var wire 1 E _132_ $end
$var wire 1 F _131_ $end
$var wire 1 G _130_ $end
$var wire 1 H _129_ $end
$var wire 1 I _128_ $end
$var wire 1 J _127_ $end
$var wire 1 K _126_ $end
$var wire 1 L _125_ $end
$var wire 1 M _124_ $end
$var wire 1 N _123_ $end
$var wire 1 O _122_ $end
$var wire 1 P _121_ $end
$var wire 1 Q _120_ $end
$var wire 1 R _119_ $end
$var wire 1 S _118_ $end
$var wire 1 T _117_ $end
$var wire 1 U _116_ $end
$var wire 1 V _115_ $end
$var wire 1 W _114_ $end
$var wire 1 X _113_ $end
$var wire 1 Y _112_ $end
$var wire 1 Z _111_ $end
$var wire 1 [ _110_ $end
$var wire 1 \ _109_ $end
$var wire 1 ] _108_ $end
$var wire 1 ^ _107_ $end
$var wire 1 _ _106_ $end
$var wire 1 ` _105_ $end
$var wire 1 a _104_ $end
$var wire 1 b _103_ $end
$var wire 1 c _102_ $end
$var wire 1 d _101_ $end
$var wire 1 e _100_ $end
$var wire 1 f _099_ $end
$var wire 1 g _098_ $end
$var wire 1 h _097_ $end
$var wire 1 i _096_ $end
$var wire 1 j _095_ $end
$var wire 1 k _094_ $end
$var wire 1 l _093_ $end
$var wire 1 m _092_ $end
$var wire 1 n _091_ $end
$var wire 1 o _090_ $end
$var wire 1 p _089_ $end
$var wire 1 q _088_ $end
$var wire 1 r _087_ $end
$var wire 1 s _086_ $end
$var wire 1 t _085_ $end
$var wire 1 u _084_ $end
$var wire 1 v _083_ $end
$var wire 1 w _082_ $end
$var wire 1 x _081_ $end
$var wire 1 y _080_ $end
$var wire 1 z _079_ $end
$var wire 1 { _078_ $end
$var wire 1 | _077_ $end
$var wire 1 } _076_ $end
$var wire 1 ~ _075_ $end
$var wire 1 !" _074_ $end
$var wire 1 "" _073_ $end
$var wire 1 #" _072_ $end
$var wire 1 $" _071_ $end
$var wire 1 %" _070_ $end
$var wire 1 &" _069_ $end
$var wire 1 '" _068_ $end
$var wire 1 (" _067_ $end
$var wire 1 )" _066_ $end
$var wire 1 *" _065_ $end
$var wire 1 +" _064_ $end
$var wire 1 ," _063_ $end
$var wire 1 -" _062_ $end
$var wire 1 ." _061_ $end
$var wire 1 /" _060_ $end
$var wire 1 0" _059_ $end
$var wire 1 1" _058_ $end
$var wire 1 2" _057_ $end
$var wire 1 3" _056_ $end
$var wire 1 4" _055_ $end
$var wire 1 5" _054_ $end
$var wire 1 6" _053_ $end
$var wire 1 7" _052_ $end
$var wire 1 8" _051_ $end
$var wire 1 9" _050_ $end
$var wire 1 :" _049_ $end
$var wire 1 ;" _048_ $end
$var wire 1 <" _047_ $end
$var wire 1 =" _046_ $end
$var wire 1 >" _045_ $end
$var wire 1 ?" _044_ $end
$var wire 1 @" _043_ $end
$var wire 1 A" _042_ $end
$var wire 1 B" _041_ $end
$var wire 1 C" _040_ $end
$var wire 1 D" _039_ $end
$var wire 1 E" _038_ $end
$var wire 1 F" _037_ $end
$var wire 1 G" _036_ $end
$var wire 1 H" _035_ $end
$var wire 1 I" _034_ $end
$var wire 1 J" _033_ $end
$var wire 1 K" _032_ $end
$var wire 1 L" _031_ $end
$var wire 1 M" _030_ $end
$var wire 1 N" _029_ $end
$var wire 1 O" _028_ $end
$var wire 1 P" _027_ $end
$var wire 1 Q" _026_ $end
$var wire 1 R" _025_ $end
$var wire 1 S" _024_ $end
$var wire 1 T" _023_ $end
$var wire 1 U" _022_ $end
$var wire 1 V" _021_ $end
$var wire 1 W" _020_ $end
$var wire 1 X" _019_ $end
$var wire 1 Y" _018_ $end
$var wire 1 Z" _017_ $end
$var wire 1 [" _016_ $end
$var wire 1 \" _015_ $end
$var wire 1 ]" _014_ $end
$var wire 1 ^" _013_ $end
$var wire 1 _" _012_ $end
$var wire 1 `" _011_ $end
$var wire 1 a" _010_ $end
$var wire 1 b" _009_ $end
$var wire 1 c" _008_ $end
$var wire 1 d" _007_ $end
$var wire 1 e" _006_ $end
$var wire 1 f" _005_ $end
$var wire 1 g" _004_ $end
$var wire 1 h" _003_ $end
$var wire 1 i" _002_ $end
$var wire 1 j" _001_ $end
$var wire 1 k" _000_ $end
$var wire 8 l" C4 [7:0] $end
$var wire 8 m" C3 [7:0] $end
$var wire 8 n" C2 [7:0] $end
$var wire 8 o" C1 [7:0] $end
$scope module _148_ $end
$var wire 1 [ Y $end
$var wire 1 \ B $end
$var wire 1 c A $end
$upscope $end
$scope module _149_ $end
$var wire 1 [ B $end
$var wire 1 ]" Y $end
$var wire 1 Y A $end
$upscope $end
$scope module _150_ $end
$var wire 1 j" Y $end
$var wire 1 * A $end
$upscope $end
$scope module _151_ $end
$var wire 1 k" Y $end
$var wire 1 * A $end
$upscope $end
$scope module _152_ $end
$var wire 1 p" A $end
$var wire 1 Z Y $end
$upscope $end
$scope module _153_ $end
$var wire 1 Y Y $end
$var wire 1 % A $end
$upscope $end
$scope module _154_ $end
$var wire 1 q" A $end
$var wire 1 X Y $end
$upscope $end
$scope module _155_ $end
$var wire 1 r" A $end
$var wire 1 W Y $end
$upscope $end
$scope module _156_ $end
$var wire 1 s" A $end
$var wire 1 V Y $end
$upscope $end
$scope module _157_ $end
$var wire 1 t" A $end
$var wire 1 U Y $end
$upscope $end
$scope module _158_ $end
$var wire 1 u" A $end
$var wire 1 T Y $end
$upscope $end
$scope module _159_ $end
$var wire 1 v" A $end
$var wire 1 S Y $end
$upscope $end
$scope module _160_ $end
$var wire 1 w" A $end
$var wire 1 R Y $end
$upscope $end
$scope module _161_ $end
$var wire 1 i" Y $end
$var wire 1 * A $end
$upscope $end
$scope module _162_ $end
$var wire 1 x" A $end
$var wire 1 Q Y $end
$upscope $end
$scope module _163_ $end
$var wire 1 y" A $end
$var wire 1 P Y $end
$upscope $end
$scope module _164_ $end
$var wire 1 z" A $end
$var wire 1 O Y $end
$upscope $end
$scope module _165_ $end
$var wire 1 {" A $end
$var wire 1 N Y $end
$upscope $end
$scope module _166_ $end
$var wire 1 |" A $end
$var wire 1 M Y $end
$upscope $end
$scope module _167_ $end
$var wire 1 }" A $end
$var wire 1 L Y $end
$upscope $end
$scope module _168_ $end
$var wire 1 ~" A $end
$var wire 1 K Y $end
$upscope $end
$scope module _169_ $end
$var wire 1 !# A $end
$var wire 1 J Y $end
$upscope $end
$scope module _170_ $end
$var wire 1 "# A $end
$var wire 1 I Y $end
$upscope $end
$scope module _171_ $end
$var wire 1 ## A $end
$var wire 1 H Y $end
$upscope $end
$scope module _172_ $end
$var wire 1 $# A $end
$var wire 1 G Y $end
$upscope $end
$scope module _173_ $end
$var wire 1 %# A $end
$var wire 1 F Y $end
$upscope $end
$scope module _174_ $end
$var wire 1 &# A $end
$var wire 1 E Y $end
$upscope $end
$scope module _175_ $end
$var wire 1 '# A $end
$var wire 1 D Y $end
$upscope $end
$scope module _176_ $end
$var wire 1 (# A $end
$var wire 1 C Y $end
$upscope $end
$scope module _177_ $end
$var wire 1 )# A $end
$var wire 1 B Y $end
$upscope $end
$scope module _178_ $end
$var wire 1 *# A $end
$var wire 1 A Y $end
$upscope $end
$scope module _179_ $end
$var wire 1 +# A $end
$var wire 1 @ Y $end
$upscope $end
$scope module _180_ $end
$var wire 1 ,# A $end
$var wire 1 ? Y $end
$upscope $end
$scope module _181_ $end
$var wire 1 -# A $end
$var wire 1 > Y $end
$upscope $end
$scope module _182_ $end
$var wire 1 .# A $end
$var wire 1 = Y $end
$upscope $end
$scope module _183_ $end
$var wire 1 /# A $end
$var wire 1 < Y $end
$upscope $end
$scope module _184_ $end
$var wire 1 0# A $end
$var wire 1 ; Y $end
$upscope $end
$scope module _185_ $end
$var wire 1 1# A $end
$var wire 1 : Y $end
$upscope $end
$scope module _186_ $end
$var wire 1 2# A $end
$var wire 1 9 Y $end
$upscope $end
$scope module _187_ $end
$var wire 1 3# A $end
$var wire 1 8 Y $end
$upscope $end
$scope module _188_ $end
$var wire 1 4# A $end
$var wire 1 7 Y $end
$upscope $end
$scope module _189_ $end
$var wire 1 5# A $end
$var wire 1 6 Y $end
$upscope $end
$scope module _190_ $end
$var wire 1 6# A $end
$var wire 1 \" Y $end
$upscope $end
$scope module _191_ $end
$var wire 1 7# A $end
$var wire 1 [" Y $end
$upscope $end
$scope module _192_ $end
$var wire 1 8# A $end
$var wire 1 Z" Y $end
$upscope $end
$scope module _193_ $end
$var wire 1 9# A $end
$var wire 1 Y" Y $end
$upscope $end
$scope module _194_ $end
$var wire 1 :# A $end
$var wire 1 X" Y $end
$upscope $end
$scope module _195_ $end
$var wire 1 ;# A $end
$var wire 1 W" Y $end
$upscope $end
$scope module _196_ $end
$var wire 1 <# A $end
$var wire 1 =# B $end
$var wire 1 V" Y $end
$upscope $end
$scope module _197_ $end
$var wire 1 V" A $end
$var wire 1 U" Y $end
$upscope $end
$scope module _198_ $end
$var wire 1 ># A $end
$var wire 1 V" B $end
$var wire 1 T" Y $end
$upscope $end
$scope module _199_ $end
$var wire 1 ?# A $end
$var wire 1 V" B $end
$var wire 1 S" Y $end
$upscope $end
$scope module _200_ $end
$var wire 1 S" A $end
$var wire 1 R" Y $end
$upscope $end
$scope module _201_ $end
$var wire 1 T" A $end
$var wire 1 R" B $end
$var wire 1 Q" Y $end
$upscope $end
$scope module _202_ $end
$var wire 1 X A $end
$var wire 1 Q" B $end
$var wire 1 P" Y $end
$upscope $end
$scope module _203_ $end
$var wire 1 I A $end
$var wire 1 T" B $end
$var wire 1 O" Y $end
$upscope $end
$scope module _204_ $end
$var wire 1 @# A $end
$var wire 1 Q B $end
$var wire 1 N" Y $end
$upscope $end
$scope module _205_ $end
$var wire 1 P A $end
$var wire 1 N" B $end
$var wire 1 M" Y $end
$upscope $end
$scope module _206_ $end
$var wire 1 9 A $end
$var wire 1 M" B $end
$var wire 1 L" Y $end
$upscope $end
$scope module _207_ $end
$var wire 1 O" A $end
$var wire 1 L" B $end
$var wire 1 K" Y $end
$upscope $end
$scope module _208_ $end
$var wire 1 A# A $end
$var wire 1 B# B $end
$var wire 1 J" Y $end
$upscope $end
$scope module _209_ $end
$var wire 1 J" A $end
$var wire 1 I" Y $end
$upscope $end
$scope module _210_ $end
$var wire 1 C# A $end
$var wire 1 J" B $end
$var wire 1 H" Y $end
$upscope $end
$scope module _211_ $end
$var wire 1 D# A $end
$var wire 1 N" B $end
$var wire 1 G" Y $end
$upscope $end
$scope module _212_ $end
$var wire 1 A A $end
$var wire 1 G" B $end
$var wire 1 F" Y $end
$upscope $end
$scope module _213_ $end
$var wire 1 E# A $end
$var wire 1 F# B $end
$var wire 1 E" Y $end
$upscope $end
$scope module _214_ $end
$var wire 1 G# A $end
$var wire 1 E" B $end
$var wire 1 D" Y $end
$upscope $end
$scope module _215_ $end
$var wire 1 X" A $end
$var wire 1 D" B $end
$var wire 1 C" Y $end
$upscope $end
$scope module _216_ $end
$var wire 1 F" A $end
$var wire 1 C" B $end
$var wire 1 B" Y $end
$upscope $end
$scope module _217_ $end
$var wire 1 K" A $end
$var wire 1 B" B $end
$var wire 1 A" Y $end
$upscope $end
$scope module _218_ $end
$var wire 1 P" A $end
$var wire 1 A" B $end
$var wire 1 @" Y $end
$upscope $end
$scope module _219_ $end
$var wire 1 Y A $end
$var wire 1 @" B $end
$var wire 1 ^" Y $end
$upscope $end
$scope module _220_ $end
$var wire 1 W A $end
$var wire 1 Q" B $end
$var wire 1 ?" Y $end
$upscope $end
$scope module _221_ $end
$var wire 1 B A $end
$var wire 1 G" B $end
$var wire 1 >" Y $end
$upscope $end
$scope module _222_ $end
$var wire 1 J A $end
$var wire 1 T" B $end
$var wire 1 =" Y $end
$upscope $end
$scope module _223_ $end
$var wire 1 >" A $end
$var wire 1 =" B $end
$var wire 1 <" Y $end
$upscope $end
$scope module _224_ $end
$var wire 1 : A $end
$var wire 1 M" B $end
$var wire 1 ;" Y $end
$upscope $end
$scope module _225_ $end
$var wire 1 Y" A $end
$var wire 1 D" B $end
$var wire 1 :" Y $end
$upscope $end
$scope module _226_ $end
$var wire 1 ;" A $end
$var wire 1 :" B $end
$var wire 1 9" Y $end
$upscope $end
$scope module _227_ $end
$var wire 1 <" A $end
$var wire 1 9" B $end
$var wire 1 8" Y $end
$upscope $end
$scope module _228_ $end
$var wire 1 ?" A $end
$var wire 1 8" B $end
$var wire 1 7" Y $end
$upscope $end
$scope module _229_ $end
$var wire 1 Y A $end
$var wire 1 7" B $end
$var wire 1 _" Y $end
$upscope $end
$scope module _230_ $end
$var wire 1 V A $end
$var wire 1 Q" B $end
$var wire 1 6" Y $end
$upscope $end
$scope module _231_ $end
$var wire 1 K A $end
$var wire 1 T" B $end
$var wire 1 5" Y $end
$upscope $end
$scope module _232_ $end
$var wire 1 ; A $end
$var wire 1 M" B $end
$var wire 1 4" Y $end
$upscope $end
$scope module _233_ $end
$var wire 1 5" A $end
$var wire 1 4" B $end
$var wire 1 3" Y $end
$upscope $end
$scope module _234_ $end
$var wire 1 C A $end
$var wire 1 G" B $end
$var wire 1 2" Y $end
$upscope $end
$scope module _235_ $end
$var wire 1 Z" A $end
$var wire 1 D" B $end
$var wire 1 1" Y $end
$upscope $end
$scope module _236_ $end
$var wire 1 2" A $end
$var wire 1 1" B $end
$var wire 1 0" Y $end
$upscope $end
$scope module _237_ $end
$var wire 1 3" A $end
$var wire 1 0" B $end
$var wire 1 /" Y $end
$upscope $end
$scope module _238_ $end
$var wire 1 6" A $end
$var wire 1 /" B $end
$var wire 1 ." Y $end
$upscope $end
$scope module _239_ $end
$var wire 1 Y A $end
$var wire 1 ." B $end
$var wire 1 `" Y $end
$upscope $end
$scope module _240_ $end
$var wire 1 U A $end
$var wire 1 Q" B $end
$var wire 1 -" Y $end
$upscope $end
$scope module _241_ $end
$var wire 1 L A $end
$var wire 1 T" B $end
$var wire 1 ," Y $end
$upscope $end
$scope module _242_ $end
$var wire 1 [" A $end
$var wire 1 D" B $end
$var wire 1 +" Y $end
$upscope $end
$scope module _243_ $end
$var wire 1 ," A $end
$var wire 1 +" B $end
$var wire 1 *" Y $end
$upscope $end
$scope module _244_ $end
$var wire 1 < A $end
$var wire 1 M" B $end
$var wire 1 )" Y $end
$upscope $end
$scope module _245_ $end
$var wire 1 D A $end
$var wire 1 G" B $end
$var wire 1 (" Y $end
$upscope $end
$scope module _246_ $end
$var wire 1 )" A $end
$var wire 1 (" B $end
$var wire 1 '" Y $end
$upscope $end
$scope module _247_ $end
$var wire 1 *" A $end
$var wire 1 '" B $end
$var wire 1 &" Y $end
$upscope $end
$scope module _248_ $end
$var wire 1 -" A $end
$var wire 1 &" B $end
$var wire 1 %" Y $end
$upscope $end
$scope module _249_ $end
$var wire 1 Y A $end
$var wire 1 %" B $end
$var wire 1 a" Y $end
$upscope $end
$scope module _250_ $end
$var wire 1 T A $end
$var wire 1 Q" B $end
$var wire 1 $" Y $end
$upscope $end
$scope module _251_ $end
$var wire 1 E A $end
$var wire 1 G" B $end
$var wire 1 #" Y $end
$upscope $end
$scope module _252_ $end
$var wire 1 M A $end
$var wire 1 T" B $end
$var wire 1 "" Y $end
$upscope $end
$scope module _253_ $end
$var wire 1 #" A $end
$var wire 1 "" B $end
$var wire 1 !" Y $end
$upscope $end
$scope module _254_ $end
$var wire 1 = A $end
$var wire 1 M" B $end
$var wire 1 ~ Y $end
$upscope $end
$scope module _255_ $end
$var wire 1 \" A $end
$var wire 1 D" B $end
$var wire 1 } Y $end
$upscope $end
$scope module _256_ $end
$var wire 1 ~ A $end
$var wire 1 } B $end
$var wire 1 | Y $end
$upscope $end
$scope module _257_ $end
$var wire 1 !" A $end
$var wire 1 | B $end
$var wire 1 { Y $end
$upscope $end
$scope module _258_ $end
$var wire 1 $" A $end
$var wire 1 { B $end
$var wire 1 z Y $end
$upscope $end
$scope module _259_ $end
$var wire 1 Y A $end
$var wire 1 z B $end
$var wire 1 b" Y $end
$upscope $end
$scope module _260_ $end
$var wire 1 S A $end
$var wire 1 Q" B $end
$var wire 1 y Y $end
$upscope $end
$scope module _261_ $end
$var wire 1 F A $end
$var wire 1 G" B $end
$var wire 1 x Y $end
$upscope $end
$scope module _262_ $end
$var wire 1 N A $end
$var wire 1 T" B $end
$var wire 1 w Y $end
$upscope $end
$scope module _263_ $end
$var wire 1 x A $end
$var wire 1 w B $end
$var wire 1 v Y $end
$upscope $end
$scope module _264_ $end
$var wire 1 > A $end
$var wire 1 M" B $end
$var wire 1 u Y $end
$upscope $end
$scope module _265_ $end
$var wire 1 6 A $end
$var wire 1 D" B $end
$var wire 1 t Y $end
$upscope $end
$scope module _266_ $end
$var wire 1 u A $end
$var wire 1 t B $end
$var wire 1 s Y $end
$upscope $end
$scope module _267_ $end
$var wire 1 v A $end
$var wire 1 s B $end
$var wire 1 r Y $end
$upscope $end
$scope module _268_ $end
$var wire 1 y A $end
$var wire 1 r B $end
$var wire 1 q Y $end
$upscope $end
$scope module _269_ $end
$var wire 1 Y A $end
$var wire 1 q B $end
$var wire 1 c" Y $end
$upscope $end
$scope module _270_ $end
$var wire 1 R A $end
$var wire 1 Q" B $end
$var wire 1 p Y $end
$upscope $end
$scope module _271_ $end
$var wire 1 O A $end
$var wire 1 T" B $end
$var wire 1 o Y $end
$upscope $end
$scope module _272_ $end
$var wire 1 ? A $end
$var wire 1 M" B $end
$var wire 1 n Y $end
$upscope $end
$scope module _273_ $end
$var wire 1 o A $end
$var wire 1 n B $end
$var wire 1 m Y $end
$upscope $end
$scope module _274_ $end
$var wire 1 G A $end
$var wire 1 G" B $end
$var wire 1 l Y $end
$upscope $end
$scope module _275_ $end
$var wire 1 7 A $end
$var wire 1 D" B $end
$var wire 1 k Y $end
$upscope $end
$scope module _276_ $end
$var wire 1 l A $end
$var wire 1 k B $end
$var wire 1 j Y $end
$upscope $end
$scope module _277_ $end
$var wire 1 m A $end
$var wire 1 j B $end
$var wire 1 i Y $end
$upscope $end
$scope module _278_ $end
$var wire 1 p A $end
$var wire 1 i B $end
$var wire 1 h Y $end
$upscope $end
$scope module _279_ $end
$var wire 1 Y A $end
$var wire 1 h B $end
$var wire 1 d" Y $end
$upscope $end
$scope module _280_ $end
$var wire 1 Q" B $end
$var wire 1 g Y $end
$var wire 1 # A $end
$upscope $end
$scope module _281_ $end
$var wire 1 Y A $end
$var wire 1 g B $end
$var wire 1 e" Y $end
$upscope $end
$scope module _282_ $end
$var wire 1 Y A $end
$var wire 1 H# B $end
$var wire 1 f" Y $end
$upscope $end
$scope module _283_ $end
$var wire 1 H" B $end
$var wire 1 f Y $end
$var wire 1 % A $end
$upscope $end
$scope module _284_ $end
$var wire 1 U" B $end
$var wire 1 e Y $end
$var wire 1 % A $end
$upscope $end
$scope module _285_ $end
$var wire 1 I" A $end
$var wire 1 e B $end
$var wire 1 h" Y $end
$upscope $end
$scope module _286_ $end
$var wire 1 I# A $end
$var wire 1 h" B $end
$var wire 1 d Y $end
$upscope $end
$scope module _287_ $end
$var wire 1 f A $end
$var wire 1 d B $end
$var wire 1 g" Y $end
$upscope $end
$scope module _288_ $end
$var wire 1 Z A $end
$var wire 1 Q" B $end
$var wire 1 c Y $end
$upscope $end
$scope module _289_ $end
$var wire 1 H A $end
$var wire 1 T" B $end
$var wire 1 b Y $end
$upscope $end
$scope module _290_ $end
$var wire 1 8 A $end
$var wire 1 M" B $end
$var wire 1 a Y $end
$upscope $end
$scope module _291_ $end
$var wire 1 b A $end
$var wire 1 a B $end
$var wire 1 ` Y $end
$upscope $end
$scope module _292_ $end
$var wire 1 @ A $end
$var wire 1 G" B $end
$var wire 1 _ Y $end
$upscope $end
$scope module _293_ $end
$var wire 1 W" A $end
$var wire 1 D" B $end
$var wire 1 ^ Y $end
$upscope $end
$scope module _294_ $end
$var wire 1 _ A $end
$var wire 1 ^ B $end
$var wire 1 ] Y $end
$upscope $end
$scope module _295_ $end
$var wire 1 ` A $end
$var wire 1 ] B $end
$var wire 1 \ Y $end
$upscope $end
$scope module _296_ $end
$var wire 1 k" C $end
$var wire 1 h" D $end
$var reg 1 J# Q $end
$upscope $end
$scope module _297_ $end
$var wire 1 j" C $end
$var wire 1 g" D $end
$var reg 1 K# Q $end
$upscope $end
$scope module _298_ $end
$var wire 1 i" C $end
$var wire 1 f" D $end
$var reg 1 L# Q $end
$upscope $end
$scope module _299_ $end
$var wire 1 e" D $end
$var wire 1 * C $end
$var reg 1 # Q $end
$upscope $end
$scope module _300_ $end
$var wire 1 d" D $end
$var wire 1 * C $end
$var reg 1 M# Q $end
$upscope $end
$scope module _301_ $end
$var wire 1 c" D $end
$var wire 1 * C $end
$var reg 1 N# Q $end
$upscope $end
$scope module _302_ $end
$var wire 1 b" D $end
$var wire 1 * C $end
$var reg 1 O# Q $end
$upscope $end
$scope module _303_ $end
$var wire 1 a" D $end
$var wire 1 * C $end
$var reg 1 P# Q $end
$upscope $end
$scope module _304_ $end
$var wire 1 `" D $end
$var wire 1 * C $end
$var reg 1 Q# Q $end
$upscope $end
$scope module _305_ $end
$var wire 1 _" D $end
$var wire 1 * C $end
$var reg 1 R# Q $end
$upscope $end
$scope module _306_ $end
$var wire 1 ^" D $end
$var wire 1 * C $end
$var reg 1 S# Q $end
$upscope $end
$scope module _307_ $end
$var wire 1 ]" D $end
$var wire 1 * C $end
$var reg 1 T# Q $end
$upscope $end
$upscope $end
$scope module test $end
$var wire 8 U# data_out [7:0] $end
$var wire 8 V# data_out_synth [7:0] $end
$var wire 1 $ valid_out $end
$var wire 1 # valid_out_synth $end
$var reg 1 * clk_4f $end
$var reg 1 ) clk_f $end
$var reg 32 W# data_in [31:0] $end
$var reg 1 X# error $end
$var reg 1 % valid_in $end
$var integer 32 Y# T [31:0] $end
$upscope $end
$upscope $end
$scope module DFFSR $end
$var wire 1 Z# C $end
$var wire 1 [# D $end
$var wire 1 \# R $end
$var wire 1 ]# S $end
$var reg 1 ^# Q $end
$upscope $end
$enddefinitions $end
#0
$dumpvars
x^#
z]#
z\#
z[#
zZ#
b10100 Y#
1X#
b101110100111110001001100000101 W#
bx V#
b0 U#
xT#
xS#
xR#
xQ#
xP#
xO#
xN#
xM#
xL#
xK#
xJ#
xI#
xH#
xG#
xF#
xE#
xD#
xC#
xB#
xA#
x@#
x?#
x>#
x=#
x<#
0;#
0:#
19#
08#
17#
16#
15#
04#
13#
02#
01#
10#
1/#
1.#
1-#
1,#
0+#
0*#
0)#
1(#
0'#
0&#
1%#
1$#
0##
0"#
0!#
0~"
0}"
1|"
0{"
1z"
xy"
xx"
xw"
xv"
xu"
xt"
xs"
xr"
xq"
xp"
b101 o"
b10011 n"
b10011111 m"
b101110 l"
0k"
0j"
0i"
0h"
0g"
0f"
0e"
0d"
0c"
0b"
0a"
0`"
0_"
0^"
0]"
0\"
0["
1Z"
0Y"
1X"
1W"
xV"
xU"
xT"
xS"
xR"
xQ"
xP"
0O"
xN"
xM"
0L"
1K"
xJ"
xI"
xH"
xG"
0F"
xE"
xD"
0C"
1B"
0A"
x@"
x?"
0>"
0="
1<"
0;"
x:"
x9"
x8"
x7"
x6"
05"
x4"
x3"
x2"
01"
x0"
x/"
x."
x-"
0,"
x+"
x*"
x)"
0("
x'"
x&"
x%"
x$"
0#"
x""
x!"
x~
x}
x|
x{
xz
xy
xx
0w
xv
xu
xt
xs
xr
xq
xp
xo
xn
xm
xl
0k
xj
xi
xh
xg
1f
1e
1d
xc
0b
xa
x`
0_
0^
1]
x\
x[
xZ
1Y
xX
xW
xV
xU
xT
xS
xR
xQ
xP
0O
1N
0M
1L
1K
1J
1I
1H
0G
0F
1E
1D
0C
1B
1A
1@
0?
0>
0=
0<
0;
1:
19
08
17
06
bx 5
b101110100111110001001100000101 4
bx 3
02
b0 1
b0 0
b101 /
b10011 .
b10011111 -
b101110 ,
b101110100111110001001100000101 +
1*
0)
b101110100111110001001100000101 (
b0 '
bx &
0%
0$
x#
z"
z!
$end
#500000000000
0/"
0&"
0{
0r
0i
0\
13"
1'"
1|
1s
1m
1`
08"
0Q"
04"
0)"
0~
0u
0n
0a
19"
1*"
10"
1v
1j
1!"
1R"
1M"
0:"
0+"
0}
0t
02"
0x
0l
0H"
0S"
0""
0o
0I"
0U"
0N"
1D"
1G"
1J"
1V"
1E"
1T"
1P
1Q
0H#
0G#
0D#
0B#
0=#
0y"
0F#
0A#
0<#
0x"
0I#
0E#
0C#
0@#
0?#
0>#
0L#
0J#
b0 5
0K#
12
1i"
1k"
1j"
0*
#1000000000000
1[
1@"
17"
1."
1%"
1z
1q
1h
0c
0P"
0?"
06"
0-"
0$"
0y
0p
1Z
1X
1W
1V
1U
1T
1S
1R
1g
0p"
0q"
0r"
0s"
0t"
0u"
0v"
0w"
0T#
0S#
0R#
0Q#
0P#
0O#
0N#
b0 &
b0 3
b0 V#
0M#
0#
02
0i"
0k"
0j"
1*
#1500000000000
12
1i"
1k"
1j"
0*
#2000000000000
0X#
02
0i"
0k"
0j"
1*
1)
#2500000000000
12
1i"
1k"
1j"
0*
#3000000000000
02
0i"
0k"
0j"
1*
#3500000000000
12
1i"
1k"
1j"
0*
#4000000000000
02
0i"
0k"
0j"
1*
0)
#4500000000000
12
1i"
1k"
1j"
0*
#5000000000000
02
0i"
0k"
0j"
1*
#5500000000000
12
1i"
1k"
1j"
0*
#6000000000000
1f"
0B
0E
1O
b110111 n"
b100 o"
1)#
1&#
0z"
b110111 .
b100 /
0Y
02
b101110100111110011011100000100 (
b101110100111110011011100000100 +
b101110100111110011011100000100 4
b101110100111110011011100000100 W#
1%
0i"
0k"
0j"
1*
1)
#6500000000000
b1 0
1_"
1a"
1b"
1c"
1e"
07"
0%"
0z
0q
0g
18"
1&"
1{
1r
1h"
1Q"
09"
0*"
0|
0s
0e
0R"
1:"
1+"
1}
1t
1S"
1U"
0f"
0D"
0V"
0P
1H#
1G#
1D#
1B#
1=#
1y"
b1 5
1L#
12
1i"
1k"
1j"
0*
#7000000000000
0W
0U
0T
0S
1r"
1t"
1u"
1v"
1R#
1P#
1O#
b101110 &
b101110 3
b101110 V#
1N#
1#
1$
b101110 '
b101110 1
b101110 U#
02
0i"
0k"
0j"
1*
#7500000000000
b10 0
1`"
1d"
1]"
0."
0h
0[
0_"
1a"
1b"
1c"
1/"
1i
1\
17"
0%"
0z
0q
03"
0'"
0m
0`
08"
1&"
1{
1r
14"
1)"
1~
1u
1n
1a
19"
1*"
0|
0s
0M"
0:"
0+"
0}
0t
1N"
1f"
1D"
0E"
1P
0Q
0H#
0G#
0D#
0B#
0=#
0y"
1F#
1A#
1<#
1x"
0L#
b10 5
1J#
12
1i"
1k"
1j"
0*
#8000000000000
0R
0V
1W
0Z
1w"
1s"
0r"
1p"
b10011111 '
b10011111 1
b10011111 U#
1M#
1Q#
0R#
b10011111 &
b10011111 3
b10011111 V#
1T#
02
0i"
0k"
0j"
1*
0)
#8500000000000
b11 0
0a"
0]"
1_"
1%"
1[
07"
0&"
0\
18"
1g"
13"
1'"
1|
1s
1m
1`
0<"
00"
0!"
0v
0j
0f
0h"
04"
0)"
0~
0u
0n
0a
1>"
12"
1#"
1x
1l
1H"
1I"
1M"
0f"
0G"
0J"
0P
1H#
1G#
1D#
1B#
1=#
1y"
b11 5
1L#
12
1i"
1k"
1j"
0*
#9000000000000
1Z
0W
1U
0p"
1r"
0t"
0T#
1R#
b110111 &
b110111 3
b110111 V#
0P#
b110111 '
b110111 1
b110111 U#
02
0i"
0k"
0j"
1*
#9500000000000
b100 0
0_"
0`"
1b"
0c"
0d"
17"
1."
0z
1q
1h
08"
0/"
1{
0r
0i
1d
0?"
06"
0$"
0y
0p
1<"
10"
0!"
1v
1j
1""
0g"
0h"
1e
1Q"
0>"
02"
0#"
0x
0l
0T"
1f
0I"
0U"
1R"
1f"
1G"
1J"
1V"
0H"
0N"
0S"
1P
1Q
0H#
0G#
0D#
0B#
0=#
0y"
0F#
0A#
0<#
0x"
1I#
1E#
1C#
1@#
1?#
1>#
0L#
0J#
b100 5
1K#
12
1i"
1k"
1j"
0*
